Round,Date,Team 1,FT,HT,Team 2
?,(Sun) 11 Sep 1955,Atlético de Bilbao (1),6-1,1-2,Sevilla (1)
?,(Sun) 11 Sep 1955,Atlético de Madrid (1),9-0,0-2,Hércules (1)
?,(Sun) 11 Sep 1955,Celta de Vigo (1),3-1,8-3,Real Madrid (1)
?,(Sun) 11 Sep 1955,Español (1),4-3,2-0,Valladolid (1)
?,(Sun) 11 Sep 1955,Las Palmas (1),2-0,4-2,Valencia (1)
?,(Sun) 11 Sep 1955,Cultural Leonesa (1),4-1,1-0,Alavés (1)
?,(Sun) 11 Sep 1955,Murcia (1),5-4,2-0,Deportivo de La Coruña (1)
?,(Sun) 11 Sep 1955,Real Sociedad (1),1-2,2-0,Barcelona (1)
?,(Sun) 18 Sep 1955,Barcelona (2),2-2,0-2,Atlético de Madrid (2)
?,(Sun) 18 Sep 1955,Alavés (2),1-1,1-1,Real Sociedad (2)
?,(Sun) 18 Sep 1955,Deportivo de La Coruña (2),1-2,5-0,Las Palmas (2)
?,(Sun) 18 Sep 1955,Hércules (2),2-1,3-1,Murcia (2)
?,(Sun) 18 Sep 1955,Real Madrid (2),2-1,3-1,Atlético de Bilbao (2)
?,(Sun) 18 Sep 1955,Sevilla (2),4-0,2-1,Español (2)
?,(Sun) 18 Sep 1955,Valencia (2),6-0,2-0,Celta de Vigo (2)
?,(Sun) 18 Sep 1955,Valladolid (2),3-0,0-0,Cultural Leonesa (2)
?,(Sun) 25 Sep 1955,Atlético de Bilbao (3),4-2,1-0,Valencia (3)
?,(Sun) 25 Sep 1955,Atlético de Madrid (3),8-1,0-0,Alavés (3)
?,(Sun) 25 Sep 1955,Deportivo de La Coruña (3),3-0,5-1,Hércules (3)
?,(Sun) 25 Sep 1955,Español (3),2-1,7-1,Real Madrid (3)
?,(Sun) 25 Sep 1955,Las Palmas (3),2-1,3-0,Celta de Vigo (3)
?,(Sun) 25 Sep 1955,Cultural Leonesa (3),0-4,3-1,Sevilla (3)
?,(Sun) 25 Sep 1955,Murcia (3),0-1,1-0,Barcelona (3)
?,(Sun) 25 Sep 1955,Real Sociedad (3),4-1,1-0,Valladolid (3)
?,(Sun) 2 Oct 1955,Barcelona (4),4-1,0-7,Deportivo de La Coruña (4)
?,(Sun) 2 Oct 1955,Celta de Vigo (4),2-0,4-0,Atlético de Bilbao (4)
?,(Sun) 2 Oct 1955,Alavés (4),5-2,3-3,Murcia (4)
?,(Sun) 2 Oct 1955,Las Palmas (4),6-1,0-5,Hércules (4)
?,(Sun) 2 Oct 1955,Real Madrid (4),2-1,0-4,Cultural Leonesa (4)
?,(Sun) 2 Oct 1955,Sevilla (4),2-0,2-2,Real Sociedad (4)
?,(Sun) 2 Oct 1955,Valencia (4),2-1,0-1,Español (4)
?,(Sun) 2 Oct 1955,Valladolid (4),3-1,3-1,Atlético de Madrid (4)
?,(Sun) 9 Oct 1955,Atlético de Bilbao (5),5-0,1-1,Las Palmas (5)
?,(Sun) 9 Oct 1955,Atlético de Madrid (5),4-1,4-0,Sevilla (5)
?,(Sun) 9 Oct 1955,Deportivo de La Coruña (5),5-3,4-2,Alavés (5)
?,(Sun) 9 Oct 1955,Español (5),6-1,2-3,Celta de Vigo (5)
?,(Sun) 9 Oct 1955,Hércules (5),2-3,6-4,Barcelona (5)
?,(Sun) 9 Oct 1955,Cultural Leonesa (5),3-0,1-1,Valencia (5)
?,(Sun) 9 Oct 1955,Murcia (5),0-1,3-0,Valladolid (5)
?,(Sun) 9 Oct 1955,Real Sociedad (5),1-0,2-0,Real Madrid (5)
?,(Sun) 16 Oct 1955,Atlético de Bilbao (6),2-1,0-1,Español (6)
?,(Sun) 16 Oct 1955,Barcelona (6),4-0,0-1,Las Palmas (6)
?,(Sun) 16 Oct 1955,Celta de Vigo (6),3-2,4-1,Cultural Leonesa (6)
?,(Sun) 16 Oct 1955,Alavés (6),4-0,1-1,Hércules (6)
?,(Sun) 16 Oct 1955,Real Madrid (6),3-2,1-0,Atlético de Madrid (6)
?,(Sun) 16 Oct 1955,Sevilla (6),4-1,2-0,Murcia (6)
?,(Sun) 16 Oct 1955,Valencia (6),1-1,3-1,Real Sociedad (6)
?,(Sun) 16 Oct 1955,Valladolid (6),4-1,1-1,Deportivo de La Coruña (6)
?,(Sun) 23 Oct 1955,Atlético de Madrid (7),3-1,0-1,Valencia (7)
?,(Sun) 23 Oct 1955,Barcelona (7),3-1,1-3,Alavés (7)
?,(Sun) 23 Oct 1955,Deportivo de La Coruña (7),3-2,5-0,Sevilla (7)
?,(Sun) 23 Oct 1955,Hércules (7),2-0,3-0,Valladolid (7)
?,(Sun) 23 Oct 1955,Las Palmas (7),1-2,2-2,Español (7)
?,(Sun) 23 Oct 1955,Cultural Leonesa (7),1-3,3-0,Atlético de Bilbao (7)
?,(Sun) 23 Oct 1955,Murcia (7),1-1,7-1,Real Madrid (7)
?,(Sun) 23 Oct 1955,Real Sociedad (7),2-1,2-1,Celta de Vigo (7)
?,(Sun) 30 Oct 1955,Atlético de Bilbao (8),3-0,2-2,Real Sociedad (8)
?,(Sun) 30 Oct 1955,Celta de Vigo (8),2-2,3-2,Atlético de Madrid (8)
?,(Sun) 30 Oct 1955,Español (8),1-1,0-1,Cultural Leonesa (8)
?,(Sun) 30 Oct 1955,Las Palmas (8),2-1,2-0,Alavés (8)
?,(Sun) 30 Oct 1955,Real Madrid (8),1-2,0-2,Deportivo de La Coruña (8)
?,(Sun) 30 Oct 1955,Sevilla (8),3-0,1-4,Hércules (8)
?,(Sun) 30 Oct 1955,Valencia (8),4-1,0-0,Murcia (8)
?,(Sun) 30 Oct 1955,Valladolid (8),1-0,2-0,Barcelona (8)
?,(Sun) 6 Nov 1955,Atlético de Madrid (9),2-3,2-1,Atlético de Bilbao (9)
?,(Sun) 6 Nov 1955,Barcelona (9),3-1,0-0,Sevilla (9)
?,(Sun) 6 Nov 1955,Alavés (9),3-0,4-0,Valladolid (9)
?,(Sun) 6 Nov 1955,Deportivo de La Coruña (9),3-3,4-0,Valencia (9)
?,(Sun) 6 Nov 1955,Hércules (9),0-4,4-1,Real Madrid (9)
?,(Sun) 6 Nov 1955,Cultural Leonesa (9),1-2,1-2,Las Palmas (9)
?,(Sun) 6 Nov 1955,Murcia (9),2-2,1-3,Celta de Vigo (9)
?,(Sun) 6 Nov 1955,Real Sociedad (9),5-0,3-0,Español (9)
?,(Sun) 13 Nov 1955,Atlético de Bilbao (10),7-1,2-1,Murcia (10)
?,(Sun) 13 Nov 1955,Celta de Vigo (10),4-1,5-0,Deportivo de La Coruña (10)
?,(Sun) 13 Nov 1955,Español (10),4-1,5-0,Atlético de Madrid (10)
?,(Sun) 13 Nov 1955,Las Palmas (10),3-2,4-1,Valladolid (10)
?,(Sun) 13 Nov 1955,Cultural Leonesa (10),0-0,2-1,Real Sociedad (10)
?,(Sun) 13 Nov 1955,Real Madrid (10),2-1,2-0,Barcelona (10)
?,(Sun) 13 Nov 1955,Sevilla (10),3-0,2-1,Alavés (10)
?,(Sun) 13 Nov 1955,Valencia (10),4-1,4-0,Hércules (10)
?,(Sun) 20 Nov 1955,Atlético de Madrid (11),6-1,2-4,Cultural Leonesa (11)
?,(Sun) 20 Nov 1955,Barcelona (11),4-2,4-2,Valencia (11)
?,(Sun) 20 Nov 1955,Alavés (11),1-3,5-0,Real Madrid (11)
?,(Sun) 20 Nov 1955,Deportivo de La Coruña (11),2-2,2-2,Atlético de Bilbao (11)
?,(Sun) 20 Nov 1955,Las Palmas (11),2-0,4-2,Real Sociedad (11)
?,(Sun) 20 Nov 1955,Murcia (11),2-3,1-0,Español (11)
?,(Sun) 20 Nov 1955,Valladolid (11),3-1,4-1,Sevilla (11)
?,(Sun) 27 Nov 1955,Hércules (11),0-2,2-1,Celta de Vigo (11)
?,(Sun) 4 Dec 1955,Atlético de Bilbao (12),3-1,0-3,Hércules (12)
?,(Sun) 4 Dec 1955,Celta de Vigo (12),0-0,2-1,Barcelona (12)
?,(Sun) 4 Dec 1955,Español (12),3-2,3-1,Deportivo de La Coruña (12)
?,(Sun) 4 Dec 1955,Cultural Leonesa (12),0-1,3-1,Murcia (12)
?,(Sun) 4 Dec 1955,Real Sociedad (12),3-1,4-5,Atlético de Madrid (12)
?,(Sun) 4 Dec 1955,Real Madrid (12),5-1,2-2,Valladolid (12)
?,(Sun) 4 Dec 1955,Sevilla (12),3-0,2-3,Las Palmas (12)
?,(Sun) 4 Dec 1955,Valencia (12),3-1,3-3,Alavés (12)
?,(Sun) 18 Dec 1955,Atlético de Madrid (13),1-1,1-1,Las Palmas (13)
?,(Sun) 18 Dec 1955,Barcelona (13),1-2,1-0,Atlético de Bilbao (13)
?,(Sun) 18 Dec 1955,Alavés (13),5-1,3-0,Celta de Vigo (13)
?,(Sun) 18 Dec 1955,Deportivo de La Coruña (13),4-3,1-2,Cultural Leonesa (13)
?,(Sun) 18 Dec 1955,Hércules (13),1-1,2-0,Español (13)
?,(Sun) 18 Dec 1955,Murcia (13),6-1,3-3,Real Sociedad (13)
?,(Sun) 18 Dec 1955,Sevilla (13),2-0,3-4,Real Madrid (13)
?,(Sun) 18 Dec 1955,Valladolid (13),1-1,5-1,Valencia (13)
?,(Sun) 1 Jan 1956,Atlético de Bilbao (14),3-2,0-3,Alavés (14)
?,(Sun) 1 Jan 1956,Atlético de Madrid (14),4-0,1-0,Murcia (14)
?,(Sun) 1 Jan 1956,Celta de Vigo (14),3-0,4-2,Valladolid (14)
?,(Sun) 1 Jan 1956,Español (14),0-3,1-0,Barcelona (14)
?,(Sun) 1 Jan 1956,Las Palmas (14),1-3,6-0,Real Madrid (14)
?,(Sun) 1 Jan 1956,Cultural Leonesa (14),3-1,3-1,Hércules (14)
?,(Sun) 1 Jan 1956,Real Sociedad (14),3-1,5-0,Deportivo de La Coruña (14)
?,(Sun) 1 Jan 1956,Valencia (14),3-0,4-0,Sevilla (14)
?,(Sun) 8 Jan 1956,Barcelona (15),4-0,0-1,Cultural Leonesa (15)
?,(Sun) 8 Jan 1956,Alavés (15),2-0,6-0,Español (15)
?,(Sun) 8 Jan 1956,Deportivo de La Coruña (15),3-0,4-1,Atlético de Madrid (15)
?,(Sun) 8 Jan 1956,Hércules (15),1-1,2-0,Real Sociedad (15)
?,(Sun) 8 Jan 1956,Murcia (15),2-1,2-0,Las Palmas (15)
?,(Sun) 8 Jan 1956,Real Madrid (15),1-0,2-1,Valencia (15)
?,(Sun) 8 Jan 1956,Sevilla (15),7-0,3-1,Celta de Vigo (15)
?,(Sun) 8 Jan 1956,Valladolid (15),2-4,3-0,Atlético de Bilbao (15)
?,(Sun) 15 Jan 1956,Barcelona (16),2-0,1-2,Real Sociedad (16)
?,(Sun) 15 Jan 1956,Alavés (16),1-0,4-1,Cultural Leonesa (16)
?,(Sun) 15 Jan 1956,Deportivo de La Coruña (16),2-0,5-4,Murcia (16)
?,(Sun) 15 Jan 1956,Hércules (16),0-2,9-0,Atlético de Madrid (16)
?,(Sun) 15 Jan 1956,Real Madrid (16),8-3,3-1,Celta de Vigo (16)
?,(Sun) 15 Jan 1956,Sevilla (16),1-2,6-1,Atlético de Bilbao (16)
?,(Sun) 15 Jan 1956,Valencia (16),4-2,2-0,Las Palmas (16)
?,(Sun) 15 Jan 1956,Valladolid (16),2-0,4-3,Español (16)
?,(Sun) 22 Jan 1956,Atlético de Bilbao (17),3-1,2-1,Real Madrid (17)
?,(Sun) 22 Jan 1956,Atlético de Madrid (17),0-2,2-2,Barcelona (17)
?,(Sun) 22 Jan 1956,Celta de Vigo (17),2-0,6-0,Valencia (17)
?,(Sun) 22 Jan 1956,Español (17),2-1,4-0,Sevilla (17)
?,(Sun) 22 Jan 1956,Las Palmas (17),5-0,1-2,Deportivo de La Coruña (17)
?,(Sun) 22 Jan 1956,Cultural Leonesa (17),0-0,3-0,Valladolid (17)
?,(Sun) 22 Jan 1956,Murcia (17),3-1,2-1,Hércules (17)
?,(Sun) 22 Jan 1956,Real Sociedad (17),1-1,1-1,Alavés (17)
?,(Sun) 29 Jan 1956,Barcelona (18),1-0,0-1,Murcia (18)
?,(Sun) 29 Jan 1956,Celta de Vigo (18),3-0,2-1,Las Palmas (18)
?,(Sun) 29 Jan 1956,Alavés (18),0-0,8-1,Atlético de Madrid (18)
?,(Sun) 29 Jan 1956,Hércules (18),5-1,3-0,Deportivo de La Coruña (18)
?,(Sun) 29 Jan 1956,Sevilla (18),3-1,0-4,Cultural Leonesa (18)
?,(Sun) 29 Jan 1956,Valencia (18),1-0,4-2,Atlético de Bilbao (18)
?,(Sun) 29 Jan 1956,Valladolid (18),1-0,4-1,Real Sociedad (18)
?,(Thu) 9 Feb 1956,Real Madrid (18),7-1,2-1,Español (18)
?,(Sun) 5 Feb 1956,Atlético de Bilbao (19),4-0,2-0,Celta de Vigo (19)
?,(Sun) 5 Feb 1956,Atlético de Madrid (19),3-1,3-1,Valladolid (19)
?,(Sun) 5 Feb 1956,Deportivo de La Coruña (19),0-7,4-1,Barcelona (19)
?,(Sun) 5 Feb 1956,Español (19),0-1,2-1,Valencia (19)
?,(Sun) 5 Feb 1956,Hércules (19),0-5,6-1,Las Palmas (19)
?,(Sun) 5 Feb 1956,Cultural Leonesa (19),0-4,2-1,Real Madrid (19)
?,(Sun) 5 Feb 1956,Murcia (19),3-3,5-2,Alavés (19)
?,(Sun) 5 Feb 1956,Real Sociedad (19),2-2,2-0,Sevilla (19)
?,(Sun) 12 Feb 1956,Barcelona (20),6-4,2-3,Hércules (20)
?,(Sun) 12 Feb 1956,Celta de Vigo (20),2-3,6-1,Español (20)
?,(Sun) 12 Feb 1956,Las Palmas (20),1-1,5-0,Atlético de Bilbao (20)
?,(Sun) 12 Feb 1956,Real Madrid (20),2-0,1-0,Real Sociedad (20)
?,(Sun) 12 Feb 1956,Sevilla (20),4-0,4-1,Atlético de Madrid (20)
?,(Sun) 12 Feb 1956,Valencia (20),1-1,3-0,Cultural Leonesa (20)
?,(Sun) 12 Feb 1956,Valladolid (20),3-0,0-1,Murcia (20)
?,(Tue) 14 Feb 1956,Alavés (20),4-2,5-3,Deportivo de La Coruña (20)
?,(Sun) 19 Feb 1956,Atlético de Madrid (21),1-0,3-2,Real Madrid (21)
?,(Sun) 19 Feb 1956,Deportivo de La Coruña (21),1-1,4-1,Valladolid (21)
?,(Sun) 19 Feb 1956,Español (21),0-1,2-1,Atlético de Bilbao (21)
?,(Sun) 19 Feb 1956,Hércules (21),1-1,4-0,Alavés (21)
?,(Sun) 19 Feb 1956,Las Palmas (21),0-1,4-0,Barcelona (21)
?,(Sun) 19 Feb 1956,Cultural Leonesa (21),4-1,3-2,Celta de Vigo (21)
?,(Sun) 19 Feb 1956,Murcia (21),2-0,4-1,Sevilla (21)
?,(Sun) 19 Feb 1956,Real Sociedad (21),3-1,1-1,Valencia (21)
?,(Sun) 26 Feb 1956,Atlético de Bilbao (22),3-0,1-3,Cultural Leonesa (22)
?,(Sun) 26 Feb 1956,Español (22),2-2,1-2,Las Palmas (22)
?,(Sun) 26 Feb 1956,Real Madrid (22),7-1,1-1,Murcia (22)
?,(Sun) 26 Feb 1956,Valencia (22),0-1,3-1,Atlético de Madrid (22)
?,(Sun) 26 Feb 1956,Valladolid (22),3-0,2-0,Hércules (22)
?,(Tue) 28 Feb 1956,Celta de Vigo (22),2-1,2-1,Real Sociedad (22)
?,(Tue) 28 Feb 1956,Alavés (22),1-3,3-1,Barcelona (22)
?,(Tue) 28 Feb 1956,Sevilla (22),5-0,3-2,Deportivo de La Coruña (22)
?,(Sun) 4 Mar 1956,Atlético de Madrid (23),3-2,2-2,Celta de Vigo (23)
?,(Sun) 4 Mar 1956,Barcelona (23),2-0,1-0,Valladolid (23)
?,(Sun) 4 Mar 1956,Alavés (23),2-0,2-1,Las Palmas (23)
?,(Sun) 4 Mar 1956,Deportivo de La Coruña (23),0-2,1-2,Real Madrid (23)
?,(Sun) 4 Mar 1956,Hércules (23),1-4,3-0,Sevilla (23)
?,(Sun) 4 Mar 1956,Cultural Leonesa (23),0-1,1-1,Español (23)
?,(Sun) 4 Mar 1956,Murcia (23),0-0,4-1,Valencia (23)
?,(Sun) 4 Mar 1956,Real Sociedad (23),2-2,3-0,Atlético de Bilbao (23)
?,(Sun) 11 Mar 1956,Atlético de Bilbao (24),2-1,2-3,Atlético de Madrid (24)
?,(Sun) 11 Mar 1956,Celta de Vigo (24),1-3,2-2,Murcia (24)
?,(Sun) 11 Mar 1956,Español (24),3-0,5-0,Real Sociedad (24)
?,(Sun) 11 Mar 1956,Las Palmas (24),1-2,1-2,Cultural Leonesa (24)
?,(Sun) 11 Mar 1956,Real Madrid (24),4-1,0-4,Hércules (24)
?,(Sun) 11 Mar 1956,Sevilla (24),0-0,3-1,Barcelona (24)
?,(Sun) 11 Mar 1956,Valencia (24),4-0,3-3,Deportivo de La Coruña (24)
?,(Sun) 11 Mar 1956,Valladolid (24),4-0,3-0,Alavés (24)
?,(Sun) 18 Mar 1956,Atlético de Madrid (25),5-0,4-1,Español (25)
?,(Sun) 18 Mar 1956,Barcelona (25),2-0,2-1,Real Madrid (25)
?,(Sun) 18 Mar 1956,Alavés (25),2-1,3-0,Sevilla (25)
?,(Sun) 18 Mar 1956,Deportivo de La Coruña (25),5-0,4-1,Celta de Vigo (25)
?,(Sun) 18 Mar 1956,Hércules (25),4-0,4-1,Valencia (25)
?,(Sun) 18 Mar 1956,Murcia (25),2-1,7-1,Atlético de Bilbao (25)
?,(Sun) 18 Mar 1956,Real Sociedad (25),2-1,0-0,Cultural Leonesa (25)
?,(Sun) 18 Mar 1956,Valladolid (25),4-1,3-2,Las Palmas (25)
?,(Sun) 25 Mar 1956,Atlético de Bilbao (26),2-2,2-2,Deportivo de La Coruña (26)
?,(Sun) 25 Mar 1956,Celta de Vigo (26),2-1,0-2,Hércules (26)
?,(Sun) 25 Mar 1956,Español (26),1-0,2-3,Murcia (26)
?,(Sun) 25 Mar 1956,Cultural Leonesa (26),2-4,6-1,Atlético de Madrid (26)
?,(Sun) 25 Mar 1956,Real Sociedad (26),4-2,2-0,Las Palmas (26)
?,(Sun) 25 Mar 1956,Real Madrid (26),5-0,1-3,Alavés (26)
?,(Sun) 25 Mar 1956,Sevilla (26),4-1,3-1,Valladolid (26)
?,(Sun) 25 Mar 1956,Valencia (26),4-2,4-2,Barcelona (26)
?,(Sun) 1 Apr 1956,Atlético de Madrid (27),4-5,3-1,Real Sociedad (27)
?,(Sun) 1 Apr 1956,Barcelona (27),2-1,0-0,Celta de Vigo (27)
?,(Sun) 1 Apr 1956,Alavés (27),3-3,3-1,Valencia (27)
?,(Sun) 1 Apr 1956,Deportivo de La Coruña (27),3-1,3-2,Español (27)
?,(Sun) 1 Apr 1956,Hércules (27),0-3,3-1,Atlético de Bilbao (27)
?,(Sun) 1 Apr 1956,Las Palmas (27),2-3,3-0,Sevilla (27)
?,(Sun) 1 Apr 1956,Murcia (27),3-1,0-1,Cultural Leonesa (27)
?,(Sun) 1 Apr 1956,Valladolid (27),2-2,5-1,Real Madrid (27)
?,(Sun) 8 Apr 1956,Atlético de Bilbao (28),1-0,1-2,Barcelona (28)
?,(Sun) 8 Apr 1956,Celta de Vigo (28),3-0,5-1,Alavés (28)
?,(Sun) 8 Apr 1956,Español (28),2-0,1-1,Hércules (28)
?,(Sun) 8 Apr 1956,Las Palmas (28),1-1,1-1,Atlético de Madrid (28)
?,(Sun) 8 Apr 1956,Cultural Leonesa (28),1-2,4-3,Deportivo de La Coruña (28)
?,(Sun) 8 Apr 1956,Real Sociedad (28),3-3,6-1,Murcia (28)
?,(Sun) 8 Apr 1956,Real Madrid (28),3-4,2-0,Sevilla (28)
?,(Sun) 8 Apr 1956,Valencia (28),5-1,1-1,Valladolid (28)
?,(Sun) 15 Apr 1956,Barcelona (29),1-0,0-3,Español (29)
?,(Sun) 15 Apr 1956,Deportivo de La Coruña (29),5-0,3-1,Real Sociedad (29)
?,(Sun) 15 Apr 1956,Hércules (29),3-1,3-1,Cultural Leonesa (29)
?,(Sun) 15 Apr 1956,Murcia (29),1-0,4-0,Atlético de Madrid (29)
?,(Sun) 15 Apr 1956,Real Madrid (29),6-0,1-3,Las Palmas (29)
?,(Sun) 15 Apr 1956,Sevilla (29),4-0,3-0,Valencia (29)
?,(Sun) 15 Apr 1956,Valladolid (29),4-2,3-0,Celta de Vigo (29)
?,(Mon) 16 Apr 1956,Alavés (29),0-3,3-2,Atlético de Bilbao (29)
?,(Sun) 22 Apr 1956,Atlético de Bilbao (30),3-0,2-4,Valladolid (30)
?,(Sun) 22 Apr 1956,Atlético de Madrid (30),4-1,3-0,Deportivo de La Coruña (30)
?,(Sun) 22 Apr 1956,Celta de Vigo (30),3-1,7-0,Sevilla (30)
?,(Sun) 22 Apr 1956,Español (30),6-0,2-0,Alavés (30)
?,(Sun) 22 Apr 1956,Las Palmas (30),2-0,2-1,Murcia (30)
?,(Sun) 22 Apr 1956,Cultural Leonesa (30),0-1,4-0,Barcelona (30)
?,(Sun) 22 Apr 1956,Real Sociedad (30),2-0,1-1,Hércules (30)
?,(Sun) 22 Apr 1956,Valencia (30),2-1,1-0,Real Madrid (30)
