Round,Date,Team 1,FT,HT,Team 2
?,(Sat) 3 Sep 1983,Español (1),1-4,1-0,Atlético de Madrid (1)
?,(Sat) 3 Sep 1983,Sporting de Gijón (1),1-1,0-3,Valencia (1)
?,(Sat) 3 Sep 1983,Murcia (1),3-1,0-0,Real Sociedad (1)
?,(Sun) 4 Sep 1983,Mallorca (1),1-1,1-1,Zaragoza (1)
?,(Sun) 4 Sep 1983,Osasuna (1),0-0,3-1,Salamanca (1)
?,(Sun) 4 Sep 1983,Real Madrid (1),2-0,4-1,Betis (1)
?,(Sun) 4 Sep 1983,Sevilla (1),3-1,3-1,Barcelona (1)
?,(Sun) 4 Sep 1983,Valladolid (1),2-2,3-1,CD Málaga (1)
?,(Sat) 17 Dec 1983,Athletic Club (1),3-1,0-1,Cádiz (1)
?,(Sat) 10 Sep 1983,Atlético de Madrid (2),1-0,0-1,Sevilla (2)
?,(Sat) 10 Sep 1983,Barcelona (2),1-0,4-2,Osasuna (2)
?,(Sat) 10 Sep 1983,Real Sociedad (2),3-0,1-2,Sporting de Gijón (2)
?,(Sat) 10 Sep 1983,Valencia (2),3-2,2-1,Valladolid (2)
?,(Sun) 11 Sep 1983,Betis (2),4-1,4-1,Español (2)
?,(Sun) 11 Sep 1983,Cádiz (2),1-3,3-1,Murcia (2)
?,(Sun) 11 Sep 1983,CD Málaga (2),6-2,1-0,Real Madrid (2)
?,(Sun) 11 Sep 1983,Salamanca (2),1-1,1-1,Mallorca (2)
?,(Sun) 11 Sep 1983,Zaragoza (2),1-2,1-0,Athletic Club (2)
?,(Sat) 17 Sep 1983,Betis (3),2-0,1-1,CD Málaga (3)
?,(Sat) 17 Sep 1983,Valladolid (3),4-1,2-1,Real Sociedad (3)
?,(Sun) 18 Sep 1983,Athletic Club (3),6-3,1-2,Salamanca (3)
?,(Sun) 18 Sep 1983,Español (3),1-0,2-1,Sevilla (3)
?,(Sun) 18 Sep 1983,Sporting de Gijón (3),2-1,0-2,Cádiz (3)
?,(Sun) 18 Sep 1983,Mallorca (3),1-4,1-1,Barcelona (3)
?,(Sun) 18 Sep 1983,Murcia (3),0-0,2-1,Zaragoza (3)
?,(Sun) 18 Sep 1983,Osasuna (3),1-2,3-0,Atlético de Madrid (3)
?,(Sun) 18 Sep 1983,Real Madrid (3),0-1,0-0,Valencia (3)
?,(Sat) 24 Sep 1983,Atlético de Madrid (4),3-0,1-1,Mallorca (4)
?,(Sat) 24 Sep 1983,Barcelona (4),4-0,1-2,Athletic Club (4)
?,(Sat) 24 Sep 1983,Real Sociedad (4),1-3,0-0,Real Madrid (4)
?,(Sat) 24 Sep 1983,Sevilla (4),3-0,3-0,Osasuna (4)
?,(Sat) 24 Sep 1983,Valencia (4),3-1,3-2,Betis (4)
?,(Sun) 25 Sep 1983,Cádiz (4),5-1,2-0,Valladolid (4)
?,(Sun) 25 Sep 1983,CD Málaga (4),2-1,1-1,Español (4)
?,(Sun) 25 Sep 1983,Salamanca (4),2-2,1-0,Murcia (4)
?,(Sun) 25 Sep 1983,Zaragoza (4),4-1,1-1,Sporting de Gijón (4)
?,(Sat) 1 Oct 1983,Athletic Club (5),2-2,1-0,Atlético de Madrid (5)
?,(Sun) 2 Oct 1983,Betis (5),0-0,1-0,Real Sociedad (5)
?,(Sun) 2 Oct 1983,Español (5),2-0,0-0,Osasuna (5)
?,(Sun) 2 Oct 1983,Sporting de Gijón (5),1-1,0-1,Salamanca (5)
?,(Sun) 2 Oct 1983,CD Málaga (5),2-1,1-1,Valencia (5)
?,(Sun) 2 Oct 1983,Mallorca (5),2-2,0-0,Sevilla (5)
?,(Sun) 2 Oct 1983,Murcia (5),0-0,2-0,Barcelona (5)
?,(Sun) 2 Oct 1983,Real Madrid (5),6-2,2-3,Cádiz (5)
?,(Sun) 2 Oct 1983,Valladolid (5),2-1,1-1,Zaragoza (5)
?,(Sat) 8 Oct 1983,Real Sociedad (6),0-2,2-2,CD Málaga (6)
?,(Sun) 9 Oct 1983,Atlético de Madrid (6),1-1,0-0,Murcia (6)
?,(Sun) 9 Oct 1983,Barcelona (6),4-0,0-0,Sporting de Gijón (6)
?,(Sun) 9 Oct 1983,Cádiz (6),0-0,2-1,Betis (6)
?,(Sun) 9 Oct 1983,Osasuna (6),4-0,3-0,Mallorca (6)
?,(Sun) 9 Oct 1983,Salamanca (6),2-2,3-1,Valladolid (6)
?,(Sun) 9 Oct 1983,Sevilla (6),4-1,5-0,Athletic Club (6)
?,(Sun) 9 Oct 1983,Valencia (6),4-0,1-2,Español (6)
?,(Sun) 9 Oct 1983,Zaragoza (6),3-1,1-0,Real Madrid (6)
?,(Sat) 15 Oct 1983,Athletic Club (7),1-0,1-1,Osasuna (7)
?,(Sat) 15 Oct 1983,Valladolid (7),2-1,5-0,Barcelona (7)
?,(Sun) 16 Oct 1983,Betis (7),3-1,5-0,Zaragoza (7)
?,(Sun) 16 Oct 1983,Español (7),3-1,1-1,Mallorca (7)
?,(Sun) 16 Oct 1983,Sporting de Gijón (7),2-0,1-1,Atlético de Madrid (7)
?,(Sun) 16 Oct 1983,CD Málaga (7),1-1,0-0,Cádiz (7)
?,(Sun) 16 Oct 1983,Murcia (7),1-1,1-0,Sevilla (7)
?,(Sun) 16 Oct 1983,Real Madrid (7),3-0,0-1,Salamanca (7)
?,(Sun) 16 Oct 1983,Valencia (7),2-1,1-0,Real Sociedad (7)
?,(Sat) 22 Oct 1983,Barcelona (8),1-2,2-1,Real Madrid (8)
?,(Sun) 23 Oct 1983,Atlético de Madrid (8),3-1,1-2,Valladolid (8)
?,(Sun) 23 Oct 1983,Cádiz (8),2-0,1-1,Valencia (8)
?,(Sun) 23 Oct 1983,Mallorca (8),0-0,4-0,Athletic Club (8)
?,(Sun) 23 Oct 1983,Osasuna (8),1-0,4-0,Murcia (8)
?,(Sun) 23 Oct 1983,Real Sociedad (8),1-1,2-2,Español (8)
?,(Sun) 23 Oct 1983,Salamanca (8),1-3,1-0,Betis (8)
?,(Sun) 23 Oct 1983,Sevilla (8),1-1,1-0,Sporting de Gijón (8)
?,(Sun) 23 Oct 1983,Zaragoza (8),1-0,0-1,CD Málaga (8)
?,(Sat) 29 Oct 1983,Español (9),0-0,1-1,Athletic Club (9)
?,(Sun) 30 Oct 1983,Betis (9),0-0,3-1,Barcelona (9)
?,(Sun) 30 Oct 1983,Sporting de Gijón (9),2-1,1-0,Osasuna (9)
?,(Sun) 30 Oct 1983,CD Málaga (9),2-1,1-0,Salamanca (9)
?,(Sun) 30 Oct 1983,Murcia (9),4-1,1-1,Mallorca (9)
?,(Sun) 30 Oct 1983,Real Sociedad (9),1-0,1-1,Cádiz (9)
?,(Sun) 30 Oct 1983,Real Madrid (9),5-0,1-0,Atlético de Madrid (9)
?,(Sun) 30 Oct 1983,Valencia (9),1-3,0-3,Zaragoza (9)
?,(Sun) 30 Oct 1983,Valladolid (9),3-3,2-1,Sevilla (9)
?,(Sat) 5 Nov 1983,Sevilla (10),4-1,2-2,Real Madrid (10)
?,(Sun) 6 Nov 1983,Athletic Club (10),4-1,0-1,Murcia (10)
?,(Sun) 6 Nov 1983,Atlético de Madrid (10),4-3,1-0,Betis (10)
?,(Sun) 6 Nov 1983,Barcelona (10),1-0,0-1,CD Málaga (10)
?,(Sun) 6 Nov 1983,Cádiz (10),1-1,1-1,Español (10)
?,(Sun) 6 Nov 1983,Mallorca (10),1-2,0-3,Sporting de Gijón (10)
?,(Sun) 6 Nov 1983,Osasuna (10),3-0,0-1,Valladolid (10)
?,(Sun) 6 Nov 1983,Salamanca (10),1-0,1-0,Valencia (10)
?,(Sun) 6 Nov 1983,Zaragoza (10),2-1,2-1,Real Sociedad (10)
?,(Wed) 9 Nov 1983,Betis (11),1-0,2-1,Sevilla (11)
?,(Wed) 9 Nov 1983,Cádiz (11),1-2,1-2,Zaragoza (11)
?,(Wed) 9 Nov 1983,Español (11),1-1,2-0,Murcia (11)
?,(Wed) 9 Nov 1983,Sporting de Gijón (11),2-2,1-0,Athletic Club (11)
?,(Wed) 9 Nov 1983,CD Málaga (11),5-1,3-1,Atlético de Madrid (11)
?,(Wed) 9 Nov 1983,Real Sociedad (11),4-0,1-1,Salamanca (11)
?,(Wed) 9 Nov 1983,Real Madrid (11),2-0,1-1,Osasuna (11)
?,(Wed) 9 Nov 1983,Valencia (11),2-4,0-0,Barcelona (11)
?,(Wed) 9 Nov 1983,Valladolid (11),2-0,1-1,Mallorca (11)
?,(Sat) 19 Nov 1983,Osasuna (12),1-0,1-0,Betis (12)
?,(Sun) 20 Nov 1983,Athletic Club (12),1-0,0-0,Valladolid (12)
?,(Sun) 20 Nov 1983,Atlético de Madrid (12),1-2,1-2,Valencia (12)
?,(Sun) 20 Nov 1983,Barcelona (12),0-0,0-1,Real Sociedad (12)
?,(Sun) 20 Nov 1983,Mallorca (12),0-2,2-0,Real Madrid (12)
?,(Sun) 20 Nov 1983,Murcia (12),2-1,1-1,Sporting de Gijón (12)
?,(Sun) 20 Nov 1983,Salamanca (12),1-0,2-0,Cádiz (12)
?,(Sun) 20 Nov 1983,Sevilla (12),0-0,1-0,CD Málaga (12)
?,(Sun) 20 Nov 1983,Zaragoza (12),2-4,0-0,Español (12)
?,(Sat) 26 Nov 1983,Cádiz (13),1-1,4-1,Barcelona (13)
?,(Sun) 27 Nov 1983,Betis (13),2-0,0-1,Mallorca (13)
?,(Sun) 27 Nov 1983,Español (13),2-0,0-1,Sporting de Gijón (13)
?,(Sun) 27 Nov 1983,CD Málaga (13),1-2,0-0,Osasuna (13)
?,(Sun) 27 Nov 1983,Real Sociedad (13),3-1,2-1,Atlético de Madrid (13)
?,(Sun) 27 Nov 1983,Real Madrid (13),0-0,2-1,Athletic Club (13)
?,(Sun) 27 Nov 1983,Valencia (13),2-0,2-0,Sevilla (13)
?,(Sun) 27 Nov 1983,Valladolid (13),2-1,1-2,Murcia (13)
?,(Sun) 27 Nov 1983,Zaragoza (13),3-0,1-1,Salamanca (13)
?,(Sun) 4 Dec 1983,Athletic Club (14),2-0,2-0,Betis (14)
?,(Sun) 4 Dec 1983,Atlético de Madrid (14),1-0,3-1,Cádiz (14)
?,(Sun) 4 Dec 1983,Barcelona (14),0-0,0-1,Zaragoza (14)
?,(Sun) 4 Dec 1983,Sporting de Gijón (14),5-1,2-0,Valladolid (14)
?,(Sun) 4 Dec 1983,Mallorca (14),0-0,2-0,CD Málaga (14)
?,(Sun) 4 Dec 1983,Murcia (14),0-1,3-2,Real Madrid (14)
?,(Sun) 4 Dec 1983,Osasuna (14),2-0,2-0,Valencia (14)
?,(Sun) 4 Dec 1983,Salamanca (14),2-2,3-0,Español (14)
?,(Sun) 4 Dec 1983,Sevilla (14),0-3,1-0,Real Sociedad (14)
?,(Sun) 11 Dec 1983,Betis (15),1-0,1-0,Murcia (15)
?,(Sun) 11 Dec 1983,Cádiz (15),0-1,2-1,Sevilla (15)
?,(Sun) 11 Dec 1983,Español (15),2-0,0-0,Valladolid (15)
?,(Sun) 11 Dec 1983,CD Málaga (15),0-0,2-1,Athletic Club (15)
?,(Sun) 11 Dec 1983,Real Sociedad (15),1-0,0-3,Osasuna (15)
?,(Sun) 11 Dec 1983,Real Madrid (15),2-1,1-2,Sporting de Gijón (15)
?,(Sun) 11 Dec 1983,Salamanca (15),1-3,2-0,Barcelona (15)
?,(Sun) 11 Dec 1983,Valencia (15),2-2,1-2,Mallorca (15)
?,(Sun) 11 Dec 1983,Zaragoza (15),2-2,3-3,Atlético de Madrid (15)
?,(Wed) 14 Dec 1983,Athletic Club (16),2-0,1-2,Valencia (16)
?,(Wed) 14 Dec 1983,Atlético de Madrid (16),1-0,2-2,Salamanca (16)
?,(Wed) 14 Dec 1983,Español (16),1-0,5-2,Barcelona (16)
?,(Wed) 14 Dec 1983,Sporting de Gijón (16),2-0,3-0,Betis (16)
?,(Wed) 14 Dec 1983,Mallorca (16),2-1,1-0,Real Sociedad (16)
?,(Wed) 14 Dec 1983,Murcia (16),2-1,1-0,CD Málaga (16)
?,(Wed) 14 Dec 1983,Osasuna (16),2-0,0-0,Cádiz (16)
?,(Wed) 14 Dec 1983,Sevilla (16),2-0,1-1,Zaragoza (16)
?,(Wed) 14 Dec 1983,Valladolid (16),0-2,2-1,Real Madrid (16)
?,(Sat) 31 Dec 1983,Barcelona (17),2-1,1-2,Atlético de Madrid (17)
?,(Sat) 31 Dec 1983,Real Sociedad (17),0-1,2-1,Athletic Club (17)
?,(Sat) 31 Dec 1983,Real Madrid (17),1-0,1-2,Español (17)
?,(Sat) 31 Dec 1983,Salamanca (17),1-0,3-2,Sevilla (17)
?,(Sun) 1 Jan 1984,Betis (17),3-1,1-0,Valladolid (17)
?,(Sun) 1 Jan 1984,Cádiz (17),3-0,1-1,Mallorca (17)
?,(Sun) 1 Jan 1984,CD Málaga (17),3-1,2-0,Sporting de Gijón (17)
?,(Sun) 1 Jan 1984,Valencia (17),1-1,3-3,Murcia (17)
?,(Sun) 1 Jan 1984,Zaragoza (17),2-0,1-4,Osasuna (17)
?,(Sat) 7 Jan 1984,Betis (18),4-1,2-0,Real Madrid (18)
?,(Sun) 8 Jan 1984,Atlético de Madrid (18),1-0,1-4,Español (18)
?,(Sun) 8 Jan 1984,Barcelona (18),3-1,3-1,Sevilla (18)
?,(Sun) 8 Jan 1984,Cádiz (18),0-1,3-1,Athletic Club (18)
?,(Sun) 8 Jan 1984,CD Málaga (18),3-1,2-2,Valladolid (18)
?,(Sun) 8 Jan 1984,Real Sociedad (18),0-0,3-1,Murcia (18)
?,(Sun) 8 Jan 1984,Salamanca (18),3-1,0-0,Osasuna (18)
?,(Sun) 8 Jan 1984,Valencia (18),0-3,1-1,Sporting de Gijón (18)
?,(Sun) 8 Jan 1984,Zaragoza (18),1-1,1-1,Mallorca (18)
?,(Sun) 15 Jan 1984,Athletic Club (19),1-0,1-2,Zaragoza (19)
?,(Sun) 15 Jan 1984,Español (19),4-1,4-1,Betis (19)
?,(Sun) 15 Jan 1984,Sporting de Gijón (19),1-2,3-0,Real Sociedad (19)
?,(Sun) 15 Jan 1984,Mallorca (19),1-1,1-1,Salamanca (19)
?,(Sun) 15 Jan 1984,Murcia (19),3-1,1-3,Cádiz (19)
?,(Sun) 15 Jan 1984,Osasuna (19),4-2,1-0,Barcelona (19)
?,(Sun) 15 Jan 1984,Real Madrid (19),1-0,6-2,CD Málaga (19)
?,(Sun) 15 Jan 1984,Sevilla (19),0-1,1-0,Atlético de Madrid (19)
?,(Sun) 15 Jan 1984,Valladolid (19),2-1,3-2,Valencia (19)
?,(Sat) 21 Jan 1984,CD Málaga (20),1-1,2-0,Betis (20)
?,(Sun) 22 Jan 1984,Atlético de Madrid (20),3-0,1-2,Osasuna (20)
?,(Sun) 22 Jan 1984,Barcelona (20),1-1,1-4,Mallorca (20)
?,(Sun) 22 Jan 1984,Cádiz (20),0-2,2-1,Sporting de Gijón (20)
?,(Sun) 22 Jan 1984,Real Sociedad (20),2-1,4-1,Valladolid (20)
?,(Sun) 22 Jan 1984,Salamanca (20),1-2,6-3,Athletic Club (20)
?,(Sun) 22 Jan 1984,Sevilla (20),2-1,1-0,Español (20)
?,(Sun) 22 Jan 1984,Valencia (20),0-0,0-1,Real Madrid (20)
?,(Sun) 22 Jan 1984,Zaragoza (20),2-1,0-0,Murcia (20)
?,(Sat) 28 Jan 1984,Mallorca (21),1-1,3-0,Atlético de Madrid (21)
?,(Sun) 29 Jan 1984,Athletic Club (21),1-2,4-0,Barcelona (21)
?,(Sun) 29 Jan 1984,Betis (21),3-2,3-1,Valencia (21)
?,(Sun) 29 Jan 1984,Español (21),1-1,2-1,CD Málaga (21)
?,(Sun) 29 Jan 1984,Sporting de Gijón (21),1-1,4-1,Zaragoza (21)
?,(Sun) 29 Jan 1984,Murcia (21),1-0,2-2,Salamanca (21)
?,(Sun) 29 Jan 1984,Osasuna (21),3-0,3-0,Sevilla (21)
?,(Sun) 29 Jan 1984,Real Madrid (21),0-0,1-3,Real Sociedad (21)
?,(Sun) 29 Jan 1984,Valladolid (21),2-0,5-1,Cádiz (21)
?,(Sat) 4 Feb 1984,Atlético de Madrid (22),1-0,2-2,Athletic Club (22)
?,(Sat) 4 Feb 1984,Real Sociedad (22),1-0,0-0,Betis (22)
?,(Sun) 5 Feb 1984,Barcelona (22),2-0,0-0,Murcia (22)
?,(Sun) 5 Feb 1984,Cádiz (22),2-3,6-2,Real Madrid (22)
?,(Sun) 5 Feb 1984,Osasuna (22),0-0,2-0,Español (22)
?,(Sun) 5 Feb 1984,Salamanca (22),0-1,1-1,Sporting de Gijón (22)
?,(Sun) 5 Feb 1984,Sevilla (22),0-0,2-2,Mallorca (22)
?,(Sun) 5 Feb 1984,Valencia (22),1-1,2-1,CD Málaga (22)
?,(Sun) 5 Feb 1984,Zaragoza (22),1-1,2-1,Valladolid (22)
?,(Sun) 12 Feb 1984,Athletic Club (23),5-0,4-1,Sevilla (23)
?,(Sun) 12 Feb 1984,Betis (23),2-1,0-0,Cádiz (23)
?,(Sun) 12 Feb 1984,Español (23),1-2,4-0,Valencia (23)
?,(Sun) 12 Feb 1984,Sporting de Gijón (23),0-0,4-0,Barcelona (23)
?,(Sun) 12 Feb 1984,CD Málaga (23),2-2,0-2,Real Sociedad (23)
?,(Sun) 12 Feb 1984,Mallorca (23),3-0,4-0,Osasuna (23)
?,(Sun) 12 Feb 1984,Murcia (23),0-0,1-1,Atlético de Madrid (23)
?,(Sun) 12 Feb 1984,Real Madrid (23),1-0,3-1,Zaragoza (23)
?,(Sun) 12 Feb 1984,Valladolid (23),3-1,2-2,Salamanca (23)
?,(Sat) 18 Feb 1984,Barcelona (24),5-0,2-1,Valladolid (24)
?,(Sun) 19 Feb 1984,Atlético de Madrid (24),1-1,2-0,Sporting de Gijón (24)
?,(Sun) 19 Feb 1984,Cádiz (24),0-0,1-1,CD Málaga (24)
?,(Sun) 19 Feb 1984,Mallorca (24),1-1,3-1,Español (24)
?,(Sun) 19 Feb 1984,Osasuna (24),1-1,1-0,Athletic Club (24)
?,(Sun) 19 Feb 1984,Real Sociedad (24),1-0,2-1,Valencia (24)
?,(Sun) 19 Feb 1984,Salamanca (24),0-1,3-0,Real Madrid (24)
?,(Sun) 19 Feb 1984,Sevilla (24),1-0,1-1,Murcia (24)
?,(Sun) 19 Feb 1984,Zaragoza (24),5-0,3-1,Betis (24)
?,(Sat) 25 Feb 1984,Real Madrid (25),2-1,1-2,Barcelona (25)
?,(Sun) 26 Feb 1984,Athletic Club (25),4-0,0-0,Mallorca (25)
?,(Sun) 26 Feb 1984,Betis (25),1-0,1-3,Salamanca (25)
?,(Sun) 26 Feb 1984,Español (25),2-2,1-1,Real Sociedad (25)
?,(Sun) 26 Feb 1984,Sporting de Gijón (25),1-0,1-1,Sevilla (25)
?,(Sun) 26 Feb 1984,CD Málaga (25),0-1,1-0,Zaragoza (25)
?,(Sun) 26 Feb 1984,Murcia (25),4-0,1-0,Osasuna (25)
?,(Sun) 26 Feb 1984,Valencia (25),1-1,2-0,Cádiz (25)
?,(Sun) 26 Feb 1984,Valladolid (25),1-2,3-1,Atlético de Madrid (25)
?,(Sat) 3 Mar 1984,Barcelona (26),3-1,0-0,Betis (26)
?,(Sat) 3 Mar 1984,Cádiz (26),1-1,1-0,Real Sociedad (26)
?,(Sun) 4 Mar 1984,Athletic Club (26),1-1,0-0,Español (26)
?,(Sun) 4 Mar 1984,Atlético de Madrid (26),1-0,5-0,Real Madrid (26)
?,(Sun) 4 Mar 1984,Mallorca (26),1-1,4-1,Murcia (26)
?,(Sun) 4 Mar 1984,Osasuna (26),1-0,2-1,Sporting de Gijón (26)
?,(Sun) 4 Mar 1984,Salamanca (26),1-0,2-1,CD Málaga (26)
?,(Sun) 4 Mar 1984,Sevilla (26),2-1,3-3,Valladolid (26)
?,(Sun) 4 Mar 1984,Zaragoza (26),0-3,1-3,Valencia (26)
?,(Sat) 10 Mar 1984,Real Sociedad (27),2-1,2-1,Zaragoza (27)
?,(Sun) 11 Mar 1984,Betis (27),1-0,4-3,Atlético de Madrid (27)
?,(Sun) 11 Mar 1984,Español (27),1-1,1-1,Cádiz (27)
?,(Sun) 11 Mar 1984,Sporting de Gijón (27),0-3,1-2,Mallorca (27)
?,(Sun) 11 Mar 1984,CD Málaga (27),0-1,1-0,Barcelona (27)
?,(Sun) 11 Mar 1984,Murcia (27),0-1,4-1,Athletic Club (27)
?,(Sun) 11 Mar 1984,Real Madrid (27),2-2,4-1,Sevilla (27)
?,(Sun) 11 Mar 1984,Valencia (27),1-0,1-0,Salamanca (27)
?,(Sun) 11 Mar 1984,Valladolid (27),0-1,3-0,Osasuna (27)
?,(Sat) 17 Mar 1984,Barcelona (28),0-0,2-4,Valencia (28)
?,(Sun) 18 Mar 1984,Athletic Club (28),1-0,2-2,Sporting de Gijón (28)
?,(Sun) 18 Mar 1984,Atlético de Madrid (28),3-1,5-1,CD Málaga (28)
?,(Sun) 18 Mar 1984,Mallorca (28),1-1,2-0,Valladolid (28)
?,(Sun) 18 Mar 1984,Murcia (28),2-0,1-1,Español (28)
?,(Sun) 18 Mar 1984,Osasuna (28),1-1,2-0,Real Madrid (28)
?,(Sun) 18 Mar 1984,Salamanca (28),1-1,4-0,Real Sociedad (28)
?,(Sun) 18 Mar 1984,Sevilla (28),2-1,1-0,Betis (28)
?,(Sun) 18 Mar 1984,Zaragoza (28),1-2,1-2,Cádiz (28)
?,(Sat) 24 Mar 1984,Valencia (29),1-2,1-2,Atlético de Madrid (29)
?,(Sun) 25 Mar 1984,Betis (29),1-0,1-0,Osasuna (29)
?,(Sun) 25 Mar 1984,Cádiz (29),2-0,1-0,Salamanca (29)
?,(Sun) 25 Mar 1984,Español (29),0-0,2-4,Zaragoza (29)
?,(Sun) 25 Mar 1984,Sporting de Gijón (29),1-1,2-1,Murcia (29)
?,(Sun) 25 Mar 1984,CD Málaga (29),1-0,0-0,Sevilla (29)
?,(Sun) 25 Mar 1984,Real Sociedad (29),0-1,0-0,Barcelona (29)
?,(Sun) 25 Mar 1984,Real Madrid (29),2-0,0-2,Mallorca (29)
?,(Sun) 25 Mar 1984,Valladolid (29),0-0,1-0,Athletic Club (29)
?,(Sat) 31 Mar 1984,Barcelona (30),4-1,1-1,Cádiz (30)
?,(Sun) 1 Apr 1984,Athletic Club (30),2-1,0-0,Real Madrid (30)
?,(Sun) 1 Apr 1984,Atlético de Madrid (30),2-1,3-1,Real Sociedad (30)
?,(Sun) 1 Apr 1984,Sporting de Gijón (30),0-1,2-0,Español (30)
?,(Sun) 1 Apr 1984,Mallorca (30),0-1,2-0,Betis (30)
?,(Sun) 1 Apr 1984,Murcia (30),1-2,2-1,Valladolid (30)
?,(Sun) 1 Apr 1984,Osasuna (30),0-0,1-2,CD Málaga (30)
?,(Sun) 1 Apr 1984,Salamanca (30),1-1,3-0,Zaragoza (30)
?,(Sun) 1 Apr 1984,Sevilla (30),2-0,2-0,Valencia (30)
?,(Sat) 7 Apr 1984,Zaragoza (31),0-1,0-0,Barcelona (31)
?,(Sun) 8 Apr 1984,Betis (31),2-0,2-0,Athletic Club (31)
?,(Sun) 8 Apr 1984,Cádiz (31),3-1,1-0,Atlético de Madrid (31)
?,(Sun) 8 Apr 1984,Español (31),3-0,2-2,Salamanca (31)
?,(Sun) 8 Apr 1984,CD Málaga (31),2-0,0-0,Mallorca (31)
?,(Sun) 8 Apr 1984,Real Sociedad (31),1-0,0-3,Sevilla (31)
?,(Sun) 8 Apr 1984,Real Madrid (31),3-2,0-1,Murcia (31)
?,(Sun) 8 Apr 1984,Valencia (31),2-0,2-0,Osasuna (31)
?,(Sun) 8 Apr 1984,Valladolid (31),2-0,5-1,Sporting de Gijón (31)
?,(Sat) 14 Apr 1984,Athletic Club (32),2-1,0-0,CD Málaga (32)
?,(Sat) 14 Apr 1984,Sporting de Gijón (32),1-2,2-1,Real Madrid (32)
?,(Sat) 14 Apr 1984,Mallorca (32),1-2,2-2,Valencia (32)
?,(Sun) 15 Apr 1984,Atlético de Madrid (32),3-3,2-2,Zaragoza (32)
?,(Sun) 15 Apr 1984,Barcelona (32),2-0,1-3,Salamanca (32)
?,(Sun) 15 Apr 1984,Murcia (32),1-0,1-0,Betis (32)
?,(Sun) 15 Apr 1984,Osasuna (32),0-3,1-0,Real Sociedad (32)
?,(Sun) 15 Apr 1984,Sevilla (32),2-1,0-1,Cádiz (32)
?,(Sun) 15 Apr 1984,Valladolid (32),0-0,2-0,Español (32)
?,(Sat) 21 Apr 1984,CD Málaga (33),1-0,2-1,Murcia (33)
?,(Sun) 22 Apr 1984,Barcelona (33),5-2,1-0,Español (33)
?,(Sun) 22 Apr 1984,Betis (33),3-0,2-0,Sporting de Gijón (33)
?,(Sun) 22 Apr 1984,Cádiz (33),0-0,2-0,Osasuna (33)
?,(Sun) 22 Apr 1984,Real Sociedad (33),1-0,2-1,Mallorca (33)
?,(Sun) 22 Apr 1984,Real Madrid (33),2-1,0-2,Valladolid (33)
?,(Sun) 22 Apr 1984,Salamanca (33),2-2,1-0,Atlético de Madrid (33)
?,(Sun) 22 Apr 1984,Valencia (33),1-2,2-0,Athletic Club (33)
?,(Sun) 22 Apr 1984,Zaragoza (33),1-1,2-0,Sevilla (33)
?,(Sun) 29 Apr 1984,Athletic Club (34),2-1,0-1,Real Sociedad (34)
?,(Sun) 29 Apr 1984,Atlético de Madrid (34),1-2,2-1,Barcelona (34)
?,(Sun) 29 Apr 1984,Español (34),1-2,1-0,Real Madrid (34)
?,(Sun) 29 Apr 1984,Sporting de Gijón (34),2-0,3-1,CD Málaga (34)
?,(Sun) 29 Apr 1984,Mallorca (34),1-1,3-0,Cádiz (34)
?,(Sun) 29 Apr 1984,Murcia (34),3-3,1-1,Valencia (34)
?,(Sun) 29 Apr 1984,Osasuna (34),1-4,2-0,Zaragoza (34)
?,(Sun) 29 Apr 1984,Sevilla (34),3-2,1-0,Salamanca (34)
?,(Sun) 29 Apr 1984,Valladolid (34),1-0,3-1,Betis (34)
