Round,Date,Team 1,FT,HT,Team 2
?,(Sun) 22 Sep 1946,Atlético de Bilbao (1),4-1,0-3,Español (1)
?,(Sun) 22 Sep 1946,Atlético de Madrid (1),2-2,1-2,Real Gijón (1)
?,(Sun) 22 Sep 1946,Barcelona (1),1-1,2-1,Celta de Vigo (1)
?,(Sun) 22 Sep 1946,Deportivo de La Coruña (1),0-0,4-0,Sevilla (1)
?,(Sun) 22 Sep 1946,Murcia (1),2-0,1-0,Castellón (1)
?,(Sun) 22 Sep 1946,Oviedo (1),0-0,2-0,Real Madrid (1)
?,(Sun) 22 Sep 1946,Valencia (1),1-0,3-0,Sabadell (1)
?,(Sun) 29 Sep 1946,Castellón (2),2-2,6-0,Atlético de Bilbao (2)
?,(Sun) 29 Sep 1946,Celta de Vigo (2),1-2,2-1,Valencia (2)
?,(Sun) 29 Sep 1946,Español (2),3-1,1-0,Deportivo de La Coruña (2)
?,(Sun) 29 Sep 1946,Real Gijón (2),1-1,3-2,Oviedo (2)
?,(Sun) 29 Sep 1946,Real Madrid (2),5-0,1-1,Murcia (2)
?,(Sun) 29 Sep 1946,Sabadell (2),1-1,1-3,Atlético de Madrid (2)
?,(Sun) 29 Sep 1946,Sevilla (2),3-1,5-1,Barcelona (2)
?,(Sun) 6 Oct 1946,Atlético de Bilbao (3),2-0,3-6,Real Madrid (3)
?,(Sun) 6 Oct 1946,Atlético de Madrid (3),3-2,0-4,Celta de Vigo (3)
?,(Sun) 6 Oct 1946,Deportivo de La Coruña (3),3-2,5-0,Barcelona (3)
?,(Sun) 6 Oct 1946,Español (3),5-0,4-3,Castellón (3)
?,(Sun) 6 Oct 1946,Murcia (3),5-4,4-1,Real Gijón (3)
?,(Sun) 6 Oct 1946,Oviedo (3),0-1,1-1,Sabadell (3)
?,(Sun) 6 Oct 1946,Valencia (3),4-1,3-1,Sevilla (3)
?,(Sun) 13 Oct 1946,Barcelona (4),2-1,4-0,Valencia (4)
?,(Sun) 13 Oct 1946,Castellón (4),1-1,8-1,Deportivo de La Coruña (4)
?,(Sun) 13 Oct 1946,Celta de Vigo (4),3-3,2-0,Oviedo (4)
?,(Sun) 13 Oct 1946,Real Gijón (4),1-0,6-2,Atlético de Bilbao (4)
?,(Sun) 13 Oct 1946,Real Madrid (4),2-0,4-2,Español (4)
?,(Sun) 13 Oct 1946,Sabadell (4),1-1,0-0,Murcia (4)
?,(Sun) 13 Oct 1946,Sevilla (4),1-2,1-1,Atlético de Madrid (4)
?,(Sun) 20 Oct 1946,Atlético de Bilbao (5),2-1,1-1,Sabadell (5)
?,(Sun) 20 Oct 1946,Atlético de Madrid (5),2-2,3-2,Barcelona (5)
?,(Sun) 20 Oct 1946,Castellón (5),2-3,7-4,Real Madrid (5)
?,(Sun) 20 Oct 1946,Deportivo de La Coruña (5),0-0,3-0,Valencia (5)
?,(Sun) 20 Oct 1946,Español (5),2-1,1-1,Real Gijón (5)
?,(Sun) 20 Oct 1946,Murcia (5),0-2,6-0,Celta de Vigo (5)
?,(Sun) 20 Oct 1946,Oviedo (5),4-2,2-1,Sevilla (5)
?,(Sun) 27 Oct 1946,Barcelona (6),2-0,2-3,Oviedo (6)
?,(Sun) 27 Oct 1946,Celta de Vigo (6),3-2,3-2,Atlético de Bilbao (6)
?,(Sun) 27 Oct 1946,Real Gijón (6),4-0,0-2,Castellón (6)
?,(Sun) 27 Oct 1946,Real Madrid (6),5-0,2-2,Deportivo de La Coruña (6)
?,(Sun) 27 Oct 1946,Sabadell (6),3-1,1-2,Español (6)
?,(Sun) 27 Oct 1946,Sevilla (6),1-1,1-1,Murcia (6)
?,(Sun) 27 Oct 1946,Valencia (6),0-2,1-1,Atlético de Madrid (6)
?,(Sun) 3 Nov 1946,Atlético de Bilbao (7),5-0,2-2,Sevilla (7)
?,(Sun) 3 Nov 1946,Castellón (7),4-0,4-1,Sabadell (7)
?,(Sun) 3 Nov 1946,Deportivo de La Coruña (7),1-0,3-1,Atlético de Madrid (7)
?,(Sun) 3 Nov 1946,Español (7),2-0,3-2,Celta de Vigo (7)
?,(Sun) 3 Nov 1946,Murcia (7),0-1,6-2,Barcelona (7)
?,(Sun) 3 Nov 1946,Real Madrid (7),4-0,2-1,Real Gijón (7)
?,(Sun) 3 Nov 1946,Oviedo (7),4-1,4-1,Valencia (7)
?,(Sun) 10 Nov 1946,Atlético de Madrid (8),5-2,4-0,Oviedo (8)
?,(Sun) 10 Nov 1946,Barcelona (8),2-1,1-0,Atlético de Bilbao (8)
?,(Sun) 10 Nov 1946,Celta de Vigo (8),0-0,1-2,Castellón (8)
?,(Sun) 10 Nov 1946,Real Gijón (8),2-0,1-1,Deportivo de La Coruña (8)
?,(Sun) 10 Nov 1946,Sabadell (8),3-3,1-3,Real Madrid (8)
?,(Sun) 10 Nov 1946,Sevilla (8),3-1,4-0,Español (8)
?,(Sun) 10 Nov 1946,Valencia (8),1-2,1-0,Murcia (8)
?,(Sun) 17 Nov 1946,Atlético de Bilbao (9),0-1,1-0,Valencia (9)
?,(Sun) 17 Nov 1946,Castellón (9),1-4,4-2,Sevilla (9)
?,(Sun) 17 Nov 1946,Deportivo de La Coruña (9),2-2,3-1,Oviedo (9)
?,(Sun) 17 Nov 1946,Español (9),0-1,5-0,Barcelona (9)
?,(Sun) 17 Nov 1946,Real Gijón (9),3-1,2-2,Sabadell (9)
?,(Sun) 17 Nov 1946,Murcia (9),1-2,2-2,Atlético de Madrid (9)
?,(Sun) 17 Nov 1946,Real Madrid (9),3-3,3-4,Celta de Vigo (9)
?,(Sun) 24 Nov 1946,Atlético de Madrid (10),4-0,3-1,Atlético de Bilbao (10)
?,(Sun) 24 Nov 1946,Barcelona (10),3-3,4-1,Castellón (10)
?,(Sun) 24 Nov 1946,Celta de Vigo (10),6-2,3-0,Real Gijón (10)
?,(Sun) 24 Nov 1946,Oviedo (10),3-0,0-0,Murcia (10)
?,(Sun) 24 Nov 1946,Sabadell (10),3-0,1-1,Deportivo de La Coruña (10)
?,(Sun) 24 Nov 1946,Sevilla (10),5-0,3-0,Real Madrid (10)
?,(Sun) 24 Nov 1946,Valencia (10),3-2,1-2,Español (10)
?,(Sun) 1 Dec 1946,Atlético de Bilbao (11),4-1,3-0,Oviedo (11)
?,(Sun) 1 Dec 1946,Castellón (11),2-4,3-0,Valencia (11)
?,(Sun) 1 Dec 1946,Deportivo de La Coruña (11),3-1,1-0,Murcia (11)
?,(Sun) 1 Dec 1946,Español (11),4-1,8-3,Atlético de Madrid (11)
?,(Sun) 1 Dec 1946,Real Gijón (11),1-4,5-2,Sevilla (11)
?,(Sun) 1 Dec 1946,Real Madrid (11),2-1,3-2,Barcelona (11)
?,(Sun) 1 Dec 1946,Sabadell (11),2-0,2-1,Celta de Vigo (11)
?,(Sun) 8 Dec 1946,Atlético de Madrid (12),3-2,0-2,Castellón (12)
?,(Sun) 8 Dec 1946,Barcelona (12),4-1,3-1,Real Gijón (12)
?,(Sun) 8 Dec 1946,Deportivo de La Coruña (12),1-4,4-2,Celta de Vigo (12)
?,(Sun) 8 Dec 1946,Murcia (12),2-4,6-2,Atlético de Bilbao (12)
?,(Sun) 8 Dec 1946,Oviedo (12),4-0,2-1,Español (12)
?,(Sun) 8 Dec 1946,Sevilla (12),4-0,3-1,Sabadell (12)
?,(Sun) 8 Dec 1946,Valencia (12),4-1,2-4,Real Madrid (12)
?,(Sun) 15 Dec 1946,Atlético de Bilbao (13),6-0,3-3,Deportivo de La Coruña (13)
?,(Sun) 15 Dec 1946,Castellón (13),3-3,4-1,Oviedo (13)
?,(Sun) 15 Dec 1946,Celta de Vigo (13),3-0,2-0,Sevilla (13)
?,(Sun) 15 Dec 1946,Español (13),2-3,1-2,Murcia (13)
?,(Sun) 15 Dec 1946,Real Gijón (13),4-1,6-0,Valencia (13)
?,(Sun) 15 Dec 1946,Real Madrid (13),1-2,2-3,Atlético de Madrid (13)
?,(Sun) 15 Dec 1946,Sabadell (13),1-4,0-1,Barcelona (13)
?,(Sun) 29 Dec 1946,Castellón (14),1-0,2-0,Murcia (14)
?,(Sun) 29 Dec 1946,Celta de Vigo (14),2-1,1-1,Barcelona (14)
?,(Sun) 29 Dec 1946,Español (14),0-3,4-1,Atlético de Bilbao (14)
?,(Sun) 29 Dec 1946,Real Gijón (14),1-2,2-2,Atlético de Madrid (14)
?,(Sun) 29 Dec 1946,Real Madrid (14),2-0,0-0,Oviedo (14)
?,(Sun) 29 Dec 1946,Sabadell (14),3-0,1-0,Valencia (14)
?,(Sun) 29 Dec 1946,Sevilla (14),4-0,0-0,Deportivo de La Coruña (14)
?,(Wed) 1 Jan 1947,Atlético de Bilbao (15),6-0,2-2,Castellón (15)
?,(Sun) 5 Jan 1947,Barcelona (15),5-1,3-1,Sevilla (15)
?,(Sun) 5 Jan 1947,Valencia (15),2-1,1-2,Celta de Vigo (15)
?,(Tue) 7 Jan 1947,Atlético de Madrid (15),1-3,1-1,Sabadell (15)
?,(Mon) 6 Jan 1947,Deportivo de La Coruña (15),1-0,3-1,Español (15)
?,(Mon) 6 Jan 1947,Murcia (15),1-1,5-0,Real Madrid (15)
?,(Tue) 7 Jan 1947,Oviedo (15),3-2,1-1,Real Gijón (15)
?,(Sun) 12 Jan 1947,Barcelona (16),5-0,3-2,Deportivo de La Coruña (16)
?,(Sun) 12 Jan 1947,Castellón (16),4-3,5-0,Español (16)
?,(Sun) 12 Jan 1947,Celta de Vigo (16),0-4,3-2,Atlético de Madrid (16)
?,(Sun) 12 Jan 1947,Real Gijón (16),4-1,5-4,Murcia (16)
?,(Sun) 12 Jan 1947,Real Madrid (16),3-6,2-0,Atlético de Bilbao (16)
?,(Sun) 12 Jan 1947,Sabadell (16),1-1,0-1,Oviedo (16)
?,(Sun) 12 Jan 1947,Sevilla (16),3-1,4-1,Valencia (16)
?,(Sun) 19 Jan 1947,Atlético de Bilbao (17),6-2,1-0,Real Gijón (17)
?,(Sun) 19 Jan 1947,Atlético de Madrid (17),1-1,1-2,Sevilla (17)
?,(Sun) 19 Jan 1947,Deportivo de La Coruña (17),8-1,1-1,Castellón (17)
?,(Sun) 19 Jan 1947,Español (17),4-2,2-0,Real Madrid (17)
?,(Sun) 19 Jan 1947,Murcia (17),0-0,1-1,Sabadell (17)
?,(Sun) 19 Jan 1947,Oviedo (17),2-0,3-3,Celta de Vigo (17)
?,(Sun) 19 Jan 1947,Valencia (17),4-0,2-1,Barcelona (17)
?,(Sun) 2 Feb 1947,Barcelona (18),3-2,2-2,Atlético de Madrid (18)
?,(Sun) 2 Feb 1947,Celta de Vigo (18),6-0,0-2,Murcia (18)
?,(Sun) 2 Feb 1947,Real Gijón (18),1-1,2-1,Español (18)
?,(Sun) 2 Feb 1947,Real Madrid (18),7-4,2-3,Castellón (18)
?,(Sun) 2 Feb 1947,Sabadell (18),1-1,2-1,Atlético de Bilbao (18)
?,(Sun) 2 Feb 1947,Sevilla (18),2-1,4-2,Oviedo (18)
?,(Sun) 2 Feb 1947,Valencia (18),3-0,0-0,Deportivo de La Coruña (18)
?,(Sun) 9 Feb 1947,Atlético de Bilbao (19),3-2,3-2,Celta de Vigo (19)
?,(Sun) 9 Feb 1947,Atlético de Madrid (19),1-1,0-2,Valencia (19)
?,(Sun) 9 Feb 1947,Castellón (19),0-2,4-0,Real Gijón (19)
?,(Sun) 9 Feb 1947,Deportivo de La Coruña (19),2-2,5-0,Real Madrid (19)
?,(Sun) 9 Feb 1947,Español (19),1-2,3-1,Sabadell (19)
?,(Sun) 9 Feb 1947,Murcia (19),1-1,1-1,Sevilla (19)
?,(Sun) 9 Feb 1947,Oviedo (19),2-3,2-0,Barcelona (19)
?,(Sun) 16 Feb 1947,Atlético de Madrid (20),3-1,1-0,Deportivo de La Coruña (20)
?,(Sun) 16 Feb 1947,Barcelona (20),6-2,0-1,Murcia (20)
?,(Sun) 16 Feb 1947,Celta de Vigo (20),3-2,2-0,Español (20)
?,(Sun) 16 Feb 1947,Real Gijón (20),2-1,4-0,Real Madrid (20)
?,(Sun) 16 Feb 1947,Sabadell (20),4-1,4-0,Castellón (20)
?,(Sun) 16 Feb 1947,Sevilla (20),2-2,5-0,Atlético de Bilbao (20)
?,(Sun) 16 Feb 1947,Valencia (20),4-1,4-1,Oviedo (20)
?,(Sun) 9 Mar 1947,Atlético de Bilbao (21),1-0,2-1,Barcelona (21)
?,(Sun) 9 Mar 1947,Deportivo de La Coruña (21),1-1,2-0,Real Gijón (21)
?,(Sun) 9 Mar 1947,Español (21),4-0,3-1,Sevilla (21)
?,(Sun) 9 Mar 1947,Murcia (21),1-0,1-2,Valencia (21)
?,(Sun) 9 Mar 1947,Real Madrid (21),1-3,3-3,Sabadell (21)
?,(Sun) 9 Mar 1947,Oviedo (21),4-0,5-2,Atlético de Madrid (21)
?,(Mon) 10 Mar 1947,Castellón (21),1-2,0-0,Celta de Vigo (21)
?,(Sun) 16 Mar 1947,Atlético de Madrid (22),2-2,1-2,Murcia (22)
?,(Sun) 16 Mar 1947,Barcelona (22),5-0,0-1,Español (22)
?,(Sun) 16 Mar 1947,Celta de Vigo (22),3-4,3-3,Real Madrid (22)
?,(Sun) 16 Mar 1947,Oviedo (22),3-1,2-2,Deportivo de La Coruña (22)
?,(Sun) 16 Mar 1947,Sabadell (22),2-2,3-1,Real Gijón (22)
?,(Sun) 16 Mar 1947,Sevilla (22),4-2,1-4,Castellón (22)
?,(Sun) 16 Mar 1947,Valencia (22),1-0,0-1,Atlético de Bilbao (22)
?,(Sun) 23 Mar 1947,Atlético de Bilbao (23),3-1,4-0,Atlético de Madrid (23)
?,(Sun) 23 Mar 1947,Castellón (23),4-1,3-3,Barcelona (23)
?,(Sun) 23 Mar 1947,Deportivo de La Coruña (23),1-1,3-0,Sabadell (23)
?,(Sun) 23 Mar 1947,Español (23),1-2,3-2,Valencia (23)
?,(Sun) 23 Mar 1947,Real Gijón (23),3-0,6-2,Celta de Vigo (23)
?,(Sun) 23 Mar 1947,Murcia (23),0-0,3-0,Oviedo (23)
?,(Sun) 23 Mar 1947,Real Madrid (23),3-0,5-0,Sevilla (23)
?,(Sun) 30 Mar 1947,Atlético de Madrid (24),8-3,4-1,Español (24)
?,(Sun) 30 Mar 1947,Barcelona (24),3-2,2-1,Real Madrid (24)
?,(Sun) 30 Mar 1947,Murcia (24),1-0,3-1,Deportivo de La Coruña (24)
?,(Sun) 30 Mar 1947,Oviedo (24),3-0,4-1,Atlético de Bilbao (24)
?,(Sun) 30 Mar 1947,Sevilla (24),5-2,1-4,Real Gijón (24)
?,(Sun) 30 Mar 1947,Valencia (24),3-0,2-4,Castellón (24)
?,(Wed) 23 Apr 1947,Celta de Vigo (24),2-1,2-0,Sabadell (24)
?,(Sun) 6 Apr 1947,Atlético de Bilbao (25),6-2,2-4,Murcia (25)
?,(Sun) 6 Apr 1947,Castellón (25),0-2,3-2,Atlético de Madrid (25)
?,(Sun) 6 Apr 1947,Celta de Vigo (25),4-2,1-4,Deportivo de La Coruña (25)
?,(Sun) 6 Apr 1947,Español (25),2-1,4-0,Oviedo (25)
?,(Sun) 6 Apr 1947,Real Gijón (25),3-1,4-1,Barcelona (25)
?,(Sun) 6 Apr 1947,Real Madrid (25),2-4,4-1,Valencia (25)
?,(Sun) 6 Apr 1947,Sabadell (25),3-1,4-0,Sevilla (25)
?,(Sun) 13 Apr 1947,Atlético de Madrid (26),2-3,1-2,Real Madrid (26)
?,(Sun) 13 Apr 1947,Barcelona (26),0-1,1-4,Sabadell (26)
?,(Sun) 13 Apr 1947,Deportivo de La Coruña (26),3-3,6-0,Atlético de Bilbao (26)
?,(Sun) 13 Apr 1947,Murcia (26),1-2,2-3,Español (26)
?,(Sun) 13 Apr 1947,Oviedo (26),4-1,3-3,Castellón (26)
?,(Sun) 13 Apr 1947,Sevilla (26),2-0,3-0,Celta de Vigo (26)
?,(Sun) 13 Apr 1947,Valencia (26),6-0,4-1,Real Gijón (26)
