Round,Date,Team 1,FT,HT,Team 2
?,(Sat) 8 Sep 1979,Betis (1),1-2,0-1,Rayo Vallecano (1)
?,(Sat) 8 Sep 1979,Español (1),5-2,1-1,AD Almería (1)
?,(Sat) 8 Sep 1979,Sporting de Gijón (1),2-1,1-0,Sevilla (1)
?,(Sat) 8 Sep 1979,Real Sociedad (1),1-0,2-2,Las Palmas (1)
?,(Sun) 9 Sep 1979,Burgos (1),1-0,3-1,CD Málaga (1)
?,(Sun) 9 Sep 1979,Hércules (1),2-3,2-1,Atlético de Madrid (1)
?,(Sun) 9 Sep 1979,Real Madrid (1),3-1,2-0,Valencia (1)
?,(Sun) 9 Sep 1979,Salamanca (1),2-1,2-0,Athletic Club (1)
?,(Sun) 9 Sep 1979,Zaragoza (1),2-2,2-0,Barcelona (1)
?,(Sat) 15 Sep 1979,Athletic Club (2),0-1,4-0,Real Sociedad (2)
?,(Sat) 15 Sep 1979,Atlético de Madrid (2),1-3,0-0,Sporting de Gijón (2)
?,(Sat) 15 Sep 1979,Barcelona (2),5-0,2-1,Betis (2)
?,(Sat) 15 Sep 1979,Las Palmas (2),2-1,1-0,Hércules (2)
?,(Sat) 15 Sep 1979,CD Málaga (2),1-2,1-1,Español (2)
?,(Sat) 15 Sep 1979,Valencia (2),2-2,1-1,Salamanca (2)
?,(Sun) 16 Sep 1979,AD Almería (2),1-0,0-0,Zaragoza (2)
?,(Sun) 16 Sep 1979,Rayo Vallecano (2),1-2,7-0,Real Madrid (2)
?,(Sun) 16 Sep 1979,Sevilla (2),6-1,1-0,Burgos (2)
?,(Sat) 22 Sep 1979,Español (3),2-0,1-1,Zaragoza (3)
?,(Sun) 23 Sep 1979,Betis (3),0-0,1-1,AD Almería (3)
?,(Sun) 23 Sep 1979,Burgos (3),1-1,1-0,Atlético de Madrid (3)
?,(Sun) 23 Sep 1979,Sporting de Gijón (3),4-1,4-2,Las Palmas (3)
?,(Sun) 23 Sep 1979,Hércules (3),2-1,2-1,Athletic Club (3)
?,(Sun) 23 Sep 1979,CD Málaga (3),2-1,3-1,Sevilla (3)
?,(Sun) 23 Sep 1979,Real Sociedad (3),0-0,0-0,Valencia (3)
?,(Sun) 23 Sep 1979,Real Madrid (3),3-2,0-2,Barcelona (3)
?,(Sun) 23 Sep 1979,Salamanca (3),3-0,1-2,Rayo Vallecano (3)
?,(Sat) 29 Sep 1979,Atlético de Madrid (4),0-0,1-0,CD Málaga (4)
?,(Sat) 29 Sep 1979,Las Palmas (4),2-1,2-2,Burgos (4)
?,(Sat) 29 Sep 1979,Valencia (4),0-0,1-1,Hércules (4)
?,(Sun) 30 Sep 1979,AD Almería (4),1-1,4-1,Real Madrid (4)
?,(Sun) 30 Sep 1979,Athletic Club (4),2-3,2-0,Sporting de Gijón (4)
?,(Sun) 30 Sep 1979,Barcelona (4),0-0,1-1,Salamanca (4)
?,(Sun) 30 Sep 1979,Rayo Vallecano (4),1-1,4-0,Real Sociedad (4)
?,(Sun) 30 Sep 1979,Sevilla (4),2-1,1-0,Español (4)
?,(Sun) 30 Sep 1979,Zaragoza (4),5-1,1-0,Betis (4)
?,(Sun) 14 Oct 1979,Burgos (5),1-1,1-0,Athletic Club (5)
?,(Sun) 14 Oct 1979,Español (5),0-0,2-0,Betis (5)
?,(Sun) 14 Oct 1979,Sporting de Gijón (5),4-2,3-1,Valencia (5)
?,(Sun) 14 Oct 1979,Hércules (5),2-2,2-1,Rayo Vallecano (5)
?,(Sun) 14 Oct 1979,CD Málaga (5),1-0,1-1,Las Palmas (5)
?,(Sun) 14 Oct 1979,Real Sociedad (5),4-3,0-0,Barcelona (5)
?,(Sun) 14 Oct 1979,Real Madrid (5),3-2,0-1,Zaragoza (5)
?,(Sun) 14 Oct 1979,Salamanca (5),2-1,2-0,AD Almería (5)
?,(Sun) 14 Oct 1979,Sevilla (5),2-2,3-2,Atlético de Madrid (5)
?,(Sat) 20 Oct 1979,Barcelona (6),2-0,1-1,Hércules (6)
?,(Sat) 20 Oct 1979,Las Palmas (6),2-0,0-1,Sevilla (6)
?,(Sat) 20 Oct 1979,Valencia (6),3-1,1-1,Burgos (6)
?,(Sun) 21 Oct 1979,AD Almería (6),0-0,1-0,Real Sociedad (6)
?,(Sun) 21 Oct 1979,Athletic Club (6),3-1,1-0,CD Málaga (6)
?,(Sun) 21 Oct 1979,Atlético de Madrid (6),1-1,0-1,Español (6)
?,(Sun) 21 Oct 1979,Betis (6),2-3,1-1,Real Madrid (6)
?,(Sun) 21 Oct 1979,Rayo Vallecano (6),1-2,1-0,Sporting de Gijón (6)
?,(Sun) 21 Oct 1979,Zaragoza (6),1-2,0-1,Salamanca (6)
?,(Sun) 28 Oct 1979,Atlético de Madrid (7),0-0,4-2,Las Palmas (7)
?,(Sun) 28 Oct 1979,Burgos (7),1-1,5-2,Rayo Vallecano (7)
?,(Sun) 28 Oct 1979,Español (7),0-0,2-0,Real Madrid (7)
?,(Sun) 28 Oct 1979,Sporting de Gijón (7),4-1,0-0,Barcelona (7)
?,(Sun) 28 Oct 1979,Hércules (7),4-0,2-0,AD Almería (7)
?,(Sun) 28 Oct 1979,CD Málaga (7),2-1,3-1,Valencia (7)
?,(Sun) 28 Oct 1979,Real Sociedad (7),2-1,0-2,Zaragoza (7)
?,(Sun) 28 Oct 1979,Salamanca (7),3-0,2-0,Betis (7)
?,(Sun) 28 Oct 1979,Sevilla (7),3-1,4-3,Athletic Club (7)
?,(Sat) 3 Nov 1979,Barcelona (8),1-0,0-0,Burgos (8)
?,(Sat) 3 Nov 1979,Las Palmas (8),1-0,0-1,Español (8)
?,(Sat) 3 Nov 1979,Real Madrid (8),2-0,1-1,Salamanca (8)
?,(Sun) 4 Nov 1979,AD Almería (8),0-0,1-0,Sporting de Gijón (8)
?,(Sun) 4 Nov 1979,Athletic Club (8),2-1,0-1,Atlético de Madrid (8)
?,(Sun) 4 Nov 1979,Betis (8),1-1,0-0,Real Sociedad (8)
?,(Sun) 4 Nov 1979,Rayo Vallecano (8),5-1,1-3,CD Málaga (8)
?,(Sun) 4 Nov 1979,Valencia (8),2-1,2-1,Sevilla (8)
?,(Sun) 4 Nov 1979,Zaragoza (8),1-0,3-1,Hércules (8)
?,(Sat) 10 Nov 1979,Las Palmas (9),1-1,3-0,Athletic Club (9)
?,(Sun) 11 Nov 1979,Atlético de Madrid (9),0-1,2-1,Valencia (9)
?,(Sun) 11 Nov 1979,Burgos (9),2-1,2-0,AD Almería (9)
?,(Sun) 11 Nov 1979,Español (9),1-1,2-0,Salamanca (9)
?,(Sun) 11 Nov 1979,Sporting de Gijón (9),1-4,1-0,Zaragoza (9)
?,(Sun) 11 Nov 1979,Hércules (9),1-1,2-0,Betis (9)
?,(Sun) 11 Nov 1979,CD Málaga (9),0-0,3-0,Barcelona (9)
?,(Sun) 11 Nov 1979,Real Sociedad (9),4-0,2-2,Real Madrid (9)
?,(Sun) 11 Nov 1979,Sevilla (9),1-1,1-1,Rayo Vallecano (9)
?,(Sun) 18 Nov 1979,AD Almería (10),3-2,NA,CD Málaga (10)
?,(Sun) 18 Nov 1979,Athletic Club (10),2-0,0-0,Español (10)
?,(Sun) 18 Nov 1979,Barcelona (10),0-0,3-1,Sevilla (10)
?,(Sun) 18 Nov 1979,Betis (10),1-0,3-1,Sporting de Gijón (10)
?,(Sun) 18 Nov 1979,Rayo Vallecano (10),4-1,2-1,Atlético de Madrid (10)
?,(Sun) 18 Nov 1979,Real Madrid (10),5-0,0-0,Hércules (10)
?,(Sun) 18 Nov 1979,Salamanca (10),0-1,1-0,Real Sociedad (10)
?,(Sun) 18 Nov 1979,Valencia (10),4-0,2-1,Las Palmas (10)
?,(Sun) 18 Nov 1979,Zaragoza (10),5-0,0-1,Burgos (10)
?,(Sun) 25 Nov 1979,Athletic Club (11),4-0,2-0,Valencia (11)
?,(Sun) 25 Nov 1979,Atlético de Madrid (11),2-1,1-0,Barcelona (11)
?,(Sun) 25 Nov 1979,Burgos (11),1-1,3-1,Betis (11)
?,(Sun) 25 Nov 1979,Español (11),1-2,1-0,Real Sociedad (11)
?,(Sun) 25 Nov 1979,Sporting de Gijón (11),1-1,1-0,Real Madrid (11)
?,(Sun) 25 Nov 1979,Hércules (11),4-0,2-1,Salamanca (11)
?,(Sun) 25 Nov 1979,Las Palmas (11),3-0,1-0,Rayo Vallecano (11)
?,(Sun) 25 Nov 1979,CD Málaga (11),1-1,3-1,Zaragoza (11)
?,(Sun) 25 Nov 1979,Sevilla (11),3-1,2-2,AD Almería (11)
?,(Sun) 2 Dec 1979,AD Almería (12),2-1,4-1,Atlético de Madrid (12)
?,(Sun) 2 Dec 1979,Barcelona (12),1-0,0-1,Las Palmas (12)
?,(Sun) 2 Dec 1979,Betis (12),2-1,1-0,CD Málaga (12)
?,(Sun) 2 Dec 1979,Real Sociedad (12),1-1,0-0,Hércules (12)
?,(Sun) 2 Dec 1979,Rayo Vallecano (12),2-1,4-1,Athletic Club (12)
?,(Sun) 2 Dec 1979,Real Madrid (12),2-1,1-2,Burgos (12)
?,(Sun) 2 Dec 1979,Salamanca (12),0-1,0-0,Sporting de Gijón (12)
?,(Sun) 2 Dec 1979,Valencia (12),5-1,1-1,Español (12)
?,(Sun) 2 Dec 1979,Zaragoza (12),1-0,2-1,Sevilla (12)
?,(Sat) 15 Dec 1979,Las Palmas (13),3-2,3-0,AD Almería (13)
?,(Sun) 16 Dec 1979,Athletic Club (13),2-1,1-0,Barcelona (13)
?,(Sun) 16 Dec 1979,Atlético de Madrid (13),3-0,0-0,Zaragoza (13)
?,(Sun) 16 Dec 1979,Burgos (13),2-0,1-3,Salamanca (13)
?,(Sun) 16 Dec 1979,Español (13),0-0,0-1,Hércules (13)
?,(Sun) 16 Dec 1979,Sporting de Gijón (13),0-1,4-1,Real Sociedad (13)
?,(Sun) 16 Dec 1979,CD Málaga (13),1-4,2-1,Real Madrid (13)
?,(Sun) 16 Dec 1979,Sevilla (13),2-1,4-0,Betis (13)
?,(Sun) 16 Dec 1979,Valencia (13),2-1,1-0,Rayo Vallecano (13)
?,(Sun) 30 Dec 1979,AD Almería (14),4-2,3-0,Athletic Club (14)
?,(Sun) 30 Dec 1979,Barcelona (14),2-1,1-1,Valencia (14)
?,(Sun) 30 Dec 1979,Betis (14),0-0,3-1,Atlético de Madrid (14)
?,(Sun) 30 Dec 1979,Hércules (14),1-1,0-0,Sporting de Gijón (14)
?,(Sun) 30 Dec 1979,Real Sociedad (14),2-2,1-3,Burgos (14)
?,(Sun) 30 Dec 1979,Rayo Vallecano (14),2-2,1-0,Español (14)
?,(Sun) 30 Dec 1979,Real Madrid (14),2-0,1-1,Sevilla (14)
?,(Sun) 30 Dec 1979,Salamanca (14),3-0,0-3,CD Málaga (14)
?,(Sun) 30 Dec 1979,Zaragoza (14),4-0,0-0,Las Palmas (14)
?,(Sun) 6 Jan 1980,Athletic Club (15),3-1,1-0,Zaragoza (15)
?,(Sun) 6 Jan 1980,Atlético de Madrid (15),1-1,4-0,Real Madrid (15)
?,(Sun) 6 Jan 1980,Burgos (15),1-1,3-0,Hércules (15)
?,(Sun) 6 Jan 1980,Español (15),1-0,2-0,Sporting de Gijón (15)
?,(Sun) 6 Jan 1980,Las Palmas (15),1-0,3-0,Betis (15)
?,(Sun) 6 Jan 1980,CD Málaga (15),0-0,3-1,Real Sociedad (15)
?,(Sun) 6 Jan 1980,Rayo Vallecano (15),0-0,2-1,Barcelona (15)
?,(Sun) 6 Jan 1980,Sevilla (15),2-0,2-1,Salamanca (15)
?,(Sun) 6 Jan 1980,Valencia (15),1-1,1-0,AD Almería (15)
?,(Sun) 13 Jan 1980,AD Almería (16),3-3,1-2,Rayo Vallecano (16)
?,(Sun) 13 Jan 1980,Betis (16),0-0,2-2,Athletic Club (16)
?,(Sun) 13 Jan 1980,Español (16),2-0,3-1,Barcelona (16)
?,(Sun) 13 Jan 1980,Sporting de Gijón (16),2-0,0-3,Burgos (16)
?,(Sun) 13 Jan 1980,Hércules (16),1-0,0-2,CD Málaga (16)
?,(Sun) 13 Jan 1980,Real Sociedad (16),2-0,2-1,Sevilla (16)
?,(Sun) 13 Jan 1980,Real Madrid (16),3-1,1-2,Las Palmas (16)
?,(Sun) 13 Jan 1980,Salamanca (16),1-1,0-1,Atlético de Madrid (16)
?,(Sun) 13 Jan 1980,Zaragoza (16),1-1,3-0,Valencia (16)
?,(Sun) 20 Jan 1980,Athletic Club (17),3-0,3-1,Real Madrid (17)
?,(Sun) 20 Jan 1980,Atlético de Madrid (17),1-1,2-0,Real Sociedad (17)
?,(Sun) 20 Jan 1980,Barcelona (17),2-0,1-1,AD Almería (17)
?,(Sun) 20 Jan 1980,Burgos (17),0-0,1-0,Español (17)
?,(Sun) 20 Jan 1980,Las Palmas (17),1-0,2-0,Salamanca (17)
?,(Sun) 20 Jan 1980,CD Málaga (17),0-3,0-1,Sporting de Gijón (17)
?,(Sun) 20 Jan 1980,Rayo Vallecano (17),0-1,3-2,Zaragoza (17)
?,(Sun) 20 Jan 1980,Sevilla (17),2-1,0-1,Hércules (17)
?,(Sun) 20 Jan 1980,Valencia (17),2-2,3-0,Betis (17)
?,(Sat) 26 Jan 1980,Sevilla (18),1-0,2-1,Sporting de Gijón (18)
?,(Sun) 27 Jan 1980,AD Almería (18),1-1,5-2,Español (18)
?,(Sun) 27 Jan 1980,Athletic Club (18),2-0,2-1,Salamanca (18)
?,(Sun) 27 Jan 1980,Atlético de Madrid (18),2-1,2-3,Hércules (18)
?,(Sun) 27 Jan 1980,Barcelona (18),2-0,2-2,Zaragoza (18)
?,(Sun) 27 Jan 1980,Las Palmas (18),2-2,1-0,Real Sociedad (18)
?,(Sun) 27 Jan 1980,CD Málaga (18),3-1,1-0,Burgos (18)
?,(Sun) 27 Jan 1980,Rayo Vallecano (18),0-1,1-2,Betis (18)
?,(Sun) 27 Jan 1980,Valencia (18),2-0,3-1,Real Madrid (18)
?,(Sun) 3 Feb 1980,Betis (19),2-1,5-0,Barcelona (19)
?,(Sun) 3 Feb 1980,Burgos (19),1-0,6-1,Sevilla (19)
?,(Sun) 3 Feb 1980,Español (19),1-1,1-2,CD Málaga (19)
?,(Sun) 3 Feb 1980,Sporting de Gijón (19),0-0,1-3,Atlético de Madrid (19)
?,(Sun) 3 Feb 1980,Hércules (19),1-0,2-1,Las Palmas (19)
?,(Sun) 3 Feb 1980,Real Sociedad (19),4-0,0-1,Athletic Club (19)
?,(Sun) 3 Feb 1980,Real Madrid (19),7-0,1-2,Rayo Vallecano (19)
?,(Sun) 3 Feb 1980,Salamanca (19),1-1,2-2,Valencia (19)
?,(Sun) 3 Feb 1980,Zaragoza (19),0-0,1-0,AD Almería (19)
?,(Sun) 10 Feb 1980,AD Almería (20),1-1,0-0,Betis (20)
?,(Sun) 10 Feb 1980,Athletic Club (20),2-1,2-1,Hércules (20)
?,(Sun) 10 Feb 1980,Atlético de Madrid (20),1-0,1-1,Burgos (20)
?,(Sun) 10 Feb 1980,Barcelona (20),0-2,3-2,Real Madrid (20)
?,(Sun) 10 Feb 1980,Las Palmas (20),4-2,4-1,Sporting de Gijón (20)
?,(Sun) 10 Feb 1980,Rayo Vallecano (20),1-2,3-0,Salamanca (20)
?,(Sun) 10 Feb 1980,Sevilla (20),3-1,2-1,CD Málaga (20)
?,(Sun) 10 Feb 1980,Valencia (20),0-0,0-0,Real Sociedad (20)
?,(Sun) 10 Feb 1980,Zaragoza (20),1-1,2-0,Español (20)
?,(Sun) 17 Feb 1980,Betis (21),1-0,5-1,Zaragoza (21)
?,(Sun) 17 Feb 1980,Burgos (21),2-2,2-1,Las Palmas (21)
?,(Sun) 17 Feb 1980,Español (21),1-0,2-1,Sevilla (21)
?,(Sun) 17 Feb 1980,Sporting de Gijón (21),2-0,2-3,Athletic Club (21)
?,(Sun) 17 Feb 1980,Hércules (21),1-1,0-0,Valencia (21)
?,(Sun) 17 Feb 1980,CD Málaga (21),1-0,0-0,Atlético de Madrid (21)
?,(Sun) 17 Feb 1980,Real Sociedad (21),4-0,1-1,Rayo Vallecano (21)
?,(Sun) 17 Feb 1980,Real Madrid (21),4-1,1-1,AD Almería (21)
?,(Sun) 17 Feb 1980,Salamanca (21),1-1,0-0,Barcelona (21)
?,(Sat) 23 Feb 1980,Barcelona (22),0-0,4-3,Real Sociedad (22)
?,(Sat) 23 Feb 1980,Betis (22),2-0,0-0,Español (22)
?,(Sun) 24 Feb 1980,AD Almería (22),2-0,2-1,Salamanca (22)
?,(Sun) 24 Feb 1980,Athletic Club (22),1-0,1-1,Burgos (22)
?,(Sun) 24 Feb 1980,Atlético de Madrid (22),3-2,2-2,Sevilla (22)
?,(Sun) 24 Feb 1980,Las Palmas (22),1-1,1-0,CD Málaga (22)
?,(Sun) 24 Feb 1980,Rayo Vallecano (22),2-1,2-2,Hércules (22)
?,(Sun) 24 Feb 1980,Valencia (22),3-1,4-2,Sporting de Gijón (22)
?,(Sun) 24 Feb 1980,Zaragoza (22),0-1,3-2,Real Madrid (22)
?,(Sat) 1 Mar 1980,Real Madrid (23),1-1,2-3,Betis (23)
?,(Sun) 2 Mar 1980,Burgos (23),1-1,3-1,Valencia (23)
?,(Sun) 2 Mar 1980,Español (23),0-1,1-1,Atlético de Madrid (23)
?,(Sun) 2 Mar 1980,Sporting de Gijón (23),1-0,1-2,Rayo Vallecano (23)
?,(Sun) 2 Mar 1980,Hércules (23),1-1,2-0,Barcelona (23)
?,(Sun) 2 Mar 1980,CD Málaga (23),1-0,3-1,Athletic Club (23)
?,(Sun) 2 Mar 1980,Real Sociedad (23),1-0,0-0,AD Almería (23)
?,(Sun) 2 Mar 1980,Salamanca (23),0-1,1-2,Zaragoza (23)
?,(Sun) 2 Mar 1980,Sevilla (23),0-1,2-0,Las Palmas (23)
?,(Sat) 8 Mar 1980,Athletic Club (24),4-3,3-1,Sevilla (24)
?,(Sat) 8 Mar 1980,Betis (24),2-0,3-0,Salamanca (24)
?,(Sat) 8 Mar 1980,Las Palmas (24),4-2,0-0,Atlético de Madrid (24)
?,(Sun) 9 Mar 1980,AD Almería (24),2-0,4-0,Hércules (24)
?,(Sun) 9 Mar 1980,Barcelona (24),0-0,4-1,Sporting de Gijón (24)
?,(Sun) 9 Mar 1980,Rayo Vallecano (24),5-2,1-1,Burgos (24)
?,(Sun) 9 Mar 1980,Real Madrid (24),2-0,0-0,Español (24)
?,(Sun) 9 Mar 1980,Valencia (24),3-1,2-1,CD Málaga (24)
?,(Sun) 9 Mar 1980,Zaragoza (24),0-2,2-1,Real Sociedad (24)
?,(Sun) 16 Mar 1980,Atlético de Madrid (25),0-1,2-1,Athletic Club (25)
?,(Sun) 16 Mar 1980,Burgos (25),0-0,1-0,Barcelona (25)
?,(Sun) 16 Mar 1980,Español (25),0-1,1-0,Las Palmas (25)
?,(Sun) 16 Mar 1980,Sporting de Gijón (25),1-0,0-0,AD Almería (25)
?,(Sun) 16 Mar 1980,Hércules (25),3-1,1-0,Zaragoza (25)
?,(Sun) 16 Mar 1980,CD Málaga (25),1-3,5-1,Rayo Vallecano (25)
?,(Sun) 16 Mar 1980,Real Sociedad (25),0-0,1-1,Betis (25)
?,(Sun) 16 Mar 1980,Salamanca (25),1-1,2-0,Real Madrid (25)
?,(Sun) 16 Mar 1980,Sevilla (25),2-1,2-1,Valencia (25)
?,(Sun) 23 Mar 1980,AD Almería (26),2-0,2-1,Burgos (26)
?,(Sun) 23 Mar 1980,Athletic Club (26),3-0,1-1,Las Palmas (26)
?,(Sun) 23 Mar 1980,Barcelona (26),3-0,0-0,CD Málaga (26)
?,(Sun) 23 Mar 1980,Betis (26),2-0,1-1,Hércules (26)
?,(Sun) 23 Mar 1980,Rayo Vallecano (26),1-1,1-1,Sevilla (26)
?,(Sun) 23 Mar 1980,Real Madrid (26),2-2,4-0,Real Sociedad (26)
?,(Sun) 23 Mar 1980,Salamanca (26),2-0,1-1,Español (26)
?,(Sun) 23 Mar 1980,Valencia (26),2-1,0-1,Atlético de Madrid (26)
?,(Sun) 23 Mar 1980,Zaragoza (26),1-0,1-4,Sporting de Gijón (26)
?,(Sat) 29 Mar 1980,Sporting de Gijón (27),3-1,1-0,Betis (27)
?,(Sat) 29 Mar 1980,Las Palmas (27),2-1,4-0,Valencia (27)
?,(Sun) 30 Mar 1980,Atlético de Madrid (27),2-1,4-1,Rayo Vallecano (27)
?,(Sun) 30 Mar 1980,Burgos (27),0-1,5-0,Zaragoza (27)
?,(Sun) 30 Mar 1980,Español (27),0-0,2-0,Athletic Club (27)
?,(Sun) 30 Mar 1980,Hércules (27),0-0,5-0,Real Madrid (27)
?,(Sun) 30 Mar 1980,Real Sociedad (27),1-0,0-1,Salamanca (27)
?,(Sun) 30 Mar 1980,Sevilla (27),3-1,0-0,Barcelona (27)
?,(Sat) 5 Apr 1980,Real Madrid (28),1-0,1-1,Sporting de Gijón (28)
?,(Sat) 5 Apr 1980,Valencia (28),2-0,4-0,Athletic Club (28)
?,(Sun) 6 Apr 1980,AD Almería (28),2-2,3-1,Sevilla (28)
?,(Sun) 6 Apr 1980,Barcelona (28),1-0,2-1,Atlético de Madrid (28)
?,(Sun) 6 Apr 1980,Betis (28),3-1,1-1,Burgos (28)
?,(Sun) 6 Apr 1980,Real Sociedad (28),1-0,1-2,Español (28)
?,(Sun) 6 Apr 1980,Rayo Vallecano (28),1-0,3-0,Las Palmas (28)
?,(Sun) 6 Apr 1980,Salamanca (28),2-1,4-0,Hércules (28)
?,(Sun) 6 Apr 1980,Zaragoza (28),3-1,1-1,CD Málaga (28)
?,(Sat) 12 Apr 1980,Las Palmas (29),0-1,1-0,Barcelona (29)
?,(Sun) 13 Apr 1980,Athletic Club (29),4-1,2-1,Rayo Vallecano (29)
?,(Sun) 13 Apr 1980,Atlético de Madrid (29),4-1,2-1,AD Almería (29)
?,(Sun) 13 Apr 1980,Burgos (29),1-2,2-1,Real Madrid (29)
?,(Sun) 13 Apr 1980,Español (29),1-1,5-1,Valencia (29)
?,(Sun) 13 Apr 1980,Sporting de Gijón (29),0-0,0-1,Salamanca (29)
?,(Sun) 13 Apr 1980,Hércules (29),0-0,1-1,Real Sociedad (29)
?,(Sun) 13 Apr 1980,CD Málaga (29),1-0,2-1,Betis (29)
?,(Sun) 13 Apr 1980,Sevilla (29),2-1,1-0,Zaragoza (29)
?,(Sat) 19 Apr 1980,Real Madrid (30),2-1,1-4,CD Málaga (30)
?,(Sun) 20 Apr 1980,AD Almería (30),3-0,3-2,Las Palmas (30)
?,(Sun) 20 Apr 1980,Barcelona (30),1-0,2-1,Athletic Club (30)
?,(Sun) 20 Apr 1980,Betis (30),4-0,2-1,Sevilla (30)
?,(Sun) 20 Apr 1980,Hércules (30),0-1,0-0,Español (30)
?,(Sun) 20 Apr 1980,Real Sociedad (30),4-1,0-1,Sporting de Gijón (30)
?,(Sun) 20 Apr 1980,Rayo Vallecano (30),1-0,2-1,Valencia (30)
?,(Sun) 20 Apr 1980,Salamanca (30),1-3,2-0,Burgos (30)
?,(Sun) 20 Apr 1980,Zaragoza (30),0-0,3-0,Atlético de Madrid (30)
?,(Sat) 26 Apr 1980,Sporting de Gijón (31),0-0,1-1,Hércules (31)
?,(Sat) 26 Apr 1980,Las Palmas (31),0-0,4-0,Zaragoza (31)
?,(Sun) 27 Apr 1980,Athletic Club (31),3-0,4-2,AD Almería (31)
?,(Sun) 27 Apr 1980,Atlético de Madrid (31),3-1,0-0,Betis (31)
?,(Sun) 27 Apr 1980,Burgos (31),1-3,2-2,Real Sociedad (31)
?,(Sun) 27 Apr 1980,Español (31),1-0,2-2,Rayo Vallecano (31)
?,(Sun) 27 Apr 1980,CD Málaga (31),0-3,3-0,Salamanca (31)
?,(Sun) 27 Apr 1980,Sevilla (31),1-1,2-0,Real Madrid (31)
?,(Sun) 27 Apr 1980,Valencia (31),1-1,2-1,Barcelona (31)
?,(Sun) 4 May 1980,AD Almería (32),1-0,1-1,Valencia (32)
?,(Sun) 4 May 1980,Barcelona (32),2-1,0-0,Rayo Vallecano (32)
?,(Sun) 4 May 1980,Betis (32),3-0,1-0,Las Palmas (32)
?,(Sun) 4 May 1980,Sporting de Gijón (32),2-0,1-0,Español (32)
?,(Sun) 4 May 1980,Hércules (32),3-0,1-1,Burgos (32)
?,(Sun) 4 May 1980,Real Sociedad (32),3-1,0-0,CD Málaga (32)
?,(Sun) 4 May 1980,Real Madrid (32),4-0,1-1,Atlético de Madrid (32)
?,(Sun) 4 May 1980,Salamanca (32),2-1,2-0,Sevilla (32)
?,(Sun) 4 May 1980,Zaragoza (32),1-0,3-1,Athletic Club (32)
?,(Sat) 10 May 1980,Valencia (33),3-0,1-1,Zaragoza (33)
?,(Sun) 11 May 1980,Athletic Club (33),2-2,0-0,Betis (33)
?,(Sun) 11 May 1980,Atlético de Madrid (33),0-1,1-1,Salamanca (33)
?,(Sun) 11 May 1980,Barcelona (33),3-1,2-0,Español (33)
?,(Sun) 11 May 1980,Burgos (33),0-3,2-0,Sporting de Gijón (33)
?,(Sun) 11 May 1980,Las Palmas (33),1-2,3-1,Real Madrid (33)
?,(Sun) 11 May 1980,CD Málaga (33),0-2,1-0,Hércules (33)
?,(Sun) 11 May 1980,Rayo Vallecano (33),1-2,3-3,AD Almería (33)
?,(Sun) 11 May 1980,Sevilla (33),2-1,2-0,Real Sociedad (33)
?,(Sun) 18 May 1980,AD Almería (34),1-1,2-0,Barcelona (34)
?,(Sun) 18 May 1980,Betis (34),3-0,2-2,Valencia (34)
?,(Sun) 18 May 1980,Español (34),1-0,0-0,Burgos (34)
?,(Sun) 18 May 1980,Sporting de Gijón (34),0-1,0-3,CD Málaga (34)
?,(Sun) 18 May 1980,Hércules (34),0-1,2-1,Sevilla (34)
?,(Sun) 18 May 1980,Real Sociedad (34),2-0,1-1,Atlético de Madrid (34)
?,(Sun) 18 May 1980,Real Madrid (34),3-1,3-0,Athletic Club (34)
?,(Sun) 18 May 1980,Salamanca (34),2-0,1-0,Las Palmas (34)
?,(Sun) 18 May 1980,Zaragoza (34),3-2,0-1,Rayo Vallecano (34)
