Round,Date,Team 1,FT,HT,Team 2
?,(Sat) 2 Sep 1961,Betis (1),0-1,1-0,Mallorca (1)
?,(Sat) 2 Sep 1961,Real Madrid (1),3-1,0-0,Elche (1)
?,(Sun) 3 Sep 1961,Atlético de Bilbao (1),0-1,2-0,Santander (1)
?,(Sun) 3 Sep 1961,Barcelona (1),3-2,1-0,Sevilla (1)
?,(Sun) 3 Sep 1961,Osasuna (1),2-2,3-0,Español (1)
?,(Sun) 3 Sep 1961,Oviedo (1),0-0,5-1,Atlético de Madrid (1)
?,(Sun) 3 Sep 1961,Tenerife (1),4-1,0-1,Real Sociedad (1)
?,(Sun) 3 Sep 1961,Zaragoza (1),3-0,1-1,Valencia (1)
?,(Sat) 9 Sep 1961,Atlético de Madrid (2),1-0,2-1,Betis (2)
?,(Sat) 9 Sep 1961,Valencia (2),3-0,1-0,Oviedo (2)
?,(Sun) 10 Sep 1961,Elche (2),5-3,1-1,Zaragoza (2)
?,(Sun) 10 Sep 1961,Español (2),2-0,0-0,Tenerife (2)
?,(Sun) 10 Sep 1961,Mallorca (2),2-0,4-1,Osasuna (2)
?,(Sun) 10 Sep 1961,Santander (2),0-2,6-0,Real Madrid (2)
?,(Sun) 10 Sep 1961,Real Sociedad (2),2-1,5-0,Barcelona (2)
?,(Sun) 10 Sep 1961,Sevilla (2),2-1,5-1,Atlético de Bilbao (2)
?,(Sat) 16 Sep 1961,Real Madrid (3),2-1,1-1,Sevilla (3)
?,(Sun) 17 Sep 1961,Atlético de Bilbao (3),3-3,0-2,Real Sociedad (3)
?,(Sun) 17 Sep 1961,Betis (3),3-1,2-0,Valencia (3)
?,(Sun) 17 Sep 1961,Español (3),0-2,1-5,Mallorca (3)
?,(Sun) 17 Sep 1961,Osasuna (3),3-1,4-2,Atlético de Madrid (3)
?,(Sun) 17 Sep 1961,Oviedo (3),1-1,1-1,Elche (3)
?,(Sun) 17 Sep 1961,Tenerife (3),1-3,5-2,Barcelona (3)
?,(Sun) 17 Sep 1961,Zaragoza (3),6-1,2-1,Santander (3)
?,(Sat) 23 Sep 1961,Atlético de Madrid (4),5-2,3-0,Español (4)
?,(Sat) 23 Sep 1961,Valencia (4),2-0,5-2,Osasuna (4)
?,(Sun) 24 Sep 1961,Barcelona (4),4-2,3-2,Atlético de Bilbao (4)
?,(Sun) 24 Sep 1961,Elche (4),1-1,5-1,Betis (4)
?,(Sun) 24 Sep 1961,Santander (4),3-0,2-1,Oviedo (4)
?,(Sun) 24 Sep 1961,Real Sociedad (4),0-1,1-0,Real Madrid (4)
?,(Sun) 24 Sep 1961,Sevilla (4),4-0,3-2,Zaragoza (4)
?,(Sun) 24 Sep 1961,Tenerife (4),3-0,1-1,Mallorca (4)
?,(Sat) 30 Sep 1961,Real Madrid (5),2-0,3-1,Barcelona (5)
?,(Sun) 1 Oct 1961,Atlético de Bilbao (5),5-0,1-1,Tenerife (5)
?,(Sun) 1 Oct 1961,Betis (5),1-0,1-0,Santander (5)
?,(Sun) 1 Oct 1961,Español (5),2-2,4-2,Valencia (5)
?,(Sun) 1 Oct 1961,Mallorca (5),0-3,1-1,Atlético de Madrid (5)
?,(Sun) 1 Oct 1961,Osasuna (5),3-0,6-2,Elche (5)
?,(Sun) 1 Oct 1961,Oviedo (5),1-1,3-1,Sevilla (5)
?,(Sun) 1 Oct 1961,Zaragoza (5),6-3,1-0,Real Sociedad (5)
?,(Sat) 7 Oct 1961,Atlético de Madrid (6),1-0,0-2,Tenerife (6)
?,(Sun) 8 Oct 1961,Atlético de Bilbao (6),0-2,3-0,Real Madrid (6)
?,(Sun) 8 Oct 1961,Barcelona (6),1-1,3-2,Zaragoza (6)
?,(Sun) 8 Oct 1961,Elche (6),6-2,0-0,Español (6)
?,(Sun) 8 Oct 1961,Santander (6),1-3,2-1,Osasuna (6)
?,(Sun) 8 Oct 1961,Real Sociedad (6),2-0,1-0,Oviedo (6)
?,(Sun) 8 Oct 1961,Sevilla (6),1-2,3-1,Betis (6)
?,(Sun) 8 Oct 1961,Valencia (6),3-1,3-0,Mallorca (6)
?,(Wed) 11 Oct 1961,Atlético de Madrid (7),0-0,2-1,Valencia (7)
?,(Wed) 11 Oct 1961,Español (7),3-2,1-3,Santander (7)
?,(Thu) 12 Oct 1961,Betis (7),2-1,6-0,Real Sociedad (7)
?,(Thu) 12 Oct 1961,Mallorca (7),3-1,2-0,Elche (7)
?,(Thu) 12 Oct 1961,Osasuna (7),1-3,0-0,Sevilla (7)
?,(Thu) 12 Oct 1961,Oviedo (7),0-2,4-1,Barcelona (7)
?,(Thu) 12 Oct 1961,Tenerife (7),0-3,0-0,Real Madrid (7)
?,(Thu) 12 Oct 1961,Zaragoza (7),4-2,1-0,Atlético de Bilbao (7)
?,(Sun) 15 Oct 1961,Atlético de Bilbao (8),0-1,0-1,Oviedo (8)
?,(Sun) 15 Oct 1961,Barcelona (8),6-1,2-3,Betis (8)
?,(Sun) 15 Oct 1961,Elche (8),1-2,5-2,Atlético de Madrid (8)
?,(Sun) 15 Oct 1961,Santander (8),4-0,0-0,Mallorca (8)
?,(Sun) 15 Oct 1961,Real Sociedad (8),1-1,0-1,Osasuna (8)
?,(Sun) 15 Oct 1961,Real Madrid (8),2-1,2-1,Zaragoza (8)
?,(Sun) 15 Oct 1961,Sevilla (8),3-1,0-1,Español (8)
?,(Sun) 15 Oct 1961,Tenerife (8),2-1,2-1,Valencia (8)
?,(Sun) 22 Oct 1961,Atlético de Madrid (9),1-0,1-0,Santander (9)
?,(Sun) 22 Oct 1961,Betis (9),1-1,1-0,Atlético de Bilbao (9)
?,(Sun) 22 Oct 1961,Español (9),2-2,0-1,Real Sociedad (9)
?,(Sun) 22 Oct 1961,Mallorca (9),3-2,0-0,Sevilla (9)
?,(Sun) 22 Oct 1961,Osasuna (9),3-1,3-1,Barcelona (9)
?,(Sun) 22 Oct 1961,Oviedo (9),1-0,4-1,Real Madrid (9)
?,(Sun) 22 Oct 1961,Valencia (9),0-0,2-1,Elche (9)
?,(Sun) 22 Oct 1961,Zaragoza (9),3-1,4-2,Tenerife (9)
?,(Sun) 29 Oct 1961,Atlético de Bilbao (10),0-0,0-4,Osasuna (10)
?,(Sun) 29 Oct 1961,Barcelona (10),2-0,1-1,Español (10)
?,(Sun) 29 Oct 1961,Santander (10),3-2,2-1,Valencia (10)
?,(Sun) 29 Oct 1961,Real Sociedad (10),0-0,1-0,Mallorca (10)
?,(Sun) 29 Oct 1961,Real Madrid (10),2-0,2-1,Betis (10)
?,(Sun) 29 Oct 1961,Sevilla (10),1-1,4-0,Atlético de Madrid (10)
?,(Sun) 29 Oct 1961,Tenerife (10),1-3,3-0,Elche (10)
?,(Sun) 29 Oct 1961,Zaragoza (10),5-1,0-2,Oviedo (10)
?,(Wed) 1 Nov 1961,Atlético de Madrid (11),1-0,1-0,Real Sociedad (11)
?,(Wed) 1 Nov 1961,Betis (11),2-2,4-0,Zaragoza (11)
?,(Wed) 1 Nov 1961,Elche (11),2-1,3-1,Santander (11)
?,(Wed) 1 Nov 1961,Español (11),0-3,1-2,Atlético de Bilbao (11)
?,(Wed) 1 Nov 1961,Mallorca (11),3-1,3-2,Barcelona (11)
?,(Wed) 1 Nov 1961,Osasuna (11),1-3,2-2,Real Madrid (11)
?,(Wed) 1 Nov 1961,Tenerife (11),1-4,1-0,Oviedo (11)
?,(Wed) 15 Nov 1961,Valencia (11),2-1,2-0,Sevilla (11)
?,(Sun) 5 Nov 1961,Atlético de Bilbao (12),3-0,1-3,Mallorca (12)
?,(Sun) 5 Nov 1961,Barcelona (12),5-1,1-1,Atlético de Madrid (12)
?,(Sun) 5 Nov 1961,Santander (12),2-1,0-0,Tenerife (12)
?,(Sun) 5 Nov 1961,Real Sociedad (12),1-1,5-1,Valencia (12)
?,(Sun) 5 Nov 1961,Real Madrid (12),3-1,1-1,Español (12)
?,(Sun) 5 Nov 1961,Oviedo (12),1-1,2-0,Betis (12)
?,(Sun) 5 Nov 1961,Sevilla (12),2-0,1-0,Elche (12)
?,(Sun) 5 Nov 1961,Zaragoza (12),6-3,5-1,Osasuna (12)
?,(Sun) 19 Nov 1961,Atlético de Madrid (13),2-0,5-1,Atlético de Bilbao (13)
?,(Sun) 19 Nov 1961,Betis (13),2-0,1-1,Tenerife (13)
?,(Sun) 19 Nov 1961,Elche (13),4-2,2-1,Real Sociedad (13)
?,(Sun) 19 Nov 1961,Español (13),1-3,3-0,Zaragoza (13)
?,(Sun) 19 Nov 1961,Mallorca (13),0-2,2-0,Real Madrid (13)
?,(Sun) 19 Nov 1961,Osasuna (13),2-2,2-0,Oviedo (13)
?,(Sun) 19 Nov 1961,Santander (13),1-1,3-1,Sevilla (13)
?,(Sun) 19 Nov 1961,Valencia (13),6-2,4-0,Barcelona (13)
?,(Sun) 26 Nov 1961,Atlético de Bilbao (14),0-0,2-2,Valencia (14)
?,(Sun) 26 Nov 1961,Barcelona (14),3-2,1-2,Elche (14)
?,(Sun) 26 Nov 1961,Betis (14),1-1,4-0,Osasuna (14)
?,(Sun) 26 Nov 1961,Real Sociedad (14),3-0,1-0,Santander (14)
?,(Sun) 26 Nov 1961,Real Madrid (14),2-1,1-0,Atlético de Madrid (14)
?,(Sun) 26 Nov 1961,Oviedo (14),1-0,1-1,Español (14)
?,(Sun) 26 Nov 1961,Tenerife (14),3-3,2-1,Sevilla (14)
?,(Sun) 26 Nov 1961,Zaragoza (14),3-0,1-0,Mallorca (14)
?,(Sun) 3 Dec 1961,Atlético de Madrid (15),3-0,1-1,Zaragoza (15)
?,(Sun) 3 Dec 1961,Elche (15),2-2,1-1,Atlético de Bilbao (15)
?,(Sun) 3 Dec 1961,Español (15),2-2,3-3,Betis (15)
?,(Sun) 3 Dec 1961,Mallorca (15),2-0,1-0,Oviedo (15)
?,(Sun) 3 Dec 1961,Osasuna (15),3-1,3-1,Tenerife (15)
?,(Sun) 3 Dec 1961,Santander (15),1-1,8-0,Barcelona (15)
?,(Sun) 3 Dec 1961,Sevilla (15),3-0,4-1,Real Sociedad (15)
?,(Sun) 3 Dec 1961,Valencia (15),3-2,4-1,Real Madrid (15)
?,(Sun) 17 Dec 1961,Atlético de Madrid (16),5-1,0-0,Oviedo (16)
?,(Sun) 17 Dec 1961,Elche (16),0-0,3-1,Real Madrid (16)
?,(Sun) 17 Dec 1961,Español (16),3-0,2-2,Osasuna (16)
?,(Sun) 17 Dec 1961,Mallorca (16),1-0,0-1,Betis (16)
?,(Sun) 17 Dec 1961,Santander (16),2-0,0-1,Atlético de Bilbao (16)
?,(Sun) 17 Dec 1961,Real Sociedad (16),0-1,4-1,Tenerife (16)
?,(Sun) 17 Dec 1961,Sevilla (16),1-0,3-2,Barcelona (16)
?,(Sun) 17 Dec 1961,Valencia (16),1-1,3-0,Zaragoza (16)
?,(Sat) 30 Dec 1961,Barcelona (17),5-0,2-1,Real Sociedad (17)
?,(Sun) 31 Dec 1961,Atlético de Bilbao (17),5-1,2-1,Sevilla (17)
?,(Sun) 31 Dec 1961,Betis (17),2-1,1-0,Atlético de Madrid (17)
?,(Sun) 31 Dec 1961,Osasuna (17),4-1,2-0,Mallorca (17)
?,(Sun) 31 Dec 1961,Real Madrid (17),6-0,0-2,Santander (17)
?,(Sun) 31 Dec 1961,Oviedo (17),1-0,3-0,Valencia (17)
?,(Sun) 31 Dec 1961,Tenerife (17),0-0,2-0,Español (17)
?,(Sun) 31 Dec 1961,Zaragoza (17),1-1,5-3,Elche (17)
?,(Sun) 7 Jan 1962,Atlético de Madrid (18),4-2,3-1,Osasuna (18)
?,(Sun) 7 Jan 1962,Barcelona (18),5-2,1-3,Tenerife (18)
?,(Sun) 7 Jan 1962,Elche (18),1-1,1-1,Oviedo (18)
?,(Sun) 7 Jan 1962,Mallorca (18),1-5,0-2,Español (18)
?,(Sun) 7 Jan 1962,Santander (18),2-1,6-1,Zaragoza (18)
?,(Sun) 7 Jan 1962,Real Sociedad (18),0-2,3-3,Atlético de Bilbao (18)
?,(Sun) 7 Jan 1962,Sevilla (18),1-1,2-1,Real Madrid (18)
?,(Sun) 7 Jan 1962,Valencia (18),2-0,3-1,Betis (18)
?,(Sun) 14 Jan 1962,Atlético de Bilbao (19),3-2,4-2,Barcelona (19)
?,(Sun) 14 Jan 1962,Betis (19),5-1,1-1,Elche (19)
?,(Sun) 14 Jan 1962,Español (19),3-0,5-2,Atlético de Madrid (19)
?,(Sun) 14 Jan 1962,Mallorca (19),1-1,3-0,Tenerife (19)
?,(Sun) 14 Jan 1962,Osasuna (19),5-2,2-0,Valencia (19)
?,(Sun) 14 Jan 1962,Real Madrid (19),1-0,0-1,Real Sociedad (19)
?,(Sun) 14 Jan 1962,Oviedo (19),2-1,3-0,Santander (19)
?,(Sun) 14 Jan 1962,Zaragoza (19),3-2,4-0,Sevilla (19)
?,(Sun) 21 Jan 1962,Atlético de Madrid (20),1-1,0-3,Mallorca (20)
?,(Sun) 21 Jan 1962,Barcelona (20),3-1,2-0,Real Madrid (20)
?,(Sun) 21 Jan 1962,Elche (20),6-2,3-0,Osasuna (20)
?,(Sun) 21 Jan 1962,Santander (20),1-0,1-0,Betis (20)
?,(Sun) 21 Jan 1962,Real Sociedad (20),1-0,6-3,Zaragoza (20)
?,(Sun) 21 Jan 1962,Sevilla (20),3-1,1-1,Oviedo (20)
?,(Sun) 21 Jan 1962,Tenerife (20),1-1,5-0,Atlético de Bilbao (20)
?,(Sun) 21 Jan 1962,Valencia (20),4-2,2-2,Español (20)
?,(Sun) 28 Jan 1962,Betis (21),3-1,1-2,Sevilla (21)
?,(Sun) 28 Jan 1962,Español (21),0-0,6-2,Elche (21)
?,(Sun) 28 Jan 1962,Mallorca (21),3-0,3-1,Valencia (21)
?,(Sun) 28 Jan 1962,Osasuna (21),2-1,1-3,Santander (21)
?,(Sun) 28 Jan 1962,Real Madrid (21),3-0,0-2,Atlético de Bilbao (21)
?,(Sun) 28 Jan 1962,Oviedo (21),1-0,2-0,Real Sociedad (21)
?,(Sun) 28 Jan 1962,Tenerife (21),0-2,1-0,Atlético de Madrid (21)
?,(Sun) 28 Jan 1962,Zaragoza (21),3-2,1-1,Barcelona (21)
?,(Sun) 4 Feb 1962,Atlético de Bilbao (22),1-0,4-2,Zaragoza (22)
?,(Sun) 4 Feb 1962,Barcelona (22),4-1,0-2,Oviedo (22)
?,(Sun) 4 Feb 1962,Elche (22),2-0,3-1,Mallorca (22)
?,(Sun) 4 Feb 1962,Santander (22),1-3,3-2,Español (22)
?,(Sun) 4 Feb 1962,Real Sociedad (22),6-0,2-1,Betis (22)
?,(Sun) 4 Feb 1962,Real Madrid (22),0-0,0-3,Tenerife (22)
?,(Sun) 4 Feb 1962,Sevilla (22),0-0,1-3,Osasuna (22)
?,(Sun) 4 Feb 1962,Valencia (22),2-1,0-0,Atlético de Madrid (22)
?,(Sat) 10 Feb 1962,Valencia (23),2-1,2-1,Tenerife (23)
?,(Sun) 11 Feb 1962,Atlético de Madrid (23),5-2,1-2,Elche (23)
?,(Sun) 11 Feb 1962,Betis (23),2-3,6-1,Barcelona (23)
?,(Sun) 11 Feb 1962,Español (23),0-1,3-1,Sevilla (23)
?,(Sun) 11 Feb 1962,Mallorca (23),0-0,4-0,Santander (23)
?,(Sun) 11 Feb 1962,Osasuna (23),0-1,1-1,Real Sociedad (23)
?,(Sun) 11 Feb 1962,Oviedo (23),0-1,0-1,Atlético de Bilbao (23)
?,(Sun) 11 Feb 1962,Zaragoza (23),2-1,2-1,Real Madrid (23)
?,(Sun) 18 Feb 1962,Atlético de Bilbao (24),1-0,1-1,Betis (24)
?,(Sun) 18 Feb 1962,Barcelona (24),3-1,3-1,Osasuna (24)
?,(Sun) 18 Feb 1962,Elche (24),2-1,0-0,Valencia (24)
?,(Sun) 18 Feb 1962,Santander (24),1-0,1-0,Atlético de Madrid (24)
?,(Sun) 18 Feb 1962,Real Sociedad (24),0-1,2-2,Español (24)
?,(Sun) 18 Feb 1962,Real Madrid (24),4-1,1-0,Oviedo (24)
?,(Sun) 18 Feb 1962,Sevilla (24),0-0,3-2,Mallorca (24)
?,(Sun) 18 Feb 1962,Tenerife (24),4-2,3-1,Zaragoza (24)
?,(Sun) 25 Feb 1962,Atlético de Madrid (25),4-0,1-1,Sevilla (25)
?,(Sun) 25 Feb 1962,Betis (25),2-1,2-0,Real Madrid (25)
?,(Sun) 25 Feb 1962,Elche (25),3-0,1-3,Tenerife (25)
?,(Sun) 25 Feb 1962,Español (25),1-1,2-0,Barcelona (25)
?,(Sun) 25 Feb 1962,Mallorca (25),1-0,0-0,Real Sociedad (25)
?,(Sun) 25 Feb 1962,Osasuna (25),0-4,0-0,Atlético de Bilbao (25)
?,(Sun) 25 Feb 1962,Oviedo (25),0-2,5-1,Zaragoza (25)
?,(Sun) 25 Feb 1962,Valencia (25),2-1,3-2,Santander (25)
?,(Sun) 4 Mar 1962,Atlético de Bilbao (26),1-2,0-3,Español (26)
?,(Sun) 4 Mar 1962,Barcelona (26),3-2,3-1,Mallorca (26)
?,(Sun) 4 Mar 1962,Santander (26),3-1,2-1,Elche (26)
?,(Sun) 4 Mar 1962,Real Sociedad (26),1-0,1-0,Atlético de Madrid (26)
?,(Sun) 4 Mar 1962,Real Madrid (26),2-2,1-3,Osasuna (26)
?,(Sun) 4 Mar 1962,Oviedo (26),1-0,1-4,Tenerife (26)
?,(Sun) 4 Mar 1962,Sevilla (26),2-0,2-1,Valencia (26)
?,(Sun) 4 Mar 1962,Zaragoza (26),4-0,2-2,Betis (26)
?,(Sun) 11 Mar 1962,Atlético de Madrid (27),1-1,5-1,Barcelona (27)
?,(Sun) 11 Mar 1962,Betis (27),2-0,1-1,Oviedo (27)
?,(Sun) 11 Mar 1962,Elche (27),1-0,2-0,Sevilla (27)
?,(Sun) 11 Mar 1962,Español (27),1-1,3-1,Real Madrid (27)
?,(Sun) 11 Mar 1962,Mallorca (27),1-3,3-0,Atlético de Bilbao (27)
?,(Sun) 11 Mar 1962,Osasuna (27),5-1,6-3,Zaragoza (27)
?,(Sun) 11 Mar 1962,Tenerife (27),0-0,2-1,Santander (27)
?,(Sun) 11 Mar 1962,Valencia (27),5-1,1-1,Real Sociedad (27)
?,(Sat) 17 Mar 1962,Barcelona (28),4-0,6-2,Valencia (28)
?,(Sun) 18 Mar 1962,Atlético de Bilbao (28),5-1,2-0,Atlético de Madrid (28)
?,(Sun) 18 Mar 1962,Real Sociedad (28),2-1,4-2,Elche (28)
?,(Sun) 18 Mar 1962,Real Madrid (28),2-0,0-2,Mallorca (28)
?,(Sun) 18 Mar 1962,Oviedo (28),2-0,2-2,Osasuna (28)
?,(Sun) 18 Mar 1962,Sevilla (28),3-1,1-1,Santander (28)
?,(Sun) 18 Mar 1962,Tenerife (28),1-1,2-0,Betis (28)
?,(Sun) 18 Mar 1962,Zaragoza (28),3-0,1-3,Español (28)
?,(Sun) 25 Mar 1962,Atlético de Madrid (29),1-0,2-1,Real Madrid (29)
?,(Sun) 25 Mar 1962,Elche (29),1-2,3-2,Barcelona (29)
?,(Sun) 25 Mar 1962,Español (29),1-1,1-0,Oviedo (29)
?,(Sun) 25 Mar 1962,Mallorca (29),1-0,3-0,Zaragoza (29)
?,(Sun) 25 Mar 1962,Osasuna (29),4-0,1-1,Betis (29)
?,(Sun) 25 Mar 1962,Santander (29),1-0,3-0,Real Sociedad (29)
?,(Sun) 25 Mar 1962,Sevilla (29),2-1,3-3,Tenerife (29)
?,(Sun) 25 Mar 1962,Valencia (29),2-2,0-0,Atlético de Bilbao (29)
?,(Sun) 1 Apr 1962,Atlético de Bilbao (30),1-1,2-2,Elche (30)
?,(Sun) 1 Apr 1962,Barcelona (30),8-0,1-1,Santander (30)
?,(Sun) 1 Apr 1962,Betis (30),3-3,2-2,Español (30)
?,(Sun) 1 Apr 1962,Real Sociedad (30),4-1,3-0,Sevilla (30)
?,(Sun) 1 Apr 1962,Real Madrid (30),4-1,3-2,Valencia (30)
?,(Sun) 1 Apr 1962,Oviedo (30),1-0,2-0,Mallorca (30)
?,(Sun) 1 Apr 1962,Tenerife (30),3-1,3-1,Osasuna (30)
?,(Sun) 1 Apr 1962,Zaragoza (30),1-1,3-0,Atlético de Madrid (30)
