Round,Date,Team 1,FT,HT,Team 2
?,(Sat) 28 Aug 2004,Atlético de Madrid (1),2-0,1-0,Málaga (1)
?,(Sat) 28 Aug 2004,Espanyol (1),1-1,4-1,Deportivo de La Coruña (1)
?,(Sat) 28 Aug 2004,Numancia (1),1-1,4-0,Betis (1)
?,(Sun) 29 Aug 2004,Mallorca (1),0-1,3-1,Real Madrid (1)
?,(Sun) 29 Aug 2004,Osasuna (1),1-1,4-3,Athletic Club (1)
?,(Sun) 29 Aug 2004,Racing de Santander (1),0-2,3-0,Barcelona (1)
?,(Sun) 29 Aug 2004,Real Sociedad (1),1-1,2-1,Levante (1)
?,(Sun) 29 Aug 2004,Sevilla (1),1-0,0-2,Albacete (1)
?,(Sun) 29 Aug 2004,Zaragoza (1),3-1,3-0,Getafe (1)
?,(Mon) 30 Aug 2004,Valencia (1),2-1,3-1,Villarreal (1)
?,(Sat) 11 Sep 2004,Athletic Club (2),2-2,2-2,Valencia (2)
?,(Sat) 11 Sep 2004,Barcelona (2),2-0,0-4,Sevilla (2)
?,(Sat) 11 Sep 2004,Real Madrid (2),1-0,1-2,Numancia (2)
?,(Sun) 12 Sep 2004,Albacete (2),0-2,3-1,Atlético de Madrid (2)
?,(Sun) 12 Sep 2004,Betis (2),1-4,2-2,Espanyol (2)
?,(Sun) 12 Sep 2004,Deportivo de La Coruña (2),1-3,1-1,Osasuna (2)
?,(Sun) 12 Sep 2004,Getafe (2),1-2,3-1,Mallorca (2)
?,(Sun) 12 Sep 2004,Levante (2),3-1,2-2,Racing de Santander (2)
?,(Sun) 12 Sep 2004,Málaga (2),0-0,1-0,Zaragoza (2)
?,(Sun) 12 Sep 2004,Villarreal (2),0-0,0-4,Real Sociedad (2)
?,(Sat) 18 Sep 2004,Espanyol (3),1-0,4-0,Real Madrid (3)
?,(Sat) 18 Sep 2004,Osasuna (3),3-2,3-1,Betis (3)
?,(Sat) 18 Sep 2004,Valencia (3),3-1,3-3,Real Sociedad (3)
?,(Sun) 19 Sep 2004,Athletic Club (3),1-2,1-1,Deportivo de La Coruña (3)
?,(Sun) 19 Sep 2004,Atlético de Madrid (3),1-1,0-2,Barcelona (3)
?,(Sun) 19 Sep 2004,Mallorca (3),1-2,0-0,Málaga (3)
?,(Sun) 19 Sep 2004,Numancia (3),1-0,1-0,Getafe (3)
?,(Sun) 19 Sep 2004,Racing de Santander (3),1-1,2-1,Villarreal (3)
?,(Sun) 19 Sep 2004,Sevilla (3),3-0,0-3,Levante (3)
?,(Sun) 19 Sep 2004,Zaragoza (3),4-3,2-1,Albacete (3)
?,(Tue) 21 Sep 2004,Real Madrid (4),1-0,1-2,Osasuna (4)
?,(Wed) 22 Sep 2004,Albacete (4),0-0,2-1,Mallorca (4)
?,(Wed) 22 Sep 2004,Betis (4),2-1,4-4,Athletic Club (4)
?,(Wed) 22 Sep 2004,Deportivo de La Coruña (4),1-5,1-2,Valencia (4)
?,(Wed) 22 Sep 2004,Getafe (4),1-0,2-0,Espanyol (4)
?,(Wed) 22 Sep 2004,Levante (4),1-0,0-0,Atlético de Madrid (4)
?,(Wed) 22 Sep 2004,Málaga (4),4-1,0-1,Numancia (4)
?,(Wed) 22 Sep 2004,Real Sociedad (4),0-1,1-3,Racing de Santander (4)
?,(Wed) 22 Sep 2004,Villarreal (4),0-0,2-1,Sevilla (4)
?,(Thu) 23 Sep 2004,Barcelona (4),4-1,1-4,Zaragoza (4)
?,(Sat) 25 Sep 2004,Athletic Club (5),2-1,0-2,Real Madrid (5)
?,(Sat) 25 Sep 2004,Atlético de Madrid (5),1-0,3-2,Villarreal (5)
?,(Sat) 25 Sep 2004,Deportivo de La Coruña (5),1-1,2-0,Betis (5)
?,(Sun) 26 Sep 2004,Espanyol (5),1-0,3-2,Málaga (5)
?,(Sun) 26 Sep 2004,Mallorca (5),1-3,2-0,Barcelona (5)
?,(Sun) 26 Sep 2004,Numancia (5),0-0,1-2,Albacete (5)
?,(Sun) 26 Sep 2004,Osasuna (5),2-1,0-0,Getafe (5)
?,(Sun) 26 Sep 2004,Sevilla (5),2-1,1-0,Real Sociedad (5)
?,(Sun) 26 Sep 2004,Valencia (5),2-0,1-0,Racing de Santander (5)
?,(Sun) 26 Sep 2004,Zaragoza (5),4-3,0-0,Levante (5)
?,(Sat) 2 Oct 2004,Betis (6),1-1,2-1,Valencia (6)
?,(Sat) 2 Oct 2004,Real Sociedad (6),1-0,1-0,Atlético de Madrid (6)
?,(Sun) 3 Oct 2004,Albacete (6),1-0,2-1,Espanyol (6)
?,(Sun) 3 Oct 2004,Barcelona (6),1-0,1-1,Numancia (6)
?,(Sun) 3 Oct 2004,Getafe (6),3-1,1-2,Athletic Club (6)
?,(Sun) 3 Oct 2004,Levante (6),2-0,1-2,Mallorca (6)
?,(Sun) 3 Oct 2004,Málaga (6),2-0,1-6,Osasuna (6)
?,(Sun) 3 Oct 2004,Racing de Santander (6),0-0,2-2,Sevilla (6)
?,(Sun) 3 Oct 2004,Real Madrid (6),0-1,2-0,Deportivo de La Coruña (6)
?,(Sun) 3 Oct 2004,Villarreal (6),2-0,1-0,Zaragoza (6)
?,(Sat) 16 Oct 2004,Betis (7),1-1,3-1,Real Madrid (7)
?,(Sat) 16 Oct 2004,Deportivo de La Coruña (7),2-1,1-1,Getafe (7)
?,(Sat) 16 Oct 2004,Espanyol (7),0-1,0-0,Barcelona (7)
?,(Sun) 17 Oct 2004,Athletic Club (7),1-0,1-0,Málaga (7)
?,(Sun) 17 Oct 2004,Atlético de Madrid (7),1-0,2-1,Racing de Santander (7)
?,(Sun) 17 Oct 2004,Mallorca (7),1-1,2-1,Villarreal (7)
?,(Sun) 17 Oct 2004,Numancia (7),1-3,1-1,Levante (7)
?,(Sun) 17 Oct 2004,Osasuna (7),3-2,1-1,Albacete (7)
?,(Sun) 17 Oct 2004,Valencia (7),1-2,2-2,Sevilla (7)
?,(Sun) 17 Oct 2004,Zaragoza (7),2-1,2-1,Real Sociedad (7)
?,(Sat) 23 Oct 2004,Málaga (8),1-1,1-0,Deportivo de La Coruña (8)
?,(Sat) 23 Oct 2004,Real Madrid (8),1-0,1-1,Valencia (8)
?,(Sun) 24 Oct 2004,Albacete (8),1-0,3-1,Athletic Club (8)
?,(Sun) 24 Oct 2004,Barcelona (8),3-0,0-1,Osasuna (8)
?,(Sun) 24 Oct 2004,Getafe (8),0-2,2-2,Betis (8)
?,(Sun) 24 Oct 2004,Levante (8),0-2,2-1,Espanyol (8)
?,(Sun) 24 Oct 2004,Racing de Santander (8),1-0,1-0,Zaragoza (8)
?,(Sun) 24 Oct 2004,Real Sociedad (8),2-1,3-2,Mallorca (8)
?,(Sun) 24 Oct 2004,Sevilla (8),2-1,3-0,Atlético de Madrid (8)
?,(Sun) 24 Oct 2004,Villarreal (8),4-0,1-1,Numancia (8)
?,(Sat) 30 Oct 2004,Athletic Club (9),1-1,2-0,Barcelona (9)
?,(Sat) 30 Oct 2004,Valencia (9),1-1,1-0,Atlético de Madrid (9)
?,(Sun) 31 Oct 2004,Betis (9),1-1,1-2,Málaga (9)
?,(Sun) 31 Oct 2004,Deportivo de La Coruña (9),0-0,0-1,Albacete (9)
?,(Sun) 31 Oct 2004,Espanyol (9),0-0,4-1,Villarreal (9)
?,(Sun) 31 Oct 2004,Mallorca (9),1-2,3-0,Racing de Santander (9)
?,(Sun) 31 Oct 2004,Numancia (9),0-2,2-1,Real Sociedad (9)
?,(Sun) 31 Oct 2004,Osasuna (9),0-1,4-0,Levante (9)
?,(Sun) 31 Oct 2004,Real Madrid (9),2-0,2-1,Getafe (9)
?,(Sun) 31 Oct 2004,Zaragoza (9),3-0,0-1,Sevilla (9)
?,(Sat) 6 Nov 2004,Albacete (10),0-0,2-1,Betis (10)
?,(Sat) 6 Nov 2004,Barcelona (10),2-1,0-1,Deportivo de La Coruña (10)
?,(Sun) 7 Nov 2004,Atlético de Madrid (10),1-1,0-0,Zaragoza (10)
?,(Sun) 7 Nov 2004,Getafe (10),1-0,3-1,Valencia (10)
?,(Sun) 7 Nov 2004,Levante (10),1-0,3-1,Athletic Club (10)
?,(Sun) 7 Nov 2004,Málaga (10),0-2,1-0,Real Madrid (10)
?,(Sun) 7 Nov 2004,Racing de Santander (10),2-0,2-3,Numancia (10)
?,(Sun) 7 Nov 2004,Real Sociedad (10),0-2,2-2,Espanyol (10)
?,(Sun) 7 Nov 2004,Sevilla (10),1-1,0-1,Mallorca (10)
?,(Sun) 7 Nov 2004,Villarreal (10),3-0,3-2,Osasuna (10)
?,(Sat) 13 Nov 2004,Athletic Club (11),2-1,3-1,Villarreal (11)
?,(Sat) 13 Nov 2004,Deportivo de La Coruña (11),1-0,0-1,Levante (11)
?,(Sat) 13 Nov 2004,Espanyol (11),2-1,1-3,Racing de Santander (11)
?,(Sat) 13 Nov 2004,Getafe (11),1-0,1-1,Málaga (11)
?,(Sat) 13 Nov 2004,Numancia (11),2-1,1-0,Sevilla (11)
?,(Sat) 13 Nov 2004,Osasuna (11),1-0,2-0,Real Sociedad (11)
?,(Sat) 13 Nov 2004,Valencia (11),0-0,2-2,Zaragoza (11)
?,(Sun) 14 Nov 2004,Betis (11),2-1,3-3,Barcelona (11)
?,(Sun) 14 Nov 2004,Mallorca (11),1-1,4-0,Atlético de Madrid (11)
?,(Sun) 14 Nov 2004,Real Madrid (11),6-1,1-2,Albacete (11)
?,(Sat) 20 Nov 2004,Barcelona (12),3-0,4-2,Real Madrid (12)
?,(Sat) 20 Nov 2004,Málaga (12),0-2,2-2,Valencia (12)
?,(Sat) 20 Nov 2004,Villarreal (12),0-2,1-1,Deportivo de La Coruña (12)
?,(Sun) 21 Nov 2004,Albacete (12),1-1,1-0,Getafe (12)
?,(Sun) 21 Nov 2004,Atlético de Madrid (12),2-0,1-0,Numancia (12)
?,(Sun) 21 Nov 2004,Levante (12),1-2,2-2,Betis (12)
?,(Sun) 21 Nov 2004,Racing de Santander (12),1-1,1-0,Osasuna (12)
?,(Sun) 21 Nov 2004,Real Sociedad (12),3-2,3-0,Athletic Club (12)
?,(Sun) 21 Nov 2004,Sevilla (12),1-0,1-3,Espanyol (12)
?,(Sun) 21 Nov 2004,Zaragoza (12),0-1,0-2,Mallorca (12)
?,(Sat) 27 Nov 2004,Athletic Club (13),3-0,0-2,Racing de Santander (13)
?,(Sat) 27 Nov 2004,Espanyol (13),2-1,0-0,Atlético de Madrid (13)
?,(Sat) 27 Nov 2004,Getafe (13),1-2,2-0,Barcelona (13)
?,(Sun) 28 Nov 2004,Betis (13),2-1,0-0,Villarreal (13)
?,(Sun) 28 Nov 2004,Málaga (13),0-2,1-2,Albacete (13)
?,(Sun) 28 Nov 2004,Numancia (13),2-1,4-1,Zaragoza (13)
?,(Sun) 28 Nov 2004,Osasuna (13),4-1,0-1,Sevilla (13)
?,(Sun) 28 Nov 2004,Real Madrid (13),5-0,0-2,Levante (13)
?,(Sun) 28 Nov 2004,Valencia (13),2-0,0-0,Mallorca (13)
?,(Sun) 28 Nov 2004,Deportivo de La Coruña (13),2-2,1-0,Real Sociedad (13)
?,(Sat) 4 Dec 2004,Albacete (14),0-1,2-0,Valencia (14)
?,(Sat) 4 Dec 2004,Barcelona (14),4-0,0-4,Málaga (14)
?,(Sat) 4 Dec 2004,Real Sociedad (14),1-0,2-3,Betis (14)
?,(Sun) 5 Dec 2004,Atlético de Madrid (14),3-2,1-0,Osasuna (14)
?,(Sun) 5 Dec 2004,Levante (14),0-0,1-0,Getafe (14)
?,(Sun) 5 Dec 2004,Mallorca (14),3-2,1-2,Numancia (14)
?,(Sun) 5 Dec 2004,Racing de Santander (14),2-2,1-4,Deportivo de La Coruña (14)
?,(Sun) 5 Dec 2004,Sevilla (14),2-0,1-3,Athletic Club (14)
?,(Sun) 5 Dec 2004,Villarreal (14),0-0,2-1,Real Madrid (14)
?,(Sun) 5 Dec 2004,Zaragoza (14),0-1,3-1,Espanyol (14)
?,(Sat) 11 Dec 2004,Albacete (15),1-2,2-0,Barcelona (15)
?,(Sat) 11 Dec 2004,Athletic Club (15),1-0,1-1,Atlético de Madrid (15)
?,(Sun) 12 Dec 2004,Betis (15),2-1,1-1,Racing de Santander (15)
?,(Sun) 12 Dec 2004,Deportivo de La Coruña (15),2-2,2-0,Sevilla (15)
?,(Sun) 12 Dec 2004,Espanyol (15),2-1,3-2,Mallorca (15)
?,(Sun) 12 Dec 2004,Getafe (15),1-2,4-0,Villarreal (15)
?,(Sun) 12 Dec 2004,Málaga (15),1-0,0-1,Levante (15)
?,(Sun) 12 Dec 2004,Osasuna (15),2-2,5-1,Zaragoza (15)
?,(Sun) 12 Dec 2004,Valencia (15),1-0,1-1,Numancia (15)
?,(Sun) 12 Dec 2004,Real Madrid (15),2-1,0-2,Real Sociedad (15)
?,(Sat) 18 Dec 2004,Barcelona (16),1-1,0-2,Valencia (16)
?,(Sat) 18 Dec 2004,Levante (16),1-1,3-1,Albacete (16)
?,(Sat) 18 Dec 2004,Racing de Santander (16),2-3,5-0,Real Madrid (16)
?,(Sun) 19 Dec 2004,Atlético de Madrid (16),1-0,2-0,Deportivo de La Coruña (16)
?,(Sun) 19 Dec 2004,Mallorca (16),1-2,1-1,Osasuna (16)
?,(Sun) 19 Dec 2004,Numancia (16),0-0,3-0,Espanyol (16)
?,(Sun) 19 Dec 2004,Real Sociedad (16),1-1,2-0,Getafe (16)
?,(Sun) 19 Dec 2004,Sevilla (16),2-1,1-0,Betis (16)
?,(Sun) 19 Dec 2004,Villarreal (16),3-0,0-2,Málaga (16)
?,(Sun) 19 Dec 2004,Zaragoza (16),0-2,2-0,Athletic Club (16)
?,(Tue) 21 Dec 2004,Barcelona (17),2-1,1-1,Levante (17)
?,(Tue) 21 Dec 2004,Betis (17),1-0,1-2,Atlético de Madrid (17)
?,(Wed) 22 Dec 2004,Albacete (17),2-2,1-0,Villarreal (17)
?,(Wed) 22 Dec 2004,Athletic Club (17),4-0,4-3,Mallorca (17)
?,(Wed) 22 Dec 2004,Deportivo de La Coruña (17),2-3,2-2,Zaragoza (17)
?,(Wed) 22 Dec 2004,Getafe (17),2-0,2-1,Racing de Santander (17)
?,(Wed) 22 Dec 2004,Málaga (17),1-5,1-3,Real Sociedad (17)
?,(Wed) 22 Dec 2004,Osasuna (17),2-0,2-2,Numancia (17)
?,(Wed) 22 Dec 2004,Real Madrid (17),0-1,2-2,Sevilla (17)
?,(Wed) 22 Dec 2004,Valencia (17),3-0,2-2,Espanyol (17)
?,(Sat) 8 Jan 2005,Numancia (18),1-1,0-2,Athletic Club (18)
?,(Sat) 8 Jan 2005,Sevilla (18),0-0,0-0,Getafe (18)
?,(Sat) 8 Jan 2005,Valencia (18),2-1,0-0,Levante (18)
?,(Sun) 9 Jan 2005,Atlético de Madrid (18),0-3,0-0,Real Madrid (18)
?,(Sun) 9 Jan 2005,Espanyol (18),4-1,1-1,Osasuna (18)
?,(Sun) 9 Jan 2005,Mallorca (18),2-2,0-3,Deportivo de La Coruña (18)
?,(Sun) 9 Jan 2005,Racing de Santander (18),2-1,2-0,Málaga (18)
?,(Sun) 9 Jan 2005,Real Sociedad (18),0-2,2-2,Albacete (18)
?,(Sun) 9 Jan 2005,Villarreal (18),3-0,3-3,Barcelona (18)
?,(Sun) 9 Jan 2005,Zaragoza (18),1-0,3-2,Betis (18)
?,(Sat) 15 Jan 2005,Getafe (19),1-1,2-2,Atlético de Madrid (19)
?,(Sat) 15 Jan 2005,Málaga (19),1-0,0-2,Sevilla (19)
?,(Sun) 16 Jan 2005,Albacete (19),0-0,1-0,Racing de Santander (19)
?,(Sun) 16 Jan 2005,Athletic Club (19),1-1,2-0,Espanyol (19)
?,(Sun) 16 Jan 2005,Barcelona (19),1-0,0-0,Real Sociedad (19)
?,(Sun) 16 Jan 2005,Betis (19),2-0,1-1,Mallorca (19)
?,(Sun) 16 Jan 2005,Deportivo de La Coruña (19),1-1,1-1,Numancia (19)
?,(Sun) 16 Jan 2005,Levante (19),2-4,4-1,Villarreal (19)
?,(Sun) 16 Jan 2005,Osasuna (19),0-0,1-0,Valencia (19)
?,(Sun) 16 Jan 2005,Real Madrid (19),3-1,1-3,Zaragoza (19)
?,(Sat) 22 Jan 2005,Athletic Club (20),4-3,1-1,Osasuna (20)
?,(Sat) 22 Jan 2005,Barcelona (20),3-0,0-2,Racing de Santander (20)
?,(Sun) 23 Jan 2005,Albacete (20),0-2,1-0,Sevilla (20)
?,(Sun) 23 Jan 2005,Betis (20),4-0,1-1,Numancia (20)
?,(Sun) 23 Jan 2005,Deportivo de La Coruña (20),4-1,1-1,Espanyol (20)
?,(Sun) 23 Jan 2005,Getafe (20),3-0,3-1,Zaragoza (20)
?,(Sun) 23 Jan 2005,Levante (20),2-1,1-1,Real Sociedad (20)
?,(Sun) 23 Jan 2005,Málaga (20),1-0,2-0,Atlético de Madrid (20)
?,(Sun) 23 Jan 2005,Real Madrid (20),3-1,0-1,Mallorca (20)
?,(Sun) 23 Jan 2005,Villarreal (20),3-1,2-1,Valencia (20)
?,(Sat) 29 Jan 2005,Atlético de Madrid (21),3-1,0-2,Albacete (21)
?,(Sat) 29 Jan 2005,Sevilla (21),0-4,2-0,Barcelona (21)
?,(Sun) 30 Jan 2005,Espanyol (21),2-2,1-4,Betis (21)
?,(Sun) 30 Jan 2005,Mallorca (21),3-1,1-2,Getafe (21)
?,(Sun) 30 Jan 2005,Numancia (21),1-2,1-0,Real Madrid (21)
?,(Sun) 30 Jan 2005,Osasuna (21),1-1,1-3,Deportivo de La Coruña (21)
?,(Sun) 30 Jan 2005,Racing de Santander (21),2-2,3-1,Levante (21)
?,(Sun) 30 Jan 2005,Real Sociedad (21),0-4,0-0,Villarreal (21)
?,(Sun) 30 Jan 2005,Valencia (21),2-2,2-2,Athletic Club (21)
?,(Sun) 30 Jan 2005,Zaragoza (21),1-0,0-0,Málaga (21)
?,(Sat) 5 Feb 2005,Real Sociedad (22),3-3,3-1,Valencia (22)
?,(Sat) 5 Feb 2005,Real Madrid (22),4-0,1-0,Espanyol (22)
?,(Sun) 6 Feb 2005,Albacete (22),2-1,4-3,Zaragoza (22)
?,(Sun) 6 Feb 2005,Barcelona (22),0-2,1-1,Atlético de Madrid (22)
?,(Sun) 6 Feb 2005,Betis (22),3-1,3-2,Osasuna (22)
?,(Sun) 6 Feb 2005,Deportivo de La Coruña (22),1-1,1-2,Athletic Club (22)
?,(Sun) 6 Feb 2005,Getafe (22),1-0,1-0,Numancia (22)
?,(Sun) 6 Feb 2005,Levante (22),0-3,3-0,Sevilla (22)
?,(Sun) 6 Feb 2005,Málaga (22),0-0,1-2,Mallorca (22)
?,(Sun) 6 Feb 2005,Villarreal (22),2-1,1-1,Racing de Santander (22)
?,(Sat) 12 Feb 2005,Valencia (23),1-2,1-5,Deportivo de La Coruña (23)
?,(Sat) 12 Feb 2005,Zaragoza (23),1-4,4-1,Barcelona (23)
?,(Sun) 13 Feb 2005,Athletic Club (23),4-4,2-1,Betis (23)
?,(Sun) 13 Feb 2005,Atlético de Madrid (23),0-0,1-0,Levante (23)
?,(Sun) 13 Feb 2005,Espanyol (23),2-0,1-0,Getafe (23)
?,(Sun) 13 Feb 2005,Mallorca (23),2-1,0-0,Albacete (23)
?,(Sun) 13 Feb 2005,Numancia (23),0-1,4-1,Málaga (23)
?,(Sun) 13 Feb 2005,Osasuna (23),1-2,1-0,Real Madrid (23)
?,(Sun) 13 Feb 2005,Racing de Santander (23),1-3,0-1,Real Sociedad (23)
?,(Sun) 13 Feb 2005,Sevilla (23),2-1,0-0,Villarreal (23)
?,(Sat) 19 Feb 2005,Barcelona (24),2-0,1-3,Mallorca (24)
?,(Sat) 19 Feb 2005,Real Sociedad (24),1-0,2-1,Sevilla (24)
?,(Sat) 19 Feb 2005,Real Madrid (24),0-2,2-1,Athletic Club (24)
?,(Sun) 20 Feb 2005,Albacete (24),1-2,0-0,Numancia (24)
?,(Sun) 20 Feb 2005,Betis (24),2-0,1-1,Deportivo de La Coruña (24)
?,(Sun) 20 Feb 2005,Getafe (24),0-0,2-1,Osasuna (24)
?,(Sun) 20 Feb 2005,Levante (24),0-0,4-3,Zaragoza (24)
?,(Sun) 20 Feb 2005,Málaga (24),3-2,1-0,Espanyol (24)
?,(Sun) 20 Feb 2005,Racing de Santander (24),1-0,2-0,Valencia (24)
?,(Sun) 20 Feb 2005,Villarreal (24),3-2,1-0,Atlético de Madrid (24)
?,(Sat) 26 Feb 2005,Deportivo de La Coruña (25),2-0,0-1,Real Madrid (25)
?,(Sat) 26 Feb 2005,Espanyol (25),2-1,1-0,Albacete (25)
?,(Sat) 26 Feb 2005,Mallorca (25),1-2,2-0,Levante (25)
?,(Sat) 26 Feb 2005,Numancia (25),1-1,1-0,Barcelona (25)
?,(Sun) 27 Feb 2005,Atlético de Madrid (25),1-0,1-0,Real Sociedad (25)
?,(Sun) 27 Feb 2005,Osasuna (25),1-6,2-0,Málaga (25)
?,(Sun) 27 Feb 2005,Sevilla (25),2-2,0-0,Racing de Santander (25)
?,(Sun) 27 Feb 2005,Valencia (25),2-1,1-1,Betis (25)
?,(Sun) 27 Feb 2005,Zaragoza (25),1-0,2-0,Villarreal (25)
?,(Wed) 16 Mar 2005,Athletic Club (25),1-2,3-1,Getafe (25)
?,(Tue) 1 Mar 2005,Barcelona (26),0-0,0-1,Espanyol (26)
?,(Wed) 2 Mar 2005,Albacete (26),1-1,3-2,Osasuna (26)
?,(Wed) 2 Mar 2005,Getafe (26),1-1,2-1,Deportivo de La Coruña (26)
?,(Wed) 2 Mar 2005,Levante (26),1-1,1-3,Numancia (26)
?,(Wed) 2 Mar 2005,Málaga (26),1-0,1-0,Athletic Club (26)
?,(Wed) 2 Mar 2005,Racing de Santander (26),2-1,1-0,Atlético de Madrid (26)
?,(Wed) 2 Mar 2005,Real Sociedad (26),2-1,2-1,Zaragoza (26)
?,(Wed) 2 Mar 2005,Real Madrid (26),3-1,1-1,Betis (26)
?,(Wed) 2 Mar 2005,Sevilla (26),2-2,1-2,Valencia (26)
?,(Wed) 2 Mar 2005,Villarreal (26),2-1,1-1,Mallorca (26)
?,(Sat) 5 Mar 2005,Atlético de Madrid (27),3-0,2-1,Sevilla (27)
?,(Sat) 5 Mar 2005,Osasuna (27),0-1,3-0,Barcelona (27)
?,(Sat) 5 Mar 2005,Valencia (27),1-1,1-0,Real Madrid (27)
?,(Sun) 6 Mar 2005,Athletic Club (27),3-1,1-0,Albacete (27)
?,(Sun) 6 Mar 2005,Betis (27),2-2,0-2,Getafe (27)
?,(Sun) 6 Mar 2005,Deportivo de La Coruña (27),1-0,1-1,Málaga (27)
?,(Sun) 6 Mar 2005,Espanyol (27),2-1,0-2,Levante (27)
?,(Sun) 6 Mar 2005,Mallorca (27),3-2,2-1,Real Sociedad (27)
?,(Sun) 6 Mar 2005,Numancia (27),1-1,4-0,Villarreal (27)
?,(Sun) 6 Mar 2005,Zaragoza (27),1-0,1-0,Racing de Santander (27)
?,(Sat) 12 Mar 2005,Barcelona (28),2-0,1-1,Athletic Club (28)
?,(Sat) 12 Mar 2005,Málaga (28),1-2,1-1,Betis (28)
?,(Sun) 13 Mar 2005,Albacete (28),0-1,0-0,Deportivo de La Coruña (28)
?,(Sun) 13 Mar 2005,Atlético de Madrid (28),1-0,1-1,Valencia (28)
?,(Sun) 13 Mar 2005,Getafe (28),2-1,2-0,Real Madrid (28)
?,(Sun) 13 Mar 2005,Levante (28),4-0,0-1,Osasuna (28)
?,(Sun) 13 Mar 2005,Racing de Santander (28),3-0,1-2,Mallorca (28)
?,(Sun) 13 Mar 2005,Real Sociedad (28),2-1,0-2,Numancia (28)
?,(Sun) 13 Mar 2005,Sevilla (28),0-1,3-0,Zaragoza (28)
?,(Sun) 13 Mar 2005,Villarreal (28),4-1,0-0,Espanyol (28)
?,(Sat) 19 Mar 2005,Betis (29),2-1,0-0,Albacete (29)
?,(Sat) 19 Mar 2005,Deportivo de La Coruña (29),0-1,2-1,Barcelona (29)
?,(Sat) 19 Mar 2005,Espanyol (29),2-2,0-2,Real Sociedad (29)
?,(Sun) 20 Mar 2005,Athletic Club (29),3-1,1-0,Levante (29)
?,(Sun) 20 Mar 2005,Mallorca (29),0-1,1-1,Sevilla (29)
?,(Sun) 20 Mar 2005,Numancia (29),2-3,2-0,Racing de Santander (29)
?,(Sun) 20 Mar 2005,Real Madrid (29),1-0,0-2,Málaga (29)
?,(Sun) 20 Mar 2005,Valencia (29),3-1,1-0,Getafe (29)
?,(Sun) 20 Mar 2005,Zaragoza (29),0-0,1-1,Atlético de Madrid (29)
?,(Thu) 28 Apr 2005,Osasuna (29),3-2,3-0,Villarreal (29)
?,(Sat) 2 Apr 2005,Real Sociedad (30),2-0,1-0,Osasuna (30)
?,(Sat) 2 Apr 2005,Villarreal (30),3-1,2-1,Athletic Club (30)
?,(Sat) 2 Apr 2005,Zaragoza (30),2-2,0-0,Valencia (30)
?,(Sun) 3 Apr 2005,Albacete (30),1-2,6-1,Real Madrid (30)
?,(Sun) 3 Apr 2005,Atlético de Madrid (30),4-0,1-1,Mallorca (30)
?,(Sun) 3 Apr 2005,Barcelona (30),3-3,2-1,Betis (30)
?,(Sun) 3 Apr 2005,Levante (30),0-1,1-0,Deportivo de La Coruña (30)
?,(Sun) 3 Apr 2005,Málaga (30),1-1,1-0,Getafe (30)
?,(Sun) 3 Apr 2005,Racing de Santander (30),1-3,2-1,Espanyol (30)
?,(Sun) 3 Apr 2005,Sevilla (30),1-0,2-1,Numancia (30)
?,(Sat) 9 Apr 2005,Athletic Club (31),3-0,3-2,Real Sociedad (31)
?,(Sat) 9 Apr 2005,Numancia (31),1-0,2-0,Atlético de Madrid (31)
?,(Sun) 10 Apr 2005,Betis (31),2-2,1-2,Levante (31)
?,(Sun) 10 Apr 2005,Deportivo de La Coruña (31),1-1,0-2,Villarreal (31)
?,(Sun) 10 Apr 2005,Espanyol (31),1-3,1-0,Sevilla (31)
?,(Sun) 10 Apr 2005,Getafe (31),1-0,1-1,Albacete (31)
?,(Sun) 10 Apr 2005,Mallorca (31),0-2,0-1,Zaragoza (31)
?,(Sun) 10 Apr 2005,Osasuna (31),1-0,1-1,Racing de Santander (31)
?,(Sun) 10 Apr 2005,Real Madrid (31),4-2,3-0,Barcelona (31)
?,(Sun) 10 Apr 2005,Valencia (31),2-2,0-2,Málaga (31)
?,(Sat) 16 Apr 2005,Atlético de Madrid (32),0-0,2-1,Espanyol (32)
?,(Sat) 16 Apr 2005,Real Sociedad (32),1-0,2-2,Deportivo de La Coruña (32)
?,(Sat) 16 Apr 2005,Sevilla (32),0-1,4-1,Osasuna (32)
?,(Sun) 17 Apr 2005,Albacete (32),1-2,0-2,Málaga (32)
?,(Sun) 17 Apr 2005,Barcelona (32),2-0,1-2,Getafe (32)
?,(Sun) 17 Apr 2005,Levante (32),0-2,5-0,Real Madrid (32)
?,(Sun) 17 Apr 2005,Mallorca (32),0-0,2-0,Valencia (32)
?,(Sun) 17 Apr 2005,Racing de Santander (32),0-2,3-0,Athletic Club (32)
?,(Sun) 17 Apr 2005,Villarreal (32),0-0,2-1,Betis (32)
?,(Sun) 17 Apr 2005,Zaragoza (32),4-1,2-1,Numancia (32)
?,(Sat) 23 Apr 2005,Osasuna (33),1-0,3-2,Atlético de Madrid (33)
?,(Sat) 23 Apr 2005,Real Madrid (33),2-1,0-0,Villarreal (33)
?,(Sun) 24 Apr 2005,Athletic Club (33),1-3,2-0,Sevilla (33)
?,(Sun) 24 Apr 2005,Betis (33),2-3,1-0,Real Sociedad (33)
?,(Sun) 24 Apr 2005,Deportivo de La Coruña (33),1-4,2-2,Racing de Santander (33)
?,(Sun) 24 Apr 2005,Espanyol (33),3-1,0-1,Zaragoza (33)
?,(Sun) 24 Apr 2005,Getafe (33),1-0,0-0,Levante (33)
?,(Sun) 24 Apr 2005,Málaga (33),0-4,4-0,Barcelona (33)
?,(Sun) 24 Apr 2005,Numancia (33),1-2,3-2,Mallorca (33)
?,(Sun) 24 Apr 2005,Valencia (33),2-0,0-1,Albacete (33)
?,(Sat) 30 Apr 2005,Atlético de Madrid (34),1-1,1-0,Athletic Club (34)
?,(Sat) 30 Apr 2005,Numancia (34),1-1,1-0,Valencia (34)
?,(Sat) 30 Apr 2005,Real Sociedad (34),0-2,2-1,Real Madrid (34)
?,(Sun) 1 May 2005,Barcelona (34),2-0,1-2,Albacete (34)
?,(Sun) 1 May 2005,Levante (34),0-1,1-0,Málaga (34)
?,(Sun) 1 May 2005,Mallorca (34),3-2,2-1,Espanyol (34)
?,(Sun) 1 May 2005,Racing de Santander (34),1-1,2-1,Betis (34)
?,(Sun) 1 May 2005,Sevilla (34),2-0,2-2,Deportivo de La Coruña (34)
?,(Sun) 1 May 2005,Villarreal (34),4-0,1-2,Getafe (34)
?,(Sun) 1 May 2005,Zaragoza (34),5-1,2-2,Osasuna (34)
?,(Sat) 7 May 2005,Athletic Club (35),2-0,0-2,Zaragoza (35)
?,(Sat) 7 May 2005,Betis (35),1-0,2-1,Sevilla (35)
?,(Sat) 7 May 2005,Osasuna (35),1-1,1-2,Mallorca (35)
?,(Sat) 7 May 2005,Real Madrid (35),5-0,2-3,Racing de Santander (35)
?,(Sun) 8 May 2005,Albacete (35),3-1,1-1,Levante (35)
?,(Sun) 8 May 2005,Deportivo de La Coruña (35),2-0,1-0,Atlético de Madrid (35)
?,(Sun) 8 May 2005,Espanyol (35),3-0,0-0,Numancia (35)
?,(Sun) 8 May 2005,Getafe (35),2-0,1-1,Real Sociedad (35)
?,(Sun) 8 May 2005,Málaga (35),0-2,3-0,Villarreal (35)
?,(Sun) 8 May 2005,Valencia (35),0-2,1-1,Barcelona (35)
?,(Sat) 14 May 2005,Levante (36),1-1,2-1,Barcelona (36)
?,(Sat) 14 May 2005,Sevilla (36),2-2,0-1,Real Madrid (36)
?,(Sun) 15 May 2005,Atlético de Madrid (36),1-2,1-0,Betis (36)
?,(Sun) 15 May 2005,Espanyol (36),2-2,3-0,Valencia (36)
?,(Sun) 15 May 2005,Mallorca (36),4-3,4-0,Athletic Club (36)
?,(Sun) 15 May 2005,Numancia (36),2-2,2-0,Osasuna (36)
?,(Sun) 15 May 2005,Racing de Santander (36),2-1,2-0,Getafe (36)
?,(Sun) 15 May 2005,Real Sociedad (36),1-3,1-5,Málaga (36)
?,(Sun) 15 May 2005,Villarreal (36),1-0,2-2,Albacete (36)
?,(Sun) 15 May 2005,Zaragoza (36),2-2,2-3,Deportivo de La Coruña (36)
?,(Sat) 21 May 2005,Betis (37),3-2,1-0,Zaragoza (37)
?,(Sat) 21 May 2005,Real Madrid (37),0-0,0-3,Atlético de Madrid (37)
?,(Sun) 22 May 2005,Albacete (37),2-2,0-2,Real Sociedad (37)
?,(Sun) 22 May 2005,Athletic Club (37),0-2,1-1,Numancia (37)
?,(Sun) 22 May 2005,Barcelona (37),3-3,3-0,Villarreal (37)
?,(Sun) 22 May 2005,Deportivo de La Coruña (37),0-3,2-2,Mallorca (37)
?,(Sun) 22 May 2005,Getafe (37),0-0,0-0,Sevilla (37)
?,(Sun) 22 May 2005,Levante (37),0-0,2-1,Valencia (37)
?,(Sun) 22 May 2005,Málaga (37),2-0,2-1,Racing de Santander (37)
?,(Sun) 22 May 2005,Osasuna (37),1-1,4-1,Espanyol (37)
?,(Sat) 28 May 2005,Real Sociedad (38),0-0,1-0,Barcelona (38)
?,(Sat) 28 May 2005,Zaragoza (38),1-3,3-1,Real Madrid (38)
?,(Sun) 29 May 2005,Atlético de Madrid (38),2-2,1-1,Getafe (38)
?,(Sun) 29 May 2005,Espanyol (38),2-0,1-1,Athletic Club (38)
?,(Sun) 29 May 2005,Mallorca (38),1-1,2-0,Betis (38)
?,(Sun) 29 May 2005,Numancia (38),1-1,1-1,Deportivo de La Coruña (38)
?,(Sun) 29 May 2005,Racing de Santander (38),1-0,0-0,Albacete (38)
?,(Sun) 29 May 2005,Sevilla (38),0-2,1-0,Málaga (38)
?,(Sun) 29 May 2005,Valencia (38),1-0,0-0,Osasuna (38)
?,(Sun) 29 May 2005,Villarreal (38),4-1,2-4,Levante (38)
