Round,Date,Team 1,FT,HT,Team 2
?,(Sat) 14 Sep 1968,Barcelona (1),0-0,2-1,Real Sociedad (1)
?,(Sun) 15 Sep 1968,Elche (1),4-1,0-0,Córdoba (1)
?,(Sun) 15 Sep 1968,Granada (1),0-1,2-1,Sabadell (1)
?,(Sun) 15 Sep 1968,Las Palmas (1),2-1,1-1,Atlético de Madrid (1)
?,(Sun) 15 Sep 1968,CD Málaga (1),3-1,2-0,Deportivo de La Coruña (1)
?,(Sun) 15 Sep 1968,Pontevedra (1),2-0,2-0,Valencia (1)
?,(Sun) 15 Sep 1968,Real Madrid (1),3-1,1-1,Español (1)
?,(Sun) 15 Sep 1968,Zaragoza (1),0-2,3-0,Atlético de Bilbao (1)
?,(Sat) 21 Sep 1968,Atlético de Madrid (2),0-1,4-1,Barcelona (2)
?,(Sat) 21 Sep 1968,Español (2),1-2,1-0,Las Palmas (2)
?,(Sun) 22 Sep 1968,Atlético de Bilbao (2),1-1,1-1,Elche (2)
?,(Sun) 22 Sep 1968,Córdoba (2),2-2,1-1,CD Málaga (2)
?,(Sun) 22 Sep 1968,Deportivo de La Coruña (2),2-4,2-1,Real Madrid (2)
?,(Sun) 22 Sep 1968,Real Sociedad (2),0-0,1-0,Pontevedra (2)
?,(Sun) 22 Sep 1968,Sabadell (2),1-0,3-0,Zaragoza (2)
?,(Sun) 22 Sep 1968,Valencia (2),4-1,3-0,Granada (2)
?,(Sat) 28 Sep 1968,Granada (3),0-0,5-1,Real Sociedad (3)
?,(Sat) 28 Sep 1968,CD Málaga (3),4-0,4-3,Atlético de Bilbao (3)
?,(Sun) 29 Sep 1968,Elche (3),3-0,3-0,Sabadell (3)
?,(Sun) 29 Sep 1968,Español (3),4-0,1-1,Deportivo de La Coruña (3)
?,(Sun) 29 Sep 1968,Las Palmas (3),0-0,1-2,Barcelona (3)
?,(Sun) 29 Sep 1968,Pontevedra (3),0-0,1-0,Atlético de Madrid (3)
?,(Sun) 29 Sep 1968,Real Madrid (3),2-0,2-2,Córdoba (3)
?,(Sun) 29 Sep 1968,Zaragoza (3),3-1,0-0,Valencia (3)
?,(Sun) 6 Oct 1968,Atlético de Bilbao (4),0-1,2-1,Real Madrid (4)
?,(Sun) 6 Oct 1968,Atlético de Madrid (4),1-0,2-0,Granada (4)
?,(Sun) 6 Oct 1968,Barcelona (4),1-0,0-1,Pontevedra (4)
?,(Sun) 6 Oct 1968,Córdoba (4),5-0,3-0,Español (4)
?,(Sun) 6 Oct 1968,Las Palmas (4),2-1,2-0,Deportivo de La Coruña (4)
?,(Sun) 6 Oct 1968,Real Sociedad (4),2-1,2-2,Zaragoza (4)
?,(Sun) 6 Oct 1968,Sabadell (4),2-1,4-2,CD Málaga (4)
?,(Sun) 6 Oct 1968,Valencia (4),1-0,0-0,Elche (4)
?,(Sun) 13 Oct 1968,Deportivo de La Coruña (5),1-0,0-0,Córdoba (5)
?,(Sun) 13 Oct 1968,Elche (5),0-0,1-0,Real Sociedad (5)
?,(Sun) 13 Oct 1968,Español (5),2-0,1-0,Atlético de Bilbao (5)
?,(Sun) 13 Oct 1968,Granada (5),1-0,4-0,Barcelona (5)
?,(Sun) 13 Oct 1968,CD Málaga (5),4-1,0-0,Valencia (5)
?,(Sun) 13 Oct 1968,Pontevedra (5),3-0,1-0,Las Palmas (5)
?,(Sun) 13 Oct 1968,Real Madrid (5),5-3,0-0,Sabadell (5)
?,(Sun) 13 Oct 1968,Zaragoza (5),2-0,1-0,Atlético de Madrid (5)
?,(Sun) 20 Oct 1968,Atlético de Bilbao (6),2-3,1-0,Deportivo de La Coruña (6)
?,(Sun) 20 Oct 1968,Atlético de Madrid (6),0-0,2-2,Elche (6)
?,(Sun) 20 Oct 1968,Barcelona (6),4-0,0-0,Zaragoza (6)
?,(Sun) 20 Oct 1968,Córdoba (6),3-4,4-0,Las Palmas (6)
?,(Sun) 20 Oct 1968,Pontevedra (6),1-0,0-0,Granada (6)
?,(Sun) 20 Oct 1968,Real Sociedad (6),1-0,1-0,CD Málaga (6)
?,(Sun) 20 Oct 1968,Sabadell (6),1-0,1-1,Español (6)
?,(Sun) 20 Oct 1968,Valencia (6),0-1,0-0,Real Madrid (6)
?,(Sun) 3 Nov 1968,Córdoba (7),1-1,3-0,Atlético de Bilbao (7)
?,(Sun) 3 Nov 1968,Deportivo de La Coruña (7),1-1,0-0,Sabadell (7)
?,(Sun) 3 Nov 1968,Elche (7),1-2,1-1,Barcelona (7)
?,(Sun) 3 Nov 1968,Español (7),0-1,2-2,Valencia (7)
?,(Sun) 3 Nov 1968,Las Palmas (7),1-0,2-2,Granada (7)
?,(Sun) 3 Nov 1968,CD Málaga (7),0-0,4-1,Atlético de Madrid (7)
?,(Sun) 3 Nov 1968,Real Madrid (7),2-1,0-2,Real Sociedad (7)
?,(Sun) 3 Nov 1968,Zaragoza (7),2-2,0-0,Pontevedra (7)
?,(Sun) 10 Nov 1968,Atlético de Madrid (8),0-1,0-0,Real Madrid (8)
?,(Sun) 10 Nov 1968,Barcelona (8),1-0,0-3,CD Málaga (8)
?,(Sun) 10 Nov 1968,Granada (8),1-0,6-0,Zaragoza (8)
?,(Sun) 10 Nov 1968,Las Palmas (8),1-1,2-1,Atlético de Bilbao (8)
?,(Sun) 10 Nov 1968,Pontevedra (8),0-1,0-0,Elche (8)
?,(Sun) 10 Nov 1968,Real Sociedad (8),2-1,1-0,Español (8)
?,(Sun) 10 Nov 1968,Sabadell (8),4-0,0-1,Córdoba (8)
?,(Sun) 10 Nov 1968,Valencia (8),2-1,1-2,Deportivo de La Coruña (8)
?,(Sat) 16 Nov 1968,Atlético de Bilbao (9),2-1,1-1,Sabadell (9)
?,(Sat) 16 Nov 1968,Real Madrid (9),2-1,1-1,Barcelona (9)
?,(Sun) 17 Nov 1968,Córdoba (9),2-0,2-2,Valencia (9)
?,(Sun) 17 Nov 1968,Deportivo de La Coruña (9),1-1,1-3,Real Sociedad (9)
?,(Sun) 17 Nov 1968,Elche (9),0-1,1-0,Granada (9)
?,(Sun) 17 Nov 1968,Español (9),3-2,1-0,Atlético de Madrid (9)
?,(Sun) 17 Nov 1968,CD Málaga (9),2-1,1-0,Pontevedra (9)
?,(Sun) 17 Nov 1968,Zaragoza (9),2-3,2-1,Las Palmas (9)
?,(Sun) 24 Nov 1968,Atlético de Madrid (10),5-1,3-1,Deportivo de La Coruña (10)
?,(Sun) 24 Nov 1968,Barcelona (10),1-0,0-0,Español (10)
?,(Sun) 24 Nov 1968,Granada (10),2-0,0-0,CD Málaga (10)
?,(Sun) 24 Nov 1968,Las Palmas (10),3-1,1-1,Sabadell (10)
?,(Sun) 24 Nov 1968,Pontevedra (10),0-0,2-2,Real Madrid (10)
?,(Sun) 24 Nov 1968,Real Sociedad (10),5-1,1-1,Córdoba (10)
?,(Sun) 24 Nov 1968,Valencia (10),5-1,1-2,Atlético de Bilbao (10)
?,(Sun) 24 Nov 1968,Zaragoza (10),0-2,0-0,Elche (10)
?,(Sat) 30 Nov 1968,Real Madrid (11),2-1,0-0,Granada (11)
?,(Sun) 1 Dec 1968,Atlético de Bilbao (11),3-1,2-0,Real Sociedad (11)
?,(Sun) 1 Dec 1968,Córdoba (11),0-3,1-2,Atlético de Madrid (11)
?,(Sun) 1 Dec 1968,Deportivo de La Coruña (11),1-0,4-1,Barcelona (11)
?,(Sun) 1 Dec 1968,Español (11),2-1,1-0,Pontevedra (11)
?,(Sun) 1 Dec 1968,Las Palmas (11),1-1,0-0,Elche (11)
?,(Sun) 1 Dec 1968,CD Málaga (11),1-1,4-0,Zaragoza (11)
?,(Sun) 1 Dec 1968,Sabadell (11),2-1,0-0,Valencia (11)
?,(Sun) 8 Dec 1968,Elche (12),0-0,1-0,CD Málaga (12)
?,(Sun) 8 Dec 1968,Pontevedra (12),0-0,2-0,Deportivo de La Coruña (12)
?,(Sun) 8 Dec 1968,Real Sociedad (12),1-1,1-0,Sabadell (12)
?,(Wed) 18 Dec 1968,Atlético de Madrid (12),4-4,0-2,Atlético de Bilbao (12)
?,(Wed) 18 Dec 1968,Barcelona (12),4-0,2-1,Córdoba (12)
?,(Wed) 18 Dec 1968,Granada (12),1-0,0-0,Español (12)
?,(Wed) 18 Dec 1968,Valencia (12),2-2,2-1,Las Palmas (12)
?,(Wed) 18 Dec 1968,Zaragoza (12),1-1,2-0,Real Madrid (12)
?,(Sun) 15 Dec 1968,Atlético de Bilbao (13),1-1,0-1,Barcelona (13)
?,(Sun) 15 Dec 1968,Córdoba (13),3-1,0-0,Pontevedra (13)
?,(Sun) 15 Dec 1968,Deportivo de La Coruña (13),4-0,1-0,Granada (13)
?,(Sun) 15 Dec 1968,Español (13),3-1,0-0,Zaragoza (13)
?,(Sun) 15 Dec 1968,CD Málaga (13),2-0,3-1,Las Palmas (13)
?,(Sun) 15 Dec 1968,Real Madrid (13),1-1,1-0,Elche (13)
?,(Sun) 15 Dec 1968,Sabadell (13),0-1,2-2,Atlético de Madrid (13)
?,(Sun) 15 Dec 1968,Valencia (13),2-1,4-0,Real Sociedad (13)
?,(Sun) 22 Dec 1968,Atlético de Madrid (14),2-2,2-1,Valencia (14)
?,(Sun) 22 Dec 1968,Barcelona (14),2-0,0-0,Sabadell (14)
?,(Sun) 22 Dec 1968,Elche (14),1-0,1-1,Español (14)
?,(Sun) 22 Dec 1968,Granada (14),3-0,1-1,Córdoba (14)
?,(Sun) 22 Dec 1968,Las Palmas (14),4-0,1-0,Real Sociedad (14)
?,(Sun) 22 Dec 1968,CD Málaga (14),1-2,2-0,Real Madrid (14)
?,(Sun) 22 Dec 1968,Pontevedra (14),1-0,2-2,Atlético de Bilbao (14)
?,(Sun) 22 Dec 1968,Zaragoza (14),3-1,0-1,Deportivo de La Coruña (14)
?,(Sun) 29 Dec 1968,Atlético de Bilbao (15),4-2,1-0,Granada (15)
?,(Sun) 29 Dec 1968,Córdoba (15),0-1,2-2,Zaragoza (15)
?,(Sun) 29 Dec 1968,Deportivo de La Coruña (15),4-2,2-0,Elche (15)
?,(Sun) 29 Dec 1968,Español (15),2-1,4-0,CD Málaga (15)
?,(Sun) 29 Dec 1968,Real Sociedad (15),2-2,1-0,Atlético de Madrid (15)
?,(Sun) 29 Dec 1968,Real Madrid (15),2-0,0-1,Las Palmas (15)
?,(Sun) 29 Dec 1968,Sabadell (15),1-1,0-0,Pontevedra (15)
?,(Sun) 29 Dec 1968,Valencia (15),0-0,1-1,Barcelona (15)
?,(Sat) 4 Jan 1969,Deportivo de La Coruña (16),2-0,3-1,CD Málaga (16)
?,(Sun) 5 Jan 1969,Atlético de Bilbao (16),3-0,0-2,Zaragoza (16)
?,(Sun) 5 Jan 1969,Córdoba (16),0-0,4-1,Elche (16)
?,(Sun) 5 Jan 1969,Español (16),1-1,3-1,Real Madrid (16)
?,(Sun) 5 Jan 1969,Real Sociedad (16),2-1,0-0,Barcelona (16)
?,(Sun) 5 Jan 1969,Sabadell (16),2-1,0-1,Granada (16)
?,(Sun) 5 Jan 1969,Valencia (16),2-0,2-0,Pontevedra (16)
?,(Mon) 6 Jan 1969,Atlético de Madrid (16),1-1,2-1,Las Palmas (16)
?,(Sun) 12 Jan 1969,Barcelona (17),4-1,0-1,Atlético de Madrid (17)
?,(Sun) 12 Jan 1969,Elche (17),1-1,1-1,Atlético de Bilbao (17)
?,(Sun) 12 Jan 1969,Granada (17),3-0,4-1,Valencia (17)
?,(Sun) 12 Jan 1969,Las Palmas (17),1-0,1-2,Español (17)
?,(Sun) 12 Jan 1969,CD Málaga (17),1-1,2-2,Córdoba (17)
?,(Sun) 12 Jan 1969,Pontevedra (17),1-0,0-0,Real Sociedad (17)
?,(Sun) 12 Jan 1969,Real Madrid (17),2-1,2-4,Deportivo de La Coruña (17)
?,(Sun) 12 Jan 1969,Zaragoza (17),3-0,1-0,Sabadell (17)
?,(Sun) 19 Jan 1969,Atlético de Bilbao (18),4-3,4-0,CD Málaga (18)
?,(Sun) 19 Jan 1969,Atlético de Madrid (18),1-0,0-0,Pontevedra (18)
?,(Sun) 19 Jan 1969,Barcelona (18),1-2,0-0,Las Palmas (18)
?,(Sun) 19 Jan 1969,Córdoba (18),2-2,2-0,Real Madrid (18)
?,(Sun) 19 Jan 1969,Deportivo de La Coruña (18),1-1,4-0,Español (18)
?,(Sun) 19 Jan 1969,Real Sociedad (18),5-1,0-0,Granada (18)
?,(Sun) 19 Jan 1969,Sabadell (18),3-0,3-0,Elche (18)
?,(Sun) 19 Jan 1969,Valencia (18),0-0,3-1,Zaragoza (18)
?,(Sun) 26 Jan 1969,Deportivo de La Coruña (19),2-0,2-1,Las Palmas (19)
?,(Sun) 26 Jan 1969,Elche (19),0-0,1-0,Valencia (19)
?,(Sun) 26 Jan 1969,Español (19),3-0,5-0,Córdoba (19)
?,(Sun) 26 Jan 1969,Granada (19),2-0,1-0,Atlético de Madrid (19)
?,(Sun) 26 Jan 1969,CD Málaga (19),4-2,2-1,Sabadell (19)
?,(Sun) 26 Jan 1969,Pontevedra (19),0-1,1-0,Barcelona (19)
?,(Sun) 26 Jan 1969,Real Madrid (19),2-1,0-1,Atlético de Bilbao (19)
?,(Sun) 26 Jan 1969,Zaragoza (19),2-2,2-1,Real Sociedad (19)
?,(Sun) 2 Feb 1969,Atlético de Bilbao (20),1-0,2-0,Español (20)
?,(Sun) 2 Feb 1969,Atlético de Madrid (20),1-0,2-0,Zaragoza (20)
?,(Sun) 2 Feb 1969,Barcelona (20),4-0,1-0,Granada (20)
?,(Sun) 2 Feb 1969,Córdoba (20),0-0,1-0,Deportivo de La Coruña (20)
?,(Sun) 2 Feb 1969,Las Palmas (20),1-0,3-0,Pontevedra (20)
?,(Sun) 2 Feb 1969,Real Sociedad (20),1-0,0-0,Elche (20)
?,(Sun) 2 Feb 1969,Sabadell (20),0-0,5-3,Real Madrid (20)
?,(Sun) 2 Feb 1969,Valencia (20),0-0,4-1,CD Málaga (20)
?,(Sun) 9 Feb 1969,Deportivo de La Coruña (21),1-0,2-3,Atlético de Bilbao (21)
?,(Sun) 9 Feb 1969,Elche (21),2-2,0-0,Atlético de Madrid (21)
?,(Sun) 9 Feb 1969,Español (21),1-1,1-0,Sabadell (21)
?,(Sun) 9 Feb 1969,Granada (21),0-0,1-0,Pontevedra (21)
?,(Sun) 9 Feb 1969,Las Palmas (21),4-0,3-4,Córdoba (21)
?,(Sun) 9 Feb 1969,CD Málaga (21),1-0,1-0,Real Sociedad (21)
?,(Sun) 9 Feb 1969,Real Madrid (21),0-0,0-1,Valencia (21)
?,(Sun) 9 Feb 1969,Zaragoza (21),0-0,4-0,Barcelona (21)
?,(Sun) 16 Feb 1969,Atlético de Bilbao (22),3-0,1-1,Córdoba (22)
?,(Sun) 16 Feb 1969,Atlético de Madrid (22),4-1,0-0,CD Málaga (22)
?,(Sun) 16 Feb 1969,Barcelona (22),1-1,1-2,Elche (22)
?,(Sun) 16 Feb 1969,Granada (22),2-2,1-0,Las Palmas (22)
?,(Sun) 16 Feb 1969,Pontevedra (22),0-0,2-2,Zaragoza (22)
?,(Sun) 16 Feb 1969,Real Sociedad (22),0-2,2-1,Real Madrid (22)
?,(Sun) 16 Feb 1969,Sabadell (22),0-0,1-1,Deportivo de La Coruña (22)
?,(Sun) 16 Feb 1969,Valencia (22),2-2,0-1,Español (22)
?,(Sun) 2 Mar 1969,Atlético de Bilbao (23),2-1,1-1,Las Palmas (23)
?,(Sun) 2 Mar 1969,Córdoba (23),0-1,4-0,Sabadell (23)
?,(Sun) 2 Mar 1969,Deportivo de La Coruña (23),1-2,2-1,Valencia (23)
?,(Sun) 2 Mar 1969,Elche (23),0-0,0-1,Pontevedra (23)
?,(Sun) 2 Mar 1969,Español (23),1-0,2-1,Real Sociedad (23)
?,(Sun) 2 Mar 1969,CD Málaga (23),0-3,1-0,Barcelona (23)
?,(Sun) 2 Mar 1969,Real Madrid (23),0-0,0-1,Atlético de Madrid (23)
?,(Sun) 2 Mar 1969,Zaragoza (23),6-0,1-0,Granada (23)
?,(Sun) 9 Mar 1969,Atlético de Madrid (24),1-0,3-2,Español (24)
?,(Sun) 9 Mar 1969,Barcelona (24),1-1,2-1,Real Madrid (24)
?,(Sun) 9 Mar 1969,Granada (24),1-0,0-1,Elche (24)
?,(Sun) 9 Mar 1969,Las Palmas (24),2-1,2-3,Zaragoza (24)
?,(Sun) 9 Mar 1969,Pontevedra (24),1-0,2-1,CD Málaga (24)
?,(Sun) 9 Mar 1969,Real Sociedad (24),1-3,1-1,Deportivo de La Coruña (24)
?,(Sun) 9 Mar 1969,Sabadell (24),1-1,2-1,Atlético de Bilbao (24)
?,(Sun) 9 Mar 1969,Valencia (24),2-2,2-0,Córdoba (24)
?,(Sat) 15 Mar 1969,Atlético de Bilbao (25),1-2,5-1,Valencia (25)
?,(Sun) 16 Mar 1969,Córdoba (25),1-1,5-1,Real Sociedad (25)
?,(Sun) 16 Mar 1969,Deportivo de La Coruña (25),3-1,5-1,Atlético de Madrid (25)
?,(Sun) 16 Mar 1969,Elche (25),0-0,0-2,Zaragoza (25)
?,(Sun) 16 Mar 1969,Español (25),0-0,1-0,Barcelona (25)
?,(Sun) 16 Mar 1969,CD Málaga (25),0-0,2-0,Granada (25)
?,(Sun) 16 Mar 1969,Real Madrid (25),2-2,0-0,Pontevedra (25)
?,(Sun) 16 Mar 1969,Sabadell (25),1-1,3-1,Las Palmas (25)
?,(Sat) 22 Mar 1969,Pontevedra (26),1-0,2-1,Español (26)
?,(Sun) 23 Mar 1969,Atlético de Madrid (26),1-2,0-3,Córdoba (26)
?,(Sun) 23 Mar 1969,Barcelona (26),4-1,1-0,Deportivo de La Coruña (26)
?,(Sun) 23 Mar 1969,Elche (26),0-0,1-1,Las Palmas (26)
?,(Sun) 23 Mar 1969,Granada (26),0-0,2-1,Real Madrid (26)
?,(Sun) 23 Mar 1969,Real Sociedad (26),2-0,3-1,Atlético de Bilbao (26)
?,(Sun) 23 Mar 1969,Valencia (26),0-0,2-1,Sabadell (26)
?,(Sun) 23 Mar 1969,Zaragoza (26),4-0,1-1,CD Málaga (26)
?,(Sun) 30 Mar 1969,Atlético de Bilbao (27),0-2,4-4,Atlético de Madrid (27)
?,(Sun) 30 Mar 1969,Córdoba (27),2-1,4-0,Barcelona (27)
?,(Sun) 30 Mar 1969,Deportivo de La Coruña (27),2-0,0-0,Pontevedra (27)
?,(Sun) 30 Mar 1969,Español (27),0-0,1-0,Granada (27)
?,(Sun) 30 Mar 1969,Las Palmas (27),2-1,2-2,Valencia (27)
?,(Sun) 30 Mar 1969,CD Málaga (27),1-0,0-0,Elche (27)
?,(Sun) 30 Mar 1969,Real Madrid (27),2-0,1-1,Zaragoza (27)
?,(Sun) 30 Mar 1969,Sabadell (27),1-0,1-1,Real Sociedad (27)
?,(Sun) 6 Apr 1969,Atlético de Madrid (28),2-2,0-1,Sabadell (28)
?,(Sun) 6 Apr 1969,Elche (28),1-0,1-1,Real Madrid (28)
?,(Sun) 6 Apr 1969,Granada (28),1-0,4-0,Deportivo de La Coruña (28)
?,(Sun) 6 Apr 1969,Las Palmas (28),3-1,2-0,CD Málaga (28)
?,(Sun) 6 Apr 1969,Pontevedra (28),0-0,3-1,Córdoba (28)
?,(Sun) 6 Apr 1969,Real Sociedad (28),4-0,2-1,Valencia (28)
?,(Sun) 6 Apr 1969,Zaragoza (28),0-0,3-1,Español (28)
?,(Mon) 7 Apr 1969,Barcelona (28),0-1,1-1,Atlético de Bilbao (28)
?,(Sat) 12 Apr 1969,Atlético de Bilbao (29),2-2,1-0,Pontevedra (29)
?,(Sat) 12 Apr 1969,Valencia (29),2-1,2-2,Atlético de Madrid (29)
?,(Sun) 13 Apr 1969,Córdoba (29),1-1,3-0,Granada (29)
?,(Sun) 13 Apr 1969,Deportivo de La Coruña (29),0-1,3-1,Zaragoza (29)
?,(Sun) 13 Apr 1969,Español (29),1-1,1-0,Elche (29)
?,(Sun) 13 Apr 1969,Real Sociedad (29),1-0,4-0,Las Palmas (29)
?,(Sun) 13 Apr 1969,Real Madrid (29),2-0,1-2,CD Málaga (29)
?,(Sun) 13 Apr 1969,Sabadell (29),0-0,2-0,Barcelona (29)
?,(Wed) 16 Apr 1969,Barcelona (30),1-1,0-0,Valencia (30)
?,(Sun) 20 Apr 1969,Atlético de Madrid (30),1-0,2-2,Real Sociedad (30)
?,(Sun) 20 Apr 1969,Elche (30),2-0,4-2,Deportivo de La Coruña (30)
?,(Sun) 20 Apr 1969,Granada (30),1-0,4-2,Atlético de Bilbao (30)
?,(Sun) 20 Apr 1969,Las Palmas (30),0-1,2-0,Real Madrid (30)
?,(Sun) 20 Apr 1969,CD Málaga (30),4-0,2-1,Español (30)
?,(Sun) 20 Apr 1969,Pontevedra (30),0-0,1-1,Sabadell (30)
?,(Sun) 20 Apr 1969,Zaragoza (30),2-2,0-1,Córdoba (30)
