Round,Date,Team 1,FT,HT,Team 2
?,(Sat) 12 Sep 1970,Atlético de Bilbao (1),1-1,0-1,Barcelona (1)
?,(Sat) 12 Sep 1970,Las Palmas (1),1-1,2-1,Atlético de Madrid (1)
?,(Sat) 12 Sep 1970,Real Madrid (1),2-0,1-0,Valencia (1)
?,(Sun) 13 Sep 1970,Celta de Vigo (1),2-0,4-0,Real Gijón (1)
?,(Sun) 13 Sep 1970,Elche (1),1-1,3-1,Granada (1)
?,(Sun) 13 Sep 1970,Español (1),0-1,1-0,Sevilla (1)
?,(Sun) 13 Sep 1970,Sabadell (1),0-0,2-0,Real Sociedad (1)
?,(Sun) 13 Sep 1970,Zaragoza (1),0-0,1-0,CD Málaga (1)
?,(Sat) 19 Sep 1970,Valencia (2),5-1,0-0,Las Palmas (2)
?,(Sun) 20 Sep 1970,Atlético de Madrid (2),2-0,1-0,Atlético de Bilbao (2)
?,(Sun) 20 Sep 1970,Barcelona (2),5-2,1-2,Zaragoza (2)
?,(Sun) 20 Sep 1970,Real Gijón (2),3-2,2-1,Sabadell (2)
?,(Sun) 20 Sep 1970,Granada (2),1-0,1-0,Español (2)
?,(Sun) 20 Sep 1970,CD Málaga (2),2-1,0-0,Celta de Vigo (2)
?,(Sun) 20 Sep 1970,Real Sociedad (2),2-0,1-2,Elche (2)
?,(Sun) 20 Sep 1970,Sevilla (2),3-1,4-0,Real Madrid (2)
?,(Sat) 26 Sep 1970,Las Palmas (3),1-1,1-0,Atlético de Bilbao (3)
?,(Sat) 26 Sep 1970,Real Madrid (3),3-2,2-0,Granada (3)
?,(Sat) 26 Sep 1970,Valencia (3),0-1,2-2,Sevilla (3)
?,(Sun) 27 Sep 1970,Celta de Vigo (3),1-1,2-1,Barcelona (3)
?,(Sun) 27 Sep 1970,Elche (3),5-0,3-1,Real Gijón (3)
?,(Sun) 27 Sep 1970,Español (3),0-0,1-0,Real Sociedad (3)
?,(Sun) 27 Sep 1970,Sabadell (3),5-2,1-0,CD Málaga (3)
?,(Sun) 27 Sep 1970,Zaragoza (3),0-1,3-0,Atlético de Madrid (3)
?,(Sun) 4 Oct 1970,Atlético de Bilbao (4),3-0,1-2,Zaragoza (4)
?,(Sun) 4 Oct 1970,Atlético de Madrid (4),3-1,3-2,Celta de Vigo (4)
?,(Sun) 4 Oct 1970,Barcelona (4),4-1,2-1,Sabadell (4)
?,(Sun) 4 Oct 1970,Real Gijón (4),0-1,2-0,Español (4)
?,(Sun) 4 Oct 1970,Granada (4),2-2,2-1,Valencia (4)
?,(Sun) 4 Oct 1970,Las Palmas (4),0-0,3-1,Sevilla (4)
?,(Sun) 4 Oct 1970,CD Málaga (4),1-0,1-1,Elche (4)
?,(Sun) 4 Oct 1970,Real Sociedad (4),0-0,1-0,Real Madrid (4)
?,(Sun) 11 Oct 1970,Celta de Vigo (5),2-1,2-0,Atlético de Bilbao (5)
?,(Sun) 11 Oct 1970,Elche (5),0-1,0-0,Barcelona (5)
?,(Sun) 11 Oct 1970,Español (5),1-1,0-0,CD Málaga (5)
?,(Sun) 11 Oct 1970,Real Madrid (5),1-1,0-1,Real Gijón (5)
?,(Sun) 11 Oct 1970,Sabadell (5),0-2,4-1,Atlético de Madrid (5)
?,(Sun) 11 Oct 1970,Sevilla (5),1-0,0-0,Granada (5)
?,(Sun) 11 Oct 1970,Valencia (5),0-0,0-0,Real Sociedad (5)
?,(Sun) 11 Oct 1970,Zaragoza (5),1-1,4-0,Las Palmas (5)
?,(Sat) 17 Oct 1970,Atlético de Bilbao (6),1-0,1-0,Sabadell (6)
?,(Sat) 17 Oct 1970,Atlético de Madrid (6),3-1,0-4,Elche (6)
?,(Sat) 17 Oct 1970,Barcelona (6),3-0,0-1,Español (6)
?,(Sat) 17 Oct 1970,Real Gijón (6),0-1,1-0,Valencia (6)
?,(Sun) 18 Oct 1970,Granada (6),1-0,2-0,Las Palmas (6)
?,(Sun) 18 Oct 1970,CD Málaga (6),0-2,2-2,Real Madrid (6)
?,(Sun) 18 Oct 1970,Real Sociedad (6),1-0,1-0,Sevilla (6)
?,(Sun) 18 Oct 1970,Zaragoza (6),0-0,2-0,Celta de Vigo (6)
?,(Sun) 25 Oct 1970,Elche (7),1-1,2-0,Atlético de Bilbao (7)
?,(Sun) 25 Oct 1970,Español (7),0-0,3-0,Atlético de Madrid (7)
?,(Sun) 25 Oct 1970,Granada (7),2-0,1-1,Real Sociedad (7)
?,(Sun) 25 Oct 1970,Las Palmas (7),1-2,1-0,Celta de Vigo (7)
?,(Sun) 25 Oct 1970,Real Madrid (7),0-1,0-1,Barcelona (7)
?,(Sun) 25 Oct 1970,Sabadell (7),2-1,3-1,Zaragoza (7)
?,(Sun) 25 Oct 1970,Sevilla (7),1-1,4-0,Real Gijón (7)
?,(Sun) 25 Oct 1970,Valencia (7),1-0,0-1,CD Málaga (7)
?,(Sat) 31 Oct 1970,Barcelona (8),0-2,1-1,Valencia (8)
?,(Sun) 1 Nov 1970,Atlético de Bilbao (8),2-0,1-0,Español (8)
?,(Sun) 1 Nov 1970,Atlético de Madrid (8),2-2,1-0,Real Madrid (8)
?,(Sun) 1 Nov 1970,Celta de Vigo (8),1-0,3-2,Sabadell (8)
?,(Sun) 1 Nov 1970,Real Gijón (8),3-2,3-0,Granada (8)
?,(Sun) 1 Nov 1970,Las Palmas (8),4-2,1-0,Real Sociedad (8)
?,(Sun) 1 Nov 1970,CD Málaga (8),1-1,1-0,Sevilla (8)
?,(Sun) 1 Nov 1970,Zaragoza (8),1-1,2-1,Elche (8)
?,(Sun) 15 Nov 1970,Elche (9),1-1,3-0,Celta de Vigo (9)
?,(Sun) 15 Nov 1970,Español (9),0-0,2-2,Zaragoza (9)
?,(Sun) 15 Nov 1970,Granada (9),1-1,1-0,CD Málaga (9)
?,(Sun) 15 Nov 1970,Real Sociedad (9),3-1,2-0,Real Gijón (9)
?,(Sun) 15 Nov 1970,Real Madrid (9),1-2,0-1,Atlético de Bilbao (9)
?,(Sun) 15 Nov 1970,Sabadell (9),0-0,5-0,Las Palmas (9)
?,(Sun) 15 Nov 1970,Sevilla (9),0-1,5-2,Barcelona (9)
?,(Sun) 15 Nov 1970,Valencia (9),1-0,3-0,Atlético de Madrid (9)
?,(Sun) 22 Nov 1970,Atlético de Bilbao (10),0-0,4-0,Valencia (10)
?,(Sun) 22 Nov 1970,Atlético de Madrid (10),4-1,1-1,Sevilla (10)
?,(Sun) 22 Nov 1970,Barcelona (10),2-1,0-2,Granada (10)
?,(Sun) 22 Nov 1970,Celta de Vigo (10),1-0,0-1,Español (10)
?,(Sun) 22 Nov 1970,Las Palmas (10),1-2,2-0,Real Gijón (10)
?,(Sun) 22 Nov 1970,CD Málaga (10),0-0,1-2,Real Sociedad (10)
?,(Sun) 22 Nov 1970,Sabadell (10),1-0,0-0,Elche (10)
?,(Sun) 22 Nov 1970,Zaragoza (10),0-5,2-1,Real Madrid (10)
?,(Sun) 29 Nov 1970,Español (11),3-1,0-0,Sabadell (11)
?,(Sun) 29 Nov 1970,Real Gijón (11),3-0,3-0,CD Málaga (11)
?,(Sun) 29 Nov 1970,Granada (11),0-0,3-0,Atlético de Madrid (11)
?,(Sun) 29 Nov 1970,Las Palmas (11),2-2,2-0,Elche (11)
?,(Sun) 29 Nov 1970,Real Sociedad (11),1-0,4-0,Barcelona (11)
?,(Sun) 29 Nov 1970,Real Madrid (11),4-0,2-0,Celta de Vigo (11)
?,(Sun) 29 Nov 1970,Sevilla (11),3-2,1-0,Atlético de Bilbao (11)
?,(Sun) 29 Nov 1970,Valencia (11),2-0,0-2,Zaragoza (11)
?,(Sun) 6 Dec 1970,Atlético de Bilbao (12),3-0,2-2,Granada (12)
?,(Sun) 6 Dec 1970,Atlético de Madrid (12),1-0,0-1,Real Sociedad (12)
?,(Sun) 6 Dec 1970,Barcelona (12),2-0,0-2,Real Gijón (12)
?,(Sun) 6 Dec 1970,Celta de Vigo (12),1-0,2-1,Valencia (12)
?,(Sun) 6 Dec 1970,Elche (12),1-1,2-0,Español (12)
?,(Sun) 6 Dec 1970,CD Málaga (12),1-1,1-2,Las Palmas (12)
?,(Sun) 6 Dec 1970,Sabadell (12),1-1,3-1,Real Madrid (12)
?,(Sun) 6 Dec 1970,Zaragoza (12),4-1,4-2,Sevilla (12)
?,(Sun) 13 Dec 1970,Español (13),2-1,0-0,Las Palmas (13)
?,(Sun) 13 Dec 1970,Real Gijón (13),1-1,2-0,Atlético de Madrid (13)
?,(Sun) 13 Dec 1970,Granada (13),3-0,0-0,Zaragoza (13)
?,(Sun) 13 Dec 1970,CD Málaga (13),0-1,1-0,Barcelona (13)
?,(Sun) 13 Dec 1970,Real Sociedad (13),2-1,1-1,Atlético de Bilbao (13)
?,(Sun) 13 Dec 1970,Real Madrid (13),1-1,0-1,Elche (13)
?,(Sun) 13 Dec 1970,Sevilla (13),2-1,2-0,Celta de Vigo (13)
?,(Sun) 13 Dec 1970,Valencia (13),2-1,0-1,Sabadell (13)
?,(Sun) 20 Dec 1970,Atlético de Bilbao (14),3-0,3-1,Real Gijón (14)
?,(Sun) 20 Dec 1970,Atlético de Madrid (14),2-1,0-0,CD Málaga (14)
?,(Sun) 20 Dec 1970,Celta de Vigo (14),2-0,1-0,Granada (14)
?,(Sun) 20 Dec 1970,Elche (14),1-3,3-0,Valencia (14)
?,(Sun) 20 Dec 1970,Español (14),0-1,1-0,Real Madrid (14)
?,(Sun) 20 Dec 1970,Las Palmas (14),3-2,2-0,Barcelona (14)
?,(Sun) 20 Dec 1970,Sabadell (14),2-1,1-0,Sevilla (14)
?,(Sun) 20 Dec 1970,Zaragoza (14),1-0,2-0,Real Sociedad (14)
?,(Sun) 27 Dec 1970,Barcelona (15),2-0,1-1,Atlético de Madrid (15)
?,(Sun) 27 Dec 1970,Real Gijón (15),1-1,0-0,Zaragoza (15)
?,(Sun) 27 Dec 1970,Granada (15),3-1,0-1,Sabadell (15)
?,(Sun) 27 Dec 1970,CD Málaga (15),3-3,2-1,Atlético de Bilbao (15)
?,(Sun) 27 Dec 1970,Real Sociedad (15),1-3,0-0,Celta de Vigo (15)
?,(Sun) 27 Dec 1970,Real Madrid (15),4-2,0-0,Las Palmas (15)
?,(Sun) 27 Dec 1970,Sevilla (15),2-1,1-0,Elche (15)
?,(Sun) 27 Dec 1970,Valencia (15),2-1,1-0,Español (15)
?,(Sun) 3 Jan 1971,Atlético de Madrid (16),2-1,1-1,Las Palmas (16)
?,(Sun) 3 Jan 1971,Barcelona (16),0-1,1-1,Atlético de Bilbao (16)
?,(Sun) 3 Jan 1971,Real Gijón (16),4-0,2-0,Celta de Vigo (16)
?,(Sun) 3 Jan 1971,Granada (16),3-1,1-1,Elche (16)
?,(Sun) 3 Jan 1971,CD Málaga (16),1-0,0-0,Zaragoza (16)
?,(Sun) 3 Jan 1971,Real Sociedad (16),2-0,0-0,Sabadell (16)
?,(Sun) 3 Jan 1971,Sevilla (16),1-0,0-1,Español (16)
?,(Sun) 3 Jan 1971,Valencia (16),1-0,2-0,Real Madrid (16)
?,(Sun) 10 Jan 1971,Atlético de Bilbao (17),1-0,2-0,Atlético de Madrid (17)
?,(Sun) 10 Jan 1971,Celta de Vigo (17),0-0,2-1,CD Málaga (17)
?,(Sun) 10 Jan 1971,Elche (17),1-2,2-0,Real Sociedad (17)
?,(Sun) 10 Jan 1971,Español (17),1-0,1-0,Granada (17)
?,(Sun) 10 Jan 1971,Las Palmas (17),0-0,5-1,Valencia (17)
?,(Sun) 10 Jan 1971,Real Madrid (17),4-0,3-1,Sevilla (17)
?,(Sun) 10 Jan 1971,Sabadell (17),2-1,3-2,Real Gijón (17)
?,(Sun) 10 Jan 1971,Zaragoza (17),1-2,5-2,Barcelona (17)
?,(Sun) 17 Jan 1971,Atlético de Bilbao (18),1-0,1-1,Las Palmas (18)
?,(Sun) 17 Jan 1971,Atlético de Madrid (18),3-0,0-1,Zaragoza (18)
?,(Sun) 17 Jan 1971,Barcelona (18),2-1,1-1,Celta de Vigo (18)
?,(Sun) 17 Jan 1971,Real Gijón (18),3-1,5-0,Elche (18)
?,(Sun) 17 Jan 1971,Granada (18),2-0,3-2,Real Madrid (18)
?,(Sun) 17 Jan 1971,CD Málaga (18),1-0,5-2,Sabadell (18)
?,(Sun) 17 Jan 1971,Real Sociedad (18),1-0,0-0,Español (18)
?,(Sun) 17 Jan 1971,Sevilla (18),2-2,0-1,Valencia (18)
?,(Sun) 24 Jan 1971,Celta de Vigo (19),3-2,3-1,Atlético de Madrid (19)
?,(Sun) 24 Jan 1971,Elche (19),1-1,1-0,CD Málaga (19)
?,(Sun) 24 Jan 1971,Español (19),2-0,0-1,Real Gijón (19)
?,(Sun) 24 Jan 1971,Real Madrid (19),1-0,0-0,Real Sociedad (19)
?,(Sun) 24 Jan 1971,Sabadell (19),2-1,4-1,Barcelona (19)
?,(Sun) 24 Jan 1971,Sevilla (19),3-1,0-0,Las Palmas (19)
?,(Sun) 24 Jan 1971,Valencia (19),2-1,2-2,Granada (19)
?,(Sun) 24 Jan 1971,Zaragoza (19),1-2,3-0,Atlético de Bilbao (19)
?,(Sun) 31 Jan 1971,Atlético de Bilbao (20),2-0,2-1,Celta de Vigo (20)
?,(Sun) 31 Jan 1971,Atlético de Madrid (20),4-1,0-2,Sabadell (20)
?,(Sun) 31 Jan 1971,Barcelona (20),0-0,0-1,Elche (20)
?,(Sun) 31 Jan 1971,Real Gijón (20),0-1,1-1,Real Madrid (20)
?,(Sun) 31 Jan 1971,Granada (20),0-0,1-0,Sevilla (20)
?,(Sun) 31 Jan 1971,Las Palmas (20),4-0,1-1,Zaragoza (20)
?,(Sun) 31 Jan 1971,CD Málaga (20),0-0,1-1,Español (20)
?,(Sun) 31 Jan 1971,Real Sociedad (20),0-0,0-0,Valencia (20)
?,(Sun) 7 Feb 1971,Celta de Vigo (21),2-0,0-0,Zaragoza (21)
?,(Sun) 7 Feb 1971,Elche (21),0-4,3-1,Atlético de Madrid (21)
?,(Sun) 7 Feb 1971,Español (21),0-1,3-0,Barcelona (21)
?,(Sun) 7 Feb 1971,Las Palmas (21),2-0,1-0,Granada (21)
?,(Sun) 7 Feb 1971,Real Madrid (21),2-2,0-2,CD Málaga (21)
?,(Sun) 7 Feb 1971,Sabadell (21),1-0,1-0,Atlético de Bilbao (21)
?,(Sun) 7 Feb 1971,Sevilla (21),1-0,1-0,Real Sociedad (21)
?,(Sun) 7 Feb 1971,Valencia (21),1-0,0-1,Real Gijón (21)
?,(Sun) 14 Feb 1971,Atlético de Bilbao (22),2-0,1-1,Elche (22)
?,(Sun) 14 Feb 1971,Atlético de Madrid (22),3-0,0-0,Español (22)
?,(Sun) 14 Feb 1971,Barcelona (22),0-1,0-1,Real Madrid (22)
?,(Sun) 14 Feb 1971,Celta de Vigo (22),1-0,1-2,Las Palmas (22)
?,(Sun) 14 Feb 1971,Real Gijón (22),4-0,1-1,Sevilla (22)
?,(Sun) 14 Feb 1971,CD Málaga (22),0-1,1-0,Valencia (22)
?,(Sun) 14 Feb 1971,Real Sociedad (22),1-1,2-0,Granada (22)
?,(Sun) 14 Feb 1971,Zaragoza (22),3-1,2-1,Sabadell (22)
?,(Sun) 28 Feb 1971,Elche (23),2-1,1-1,Zaragoza (23)
?,(Sun) 28 Feb 1971,Español (23),1-0,2-0,Atlético de Bilbao (23)
?,(Sun) 28 Feb 1971,Granada (23),3-0,3-2,Real Gijón (23)
?,(Sun) 28 Feb 1971,Real Sociedad (23),1-0,4-2,Las Palmas (23)
?,(Sun) 28 Feb 1971,Real Madrid (23),1-0,2-2,Atlético de Madrid (23)
?,(Sun) 28 Feb 1971,Sabadell (23),3-2,1-0,Celta de Vigo (23)
?,(Sun) 28 Feb 1971,Sevilla (23),1-0,1-1,CD Málaga (23)
?,(Sun) 28 Feb 1971,Valencia (23),1-1,0-2,Barcelona (23)
?,(Sat) 6 Mar 1971,Atlético de Madrid (24),3-0,1-0,Valencia (24)
?,(Sun) 7 Mar 1971,Atlético de Bilbao (24),0-1,1-2,Real Madrid (24)
?,(Sun) 7 Mar 1971,Barcelona (24),5-2,0-1,Sevilla (24)
?,(Sun) 7 Mar 1971,Celta de Vigo (24),3-0,1-1,Elche (24)
?,(Sun) 7 Mar 1971,Real Gijón (24),2-0,3-1,Real Sociedad (24)
?,(Sun) 7 Mar 1971,Las Palmas (24),5-0,0-0,Sabadell (24)
?,(Sun) 7 Mar 1971,CD Málaga (24),1-0,1-1,Granada (24)
?,(Sun) 7 Mar 1971,Zaragoza (24),2-2,0-0,Español (24)
?,(Sun) 14 Mar 1971,Elche (25),0-0,1-0,Sabadell (25)
?,(Sun) 14 Mar 1971,Español (25),0-1,1-0,Celta de Vigo (25)
?,(Sun) 14 Mar 1971,Real Gijón (25),2-0,1-2,Las Palmas (25)
?,(Sun) 14 Mar 1971,Granada (25),0-2,2-1,Barcelona (25)
?,(Sun) 14 Mar 1971,Real Sociedad (25),1-2,0-0,CD Málaga (25)
?,(Sun) 14 Mar 1971,Real Madrid (25),2-1,0-5,Zaragoza (25)
?,(Sun) 14 Mar 1971,Sevilla (25),1-1,4-1,Atlético de Madrid (25)
?,(Sun) 14 Mar 1971,Valencia (25),4-0,0-0,Atlético de Bilbao (25)
?,(Sat) 20 Mar 1971,Atlético de Madrid (26),3-0,0-0,Granada (26)
?,(Sun) 21 Mar 1971,Atlético de Bilbao (26),1-0,3-2,Sevilla (26)
?,(Sun) 21 Mar 1971,Barcelona (26),4-0,1-0,Real Sociedad (26)
?,(Sun) 21 Mar 1971,Celta de Vigo (26),2-0,4-0,Real Madrid (26)
?,(Sun) 21 Mar 1971,Elche (26),2-0,2-2,Las Palmas (26)
?,(Sun) 21 Mar 1971,CD Málaga (26),3-0,3-0,Real Gijón (26)
?,(Sun) 21 Mar 1971,Sabadell (26),0-0,3-1,Español (26)
?,(Sun) 21 Mar 1971,Zaragoza (26),0-2,2-0,Valencia (26)
?,(Sun) 28 Mar 1971,Español (27),2-0,1-1,Elche (27)
?,(Sun) 28 Mar 1971,Real Gijón (27),0-2,2-0,Barcelona (27)
?,(Sun) 28 Mar 1971,Granada (27),2-2,3-0,Atlético de Bilbao (27)
?,(Sun) 28 Mar 1971,Las Palmas (27),1-2,1-1,CD Málaga (27)
?,(Sun) 28 Mar 1971,Real Sociedad (27),0-1,1-0,Atlético de Madrid (27)
?,(Sun) 28 Mar 1971,Real Madrid (27),3-1,1-1,Sabadell (27)
?,(Sun) 28 Mar 1971,Sevilla (27),4-2,4-1,Zaragoza (27)
?,(Sun) 28 Mar 1971,Valencia (27),2-1,1-0,Celta de Vigo (27)
?,(Sun) 4 Apr 1971,Atlético de Bilbao (28),1-1,2-1,Real Sociedad (28)
?,(Sun) 4 Apr 1971,Atlético de Madrid (28),2-0,1-1,Real Gijón (28)
?,(Sun) 4 Apr 1971,Barcelona (28),1-0,0-1,CD Málaga (28)
?,(Sun) 4 Apr 1971,Celta de Vigo (28),2-0,2-1,Sevilla (28)
?,(Sun) 4 Apr 1971,Elche (28),0-1,1-1,Real Madrid (28)
?,(Sun) 4 Apr 1971,Las Palmas (28),0-0,2-1,Español (28)
?,(Sun) 4 Apr 1971,Sabadell (28),0-1,2-1,Valencia (28)
?,(Sun) 4 Apr 1971,Zaragoza (28),0-0,3-0,Granada (28)
?,(Sat) 10 Apr 1971,CD Málaga (29),0-0,2-1,Atlético de Madrid (29)
?,(Sat) 10 Apr 1971,Real Madrid (29),1-0,0-1,Español (29)
?,(Sun) 11 Apr 1971,Real Gijón (29),3-1,3-0,Atlético de Bilbao (29)
?,(Sun) 11 Apr 1971,Granada (29),1-0,2-0,Celta de Vigo (29)
?,(Sun) 11 Apr 1971,Real Sociedad (29),2-0,1-0,Zaragoza (29)
?,(Sun) 11 Apr 1971,Sevilla (29),1-0,2-1,Sabadell (29)
?,(Sun) 11 Apr 1971,Valencia (29),3-0,1-3,Elche (29)
?,(Mon) 12 Apr 1971,Barcelona (29),2-0,3-2,Las Palmas (29)
?,(Sun) 18 Apr 1971,Atlético de Bilbao (30),2-1,3-3,CD Málaga (30)
?,(Sun) 18 Apr 1971,Atlético de Madrid (30),1-1,2-0,Barcelona (30)
?,(Sun) 18 Apr 1971,Celta de Vigo (30),0-0,1-3,Real Sociedad (30)
?,(Sun) 18 Apr 1971,Elche (30),1-0,2-1,Sevilla (30)
?,(Sun) 18 Apr 1971,Español (30),1-0,2-1,Valencia (30)
?,(Sun) 18 Apr 1971,Las Palmas (30),0-0,4-2,Real Madrid (30)
?,(Sun) 18 Apr 1971,Sabadell (30),0-1,3-1,Granada (30)
?,(Sun) 18 Apr 1971,Zaragoza (30),0-0,1-1,Real Gijón (30)
