Round,Date,Team 1,FT,HT,Team 2
?,(Sat) 30 Aug 2008,Espanyol (1),1-0,1-1,Valladolid (1)
?,(Sat) 30 Aug 2008,Valencia (1),3-0,3-1,Mallorca (1)
?,(Sun) 31 Aug 2008,Athletic Club (1),1-3,2-1,Almería (1)
?,(Sun) 31 Aug 2008,Atlético de Madrid (1),4-0,1-1,Málaga (1)
?,(Sun) 31 Aug 2008,Betis (1),0-1,1-0,Recreativo de Huelva (1)
?,(Sun) 31 Aug 2008,Deportivo de La Coruña (1),2-1,1-0,Real Madrid (1)
?,(Sun) 31 Aug 2008,Sporting de Gijón (1),1-2,5-1,Getafe (1)
?,(Sun) 31 Aug 2008,Numancia (1),1-0,4-1,Barcelona (1)
?,(Sun) 31 Aug 2008,Osasuna (1),1-1,1-1,Villarreal (1)
?,(Sun) 31 Aug 2008,Racing de Santander (1),1-1,0-2,Sevilla (1)
?,(Sat) 13 Sep 2008,Barcelona (2),1-1,1-2,Racing de Santander (2)
?,(Sat) 13 Sep 2008,Sevilla (2),4-3,1-0,Sporting de Gijón (2)
?,(Sat) 13 Sep 2008,Valladolid (2),2-1,1-2,Atlético de Madrid (2)
?,(Sun) 14 Sep 2008,Getafe (2),0-0,2-2,Betis (2)
?,(Sun) 14 Sep 2008,Recreativo de Huelva (2),0-1,1-1,Espanyol (2)
?,(Sun) 14 Sep 2008,Málaga (2),0-0,3-2,Athletic Club (2)
?,(Sun) 14 Sep 2008,Mallorca (2),1-1,1-0,Osasuna (2)
?,(Sun) 14 Sep 2008,Real Madrid (2),4-3,0-2,Numancia (2)
?,(Sun) 14 Sep 2008,Almería (2),2-2,3-2,Valencia (2)
?,(Sun) 14 Sep 2008,Villarreal (2),1-0,3-0,Deportivo de La Coruña (2)
?,(Sat) 20 Sep 2008,Atlético de Madrid (3),4-0,0-3,Recreativo de Huelva (3)
?,(Sat) 20 Sep 2008,Espanyol (3),1-1,1-1,Getafe (3)
?,(Sun) 21 Sep 2008,Athletic Club (3),2-0,2-1,Valladolid (3)
?,(Sun) 21 Sep 2008,Betis (3),0-0,1-2,Sevilla (3)
?,(Sun) 21 Sep 2008,Deportivo de La Coruña (3),0-0,1-1,Mallorca (3)
?,(Sun) 21 Sep 2008,Sporting de Gijón (3),1-6,3-1,Barcelona (3)
?,(Sun) 21 Sep 2008,Numancia (3),1-2,2-1,Villarreal (3)
?,(Sun) 21 Sep 2008,Racing de Santander (3),0-2,1-0,Real Madrid (3)
?,(Sun) 21 Sep 2008,Almería (3),1-0,3-2,Málaga (3)
?,(Sun) 21 Sep 2008,Valencia (3),1-0,1-0,Osasuna (3)
?,(Wed) 24 Sep 2008,Barcelona (4),3-2,2-2,Betis (4)
?,(Wed) 24 Sep 2008,Getafe (4),1-2,1-1,Atlético de Madrid (4)
?,(Wed) 24 Sep 2008,Osasuna (4),0-0,0-0,Deportivo de La Coruña (4)
?,(Wed) 24 Sep 2008,Real Madrid (4),7-1,0-4,Sporting de Gijón (4)
?,(Wed) 24 Sep 2008,Sevilla (4),2-0,0-2,Espanyol (4)
?,(Wed) 24 Sep 2008,Villarreal (4),2-0,1-1,Racing de Santander (4)
?,(Thu) 25 Sep 2008,Recreativo de Huelva (4),1-1,1-1,Athletic Club (4)
?,(Thu) 25 Sep 2008,Málaga (4),0-2,1-1,Valencia (4)
?,(Thu) 25 Sep 2008,Mallorca (4),2-0,0-1,Numancia (4)
?,(Thu) 25 Sep 2008,Valladolid (4),2-0,3-2,Almería (4)
?,(Sat) 27 Sep 2008,Betis (5),1-2,6-1,Real Madrid (5)
?,(Sat) 27 Sep 2008,Espanyol (5),1-2,1-2,Barcelona (5)
?,(Sat) 27 Sep 2008,Sporting de Gijón (5),0-1,2-1,Villarreal (5)
?,(Sun) 28 Sep 2008,Athletic Club (5),0-1,1-1,Getafe (5)
?,(Sun) 28 Sep 2008,Atlético de Madrid (5),0-1,1-0,Sevilla (5)
?,(Sun) 28 Sep 2008,Málaga (5),2-1,1-3,Valladolid (5)
?,(Sun) 28 Sep 2008,Numancia (5),0-0,2-0,Osasuna (5)
?,(Sun) 28 Sep 2008,Racing de Santander (5),1-2,1-0,Mallorca (5)
?,(Sun) 28 Sep 2008,Almería (5),1-0,1-1,Recreativo de Huelva (5)
?,(Sun) 28 Sep 2008,Valencia (5),4-2,1-1,Deportivo de La Coruña (5)
?,(Sat) 4 Oct 2008,Barcelona (6),6-1,4-3,Atlético de Madrid (6)
?,(Sat) 4 Oct 2008,Villarreal (6),2-1,2-2,Betis (6)
?,(Sun) 5 Oct 2008,Deportivo de La Coruña (6),1-0,0-1,Numancia (6)
?,(Sun) 5 Oct 2008,Getafe (6),2-2,2-1,Almería (6)
?,(Sun) 5 Oct 2008,Recreativo de Huelva (6),0-4,0-2,Málaga (6)
?,(Sun) 5 Oct 2008,Mallorca (6),0-2,0-1,Sporting de Gijón (6)
?,(Sun) 5 Oct 2008,Osasuna (6),0-1,1-1,Racing de Santander (6)
?,(Sun) 5 Oct 2008,Real Madrid (6),2-2,0-2,Espanyol (6)
?,(Sun) 5 Oct 2008,Sevilla (6),4-0,1-2,Athletic Club (6)
?,(Sun) 5 Oct 2008,Valladolid (6),0-1,1-2,Valencia (6)
?,(Sat) 18 Oct 2008,Atlético de Madrid (7),1-2,1-1,Real Madrid (7)
?,(Sat) 18 Oct 2008,Espanyol (7),0-0,1-0,Villarreal (7)
?,(Sun) 19 Oct 2008,Athletic Club (7),0-1,2-0,Barcelona (7)
?,(Sun) 19 Oct 2008,Betis (7),3-0,3-3,Mallorca (7)
?,(Sun) 19 Oct 2008,Sporting de Gijón (7),2-1,1-2,Osasuna (7)
?,(Sun) 19 Oct 2008,Málaga (7),2-1,1-2,Getafe (7)
?,(Sun) 19 Oct 2008,Racing de Santander (7),0-0,5-3,Deportivo de La Coruña (7)
?,(Sun) 19 Oct 2008,Almería (7),0-1,2-1,Sevilla (7)
?,(Sun) 19 Oct 2008,Valencia (7),4-0,2-1,Numancia (7)
?,(Sun) 19 Oct 2008,Valladolid (7),1-1,2-3,Recreativo de Huelva (7)
?,(Sat) 25 Oct 2008,Barcelona (8),5-0,0-2,Almería (8)
?,(Sat) 25 Oct 2008,Osasuna (8),0-2,0-0,Betis (8)
?,(Sun) 26 Oct 2008,Deportivo de La Coruña (8),0-3,3-2,Sporting de Gijón (8)
?,(Sun) 26 Oct 2008,Getafe (8),1-0,1-0,Valladolid (8)
?,(Sun) 26 Oct 2008,Recreativo de Huelva (8),1-1,1-1,Valencia (8)
?,(Sun) 26 Oct 2008,Mallorca (8),3-0,3-3,Espanyol (8)
?,(Sun) 26 Oct 2008,Numancia (8),2-1,5-0,Racing de Santander (8)
?,(Sun) 26 Oct 2008,Real Madrid (8),3-2,2-5,Athletic Club (8)
?,(Sun) 26 Oct 2008,Sevilla (8),0-1,2-2,Málaga (8)
?,(Sun) 26 Oct 2008,Villarreal (8),4-4,3-2,Atlético de Madrid (8)
?,(Sat) 1 Nov 2008,Athletic Club (9),1-4,2-0,Villarreal (9)
?,(Sat) 1 Nov 2008,Atlético de Madrid (9),2-0,2-0,Mallorca (9)
?,(Sat) 1 Nov 2008,Málaga (9),1-4,6-0,Barcelona (9)
?,(Sat) 1 Nov 2008,Valencia (9),2-4,0-1,Racing de Santander (9)
?,(Sun) 2 Nov 2008,Betis (9),0-3,1-1,Deportivo de La Coruña (9)
?,(Sun) 2 Nov 2008,Espanyol (9),1-0,1-0,Osasuna (9)
?,(Sun) 2 Nov 2008,Sporting de Gijón (9),3-1,2-1,Numancia (9)
?,(Sun) 2 Nov 2008,Recreativo de Huelva (9),1-1,2-1,Getafe (9)
?,(Sun) 2 Nov 2008,Almería (9),1-1,3-0,Real Madrid (9)
?,(Sun) 2 Nov 2008,Valladolid (9),3-2,4-1,Sevilla (9)
?,(Sat) 8 Nov 2008,Barcelona (10),6-0,0-1,Valladolid (10)
?,(Sat) 8 Nov 2008,Real Madrid (10),4-3,0-1,Málaga (10)
?,(Sun) 9 Nov 2008,Deportivo de La Coruña (10),1-0,3-1,Espanyol (10)
?,(Sun) 9 Nov 2008,Getafe (10),0-3,4-1,Valencia (10)
?,(Sun) 9 Nov 2008,Mallorca (10),3-3,2-1,Athletic Club (10)
?,(Sun) 9 Nov 2008,Numancia (10),2-4,3-3,Betis (10)
?,(Sun) 9 Nov 2008,Osasuna (10),0-0,2-4,Atlético de Madrid (10)
?,(Sun) 9 Nov 2008,Racing de Santander (10),1-0,0-2,Sporting de Gijón (10)
?,(Sun) 9 Nov 2008,Sevilla (10),1-0,0-1,Recreativo de Huelva (10)
?,(Sun) 9 Nov 2008,Villarreal (10),2-1,3-0,Almería (10)
?,(Sat) 15 Nov 2008,Valencia (11),2-3,2-3,Sporting de Gijón (11)
?,(Sat) 15 Nov 2008,Valladolid (11),1-0,2-0,Real Madrid (11)
?,(Sun) 16 Nov 2008,Athletic Club (11),2-0,2-1,Osasuna (11)
?,(Sun) 16 Nov 2008,Atlético de Madrid (11),4-1,1-2,Deportivo de La Coruña (11)
?,(Sun) 16 Nov 2008,Betis (11),3-1,2-3,Racing de Santander (11)
?,(Sun) 16 Nov 2008,Espanyol (11),3-4,0-0,Numancia (11)
?,(Sun) 16 Nov 2008,Getafe (11),0-2,0-1,Sevilla (11)
?,(Sun) 16 Nov 2008,Recreativo de Huelva (11),0-2,2-0,Barcelona (11)
?,(Sun) 16 Nov 2008,Málaga (11),2-2,0-2,Villarreal (11)
?,(Sun) 16 Nov 2008,Almería (11),2-1,2-0,Mallorca (11)
?,(Sat) 22 Nov 2008,Real Madrid (12),1-0,0-1,Recreativo de Huelva (12)
?,(Sat) 22 Nov 2008,Sevilla (12),0-0,3-1,Valencia (12)
?,(Sat) 22 Nov 2008,Villarreal (12),0-3,0-0,Valladolid (12)
?,(Sun) 23 Nov 2008,Barcelona (12),1-1,0-1,Getafe (12)
?,(Sun) 23 Nov 2008,Deportivo de La Coruña (12),3-1,0-1,Athletic Club (12)
?,(Sun) 23 Nov 2008,Sporting de Gijón (12),1-2,2-0,Betis (12)
?,(Sun) 23 Nov 2008,Mallorca (12),2-2,1-1,Málaga (12)
?,(Sun) 23 Nov 2008,Numancia (12),1-1,3-0,Atlético de Madrid (12)
?,(Sun) 23 Nov 2008,Osasuna (12),3-1,2-1,Almería (12)
?,(Sun) 23 Nov 2008,Racing de Santander (12),3-0,1-0,Espanyol (12)
?,(Sat) 29 Nov 2008,Getafe (13),3-1,3-2,Real Madrid (13)
?,(Sat) 29 Nov 2008,Sevilla (13),0-3,4-0,Barcelona (13)
?,(Sun) 30 Nov 2008,Athletic Club (13),2-0,1-2,Numancia (13)
?,(Sun) 30 Nov 2008,Atlético de Madrid (13),4-1,5-1,Racing de Santander (13)
?,(Sun) 30 Nov 2008,Espanyol (13),0-1,0-3,Sporting de Gijón (13)
?,(Sun) 30 Nov 2008,Recreativo de Huelva (13),1-2,2-1,Villarreal (13)
?,(Sun) 30 Nov 2008,Málaga (13),4-2,2-3,Osasuna (13)
?,(Sun) 30 Nov 2008,Almería (13),0-1,2-0,Deportivo de La Coruña (13)
?,(Sun) 30 Nov 2008,Valencia (13),3-2,1-2,Betis (13)
?,(Sun) 30 Nov 2008,Valladolid (13),3-0,2-0,Mallorca (13)
?,(Sat) 6 Dec 2008,Barcelona (14),4-0,2-2,Valencia (14)
?,(Sat) 6 Dec 2008,Sporting de Gijón (14),2-5,3-1,Atlético de Madrid (14)
?,(Sat) 6 Dec 2008,Villarreal (14),3-3,1-2,Getafe (14)
?,(Sun) 7 Dec 2008,Betis (14),1-1,2-0,Espanyol (14)
?,(Sun) 7 Dec 2008,Deportivo de La Coruña (14),2-0,1-1,Málaga (14)
?,(Sun) 7 Dec 2008,Mallorca (14),2-3,2-4,Recreativo de Huelva (14)
?,(Sun) 7 Dec 2008,Numancia (14),2-1,2-1,Almería (14)
?,(Sun) 7 Dec 2008,Osasuna (14),3-3,0-0,Valladolid (14)
?,(Sun) 7 Dec 2008,Racing de Santander (14),1-1,2-1,Athletic Club (14)
?,(Sun) 7 Dec 2008,Real Madrid (14),3-4,2-4,Sevilla (14)
?,(Sat) 13 Dec 2008,Barcelona (15),2-0,2-6,Real Madrid (15)
?,(Sat) 13 Dec 2008,Valencia (15),2-1,3-0,Espanyol (15)
?,(Sun) 14 Dec 2008,Athletic Club (15),3-0,1-1,Sporting de Gijón (15)
?,(Sun) 14 Dec 2008,Atlético de Madrid (15),2-0,0-2,Betis (15)
?,(Sun) 14 Dec 2008,Getafe (15),4-1,2-1,Mallorca (15)
?,(Sun) 14 Dec 2008,Recreativo de Huelva (15),1-0,1-2,Osasuna (15)
?,(Sun) 14 Dec 2008,Málaga (15),2-0,2-0,Numancia (15)
?,(Sun) 14 Dec 2008,Sevilla (15),1-0,0-2,Villarreal (15)
?,(Sun) 14 Dec 2008,Almería (15),1-1,0-2,Racing de Santander (15)
?,(Sun) 14 Dec 2008,Valladolid (15),3-0,1-0,Deportivo de La Coruña (15)
?,(Sat) 20 Dec 2008,Espanyol (16),2-3,3-2,Atlético de Madrid (16)
?,(Sat) 20 Dec 2008,Real Madrid (16),1-0,3-0,Valencia (16)
?,(Sun) 21 Dec 2008,Betis (16),0-1,1-0,Athletic Club (16)
?,(Sun) 21 Dec 2008,Deportivo de La Coruña (16),4-1,1-2,Recreativo de Huelva (16)
?,(Sun) 21 Dec 2008,Sporting de Gijón (16),1-0,3-1,Almería (16)
?,(Sun) 21 Dec 2008,Mallorca (16),0-0,3-1,Sevilla (16)
?,(Sun) 21 Dec 2008,Numancia (16),4-3,0-0,Valladolid (16)
?,(Sun) 21 Dec 2008,Osasuna (16),5-2,3-0,Getafe (16)
?,(Sun) 21 Dec 2008,Racing de Santander (16),1-1,1-0,Málaga (16)
?,(Sun) 21 Dec 2008,Villarreal (16),1-2,3-3,Barcelona (16)
?,(Sat) 3 Jan 2009,Barcelona (17),3-1,2-1,Mallorca (17)
?,(Sat) 3 Jan 2009,Valencia (17),3-1,1-0,Atlético de Madrid (17)
?,(Sun) 4 Jan 2009,Athletic Club (17),1-1,1-0,Espanyol (17)
?,(Sun) 4 Jan 2009,Getafe (17),1-2,1-1,Deportivo de La Coruña (17)
?,(Sun) 4 Jan 2009,Recreativo de Huelva (17),3-1,1-0,Numancia (17)
?,(Sun) 4 Jan 2009,Málaga (17),1-0,2-1,Sporting de Gijón (17)
?,(Sun) 4 Jan 2009,Real Madrid (17),1-0,3-2,Villarreal (17)
?,(Sun) 4 Jan 2009,Sevilla (17),1-1,0-0,Osasuna (17)
?,(Sun) 4 Jan 2009,Almería (17),1-0,2-0,Betis (17)
?,(Sun) 4 Jan 2009,Valladolid (17),0-1,3-2,Racing de Santander (17)
?,(Sat) 10 Jan 2009,Deportivo de La Coruña (18),1-3,1-0,Sevilla (18)
?,(Sat) 10 Jan 2009,Valencia (18),3-3,3-1,Villarreal (18)
?,(Sun) 11 Jan 2009,Atlético de Madrid (18),2-3,1-4,Athletic Club (18)
?,(Sun) 11 Jan 2009,Betis (18),1-2,1-1,Málaga (18)
?,(Sun) 11 Jan 2009,Espanyol (18),2-2,0-3,Almería (18)
?,(Sun) 11 Jan 2009,Sporting de Gijón (18),2-1,1-2,Valladolid (18)
?,(Sun) 11 Jan 2009,Mallorca (18),0-3,1-3,Real Madrid (18)
?,(Sun) 11 Jan 2009,Numancia (18),2-0,1-0,Getafe (18)
?,(Sun) 11 Jan 2009,Osasuna (18),2-3,0-1,Barcelona (18)
?,(Sun) 11 Jan 2009,Racing de Santander (18),1-1,0-1,Recreativo de Huelva (18)
?,(Sat) 17 Jan 2009,Barcelona (19),5-0,1-1,Deportivo de La Coruña (19)
?,(Sat) 17 Jan 2009,Sevilla (19),1-0,0-2,Numancia (19)
?,(Sun) 18 Jan 2009,Athletic Club (19),3-2,2-0,Valencia (19)
?,(Sun) 18 Jan 2009,Getafe (19),0-1,1-1,Racing de Santander (19)
?,(Sun) 18 Jan 2009,Recreativo de Huelva (19),2-0,2-1,Sporting de Gijón (19)
?,(Sun) 18 Jan 2009,Málaga (19),4-0,3-0,Espanyol (19)
?,(Sun) 18 Jan 2009,Real Madrid (19),3-1,2-1,Osasuna (19)
?,(Sun) 18 Jan 2009,Almería (19),1-1,3-0,Atlético de Madrid (19)
?,(Sun) 18 Jan 2009,Valladolid (19),1-3,1-1,Betis (19)
?,(Sun) 18 Jan 2009,Villarreal (19),2-0,2-3,Mallorca (19)
?,(Sat) 24 Jan 2009,Barcelona (20),4-1,1-0,Numancia (20)
?,(Sat) 24 Jan 2009,Villarreal (20),1-1,1-1,Osasuna (20)
?,(Sun) 25 Jan 2009,Getafe (20),5-1,1-2,Sporting de Gijón (20)
?,(Sun) 25 Jan 2009,Recreativo de Huelva (20),1-0,0-1,Betis (20)
?,(Sun) 25 Jan 2009,Málaga (20),1-1,4-0,Atlético de Madrid (20)
?,(Sun) 25 Jan 2009,Mallorca (20),3-1,3-0,Valencia (20)
?,(Sun) 25 Jan 2009,Real Madrid (20),1-0,2-1,Deportivo de La Coruña (20)
?,(Sun) 25 Jan 2009,Sevilla (20),0-2,1-1,Racing de Santander (20)
?,(Sun) 25 Jan 2009,Almería (20),2-1,1-3,Athletic Club (20)
?,(Sun) 25 Jan 2009,Valladolid (20),1-1,1-0,Espanyol (20)
?,(Sat) 31 Jan 2009,Athletic Club (21),3-2,0-0,Málaga (21)
?,(Sat) 31 Jan 2009,Numancia (21),0-2,4-3,Real Madrid (21)
?,(Sun) 1 Feb 2009,Atlético de Madrid (21),1-2,2-1,Valladolid (21)
?,(Sun) 1 Feb 2009,Betis (21),2-2,0-0,Getafe (21)
?,(Sun) 1 Feb 2009,Deportivo de La Coruña (21),3-0,1-0,Villarreal (21)
?,(Sun) 1 Feb 2009,Espanyol (21),1-1,0-1,Recreativo de Huelva (21)
?,(Sun) 1 Feb 2009,Sporting de Gijón (21),1-0,4-3,Sevilla (21)
?,(Sun) 1 Feb 2009,Osasuna (21),1-0,1-1,Mallorca (21)
?,(Sun) 1 Feb 2009,Racing de Santander (21),1-2,1-1,Barcelona (21)
?,(Sun) 1 Feb 2009,Valencia (21),3-2,2-2,Almería (21)
?,(Sat) 7 Feb 2009,Real Madrid (22),1-0,0-2,Racing de Santander (22)
?,(Sat) 7 Feb 2009,Sevilla (22),1-2,0-0,Betis (22)
?,(Sun) 8 Feb 2009,Barcelona (22),3-1,1-6,Sporting de Gijón (22)
?,(Sun) 8 Feb 2009,Getafe (22),1-1,1-1,Espanyol (22)
?,(Sun) 8 Feb 2009,Recreativo de Huelva (22),0-3,4-0,Atlético de Madrid (22)
?,(Sun) 8 Feb 2009,Málaga (22),3-2,1-0,Almería (22)
?,(Sun) 8 Feb 2009,Mallorca (22),1-1,0-0,Deportivo de La Coruña (22)
?,(Sun) 8 Feb 2009,Osasuna (22),1-0,1-0,Valencia (22)
?,(Sun) 8 Feb 2009,Valladolid (22),2-1,2-0,Athletic Club (22)
?,(Sun) 8 Feb 2009,Villarreal (22),2-1,1-2,Numancia (22)
?,(Sat) 14 Feb 2009,Betis (23),2-2,3-2,Barcelona (23)
?,(Sat) 14 Feb 2009,Deportivo de La Coruña (23),0-0,0-0,Osasuna (23)
?,(Sat) 14 Feb 2009,Valencia (23),1-1,0-2,Málaga (23)
?,(Sun) 15 Feb 2009,Athletic Club (23),1-1,1-1,Recreativo de Huelva (23)
?,(Sun) 15 Feb 2009,Atlético de Madrid (23),1-1,1-2,Getafe (23)
?,(Sun) 15 Feb 2009,Espanyol (23),0-2,2-0,Sevilla (23)
?,(Sun) 15 Feb 2009,Sporting de Gijón (23),0-4,7-1,Real Madrid (23)
?,(Sun) 15 Feb 2009,Numancia (23),0-1,2-0,Mallorca (23)
?,(Sun) 15 Feb 2009,Racing de Santander (23),1-1,2-0,Villarreal (23)
?,(Sun) 15 Feb 2009,Almería (23),3-2,2-0,Valladolid (23)
?,(Sat) 21 Feb 2009,Barcelona (24),1-2,1-2,Espanyol (24)
?,(Sat) 21 Feb 2009,Real Madrid (24),6-1,1-2,Betis (24)
?,(Sat) 21 Feb 2009,Sevilla (24),1-0,0-1,Atlético de Madrid (24)
?,(Sat) 21 Feb 2009,Villarreal (24),2-1,0-1,Sporting de Gijón (24)
?,(Sun) 22 Feb 2009,Deportivo de La Coruña (24),1-1,4-2,Valencia (24)
?,(Sun) 22 Feb 2009,Getafe (24),1-1,0-1,Athletic Club (24)
?,(Sun) 22 Feb 2009,Recreativo de Huelva (24),1-1,1-0,Almería (24)
?,(Sun) 22 Feb 2009,Mallorca (24),1-0,1-2,Racing de Santander (24)
?,(Sun) 22 Feb 2009,Osasuna (24),2-0,0-0,Numancia (24)
?,(Sun) 22 Feb 2009,Valladolid (24),1-3,2-1,Málaga (24)
?,(Sat) 28 Feb 2009,Athletic Club (25),1-2,4-0,Sevilla (25)
?,(Sat) 28 Feb 2009,Espanyol (25),0-2,2-2,Real Madrid (25)
?,(Sun) 1 Mar 2009,Atlético de Madrid (25),4-3,6-1,Barcelona (25)
?,(Sun) 1 Mar 2009,Betis (25),2-2,2-1,Villarreal (25)
?,(Sun) 1 Mar 2009,Sporting de Gijón (25),0-1,0-2,Mallorca (25)
?,(Sun) 1 Mar 2009,Málaga (25),0-2,0-4,Recreativo de Huelva (25)
?,(Sun) 1 Mar 2009,Numancia (25),0-1,1-0,Deportivo de La Coruña (25)
?,(Sun) 1 Mar 2009,Racing de Santander (25),1-1,0-1,Osasuna (25)
?,(Sun) 1 Mar 2009,Almería (25),2-1,2-2,Getafe (25)
?,(Sun) 1 Mar 2009,Valencia (25),1-2,0-1,Valladolid (25)
?,(Sat) 7 Mar 2009,Barcelona (26),2-0,0-1,Athletic Club (26)
?,(Sat) 7 Mar 2009,Real Madrid (26),1-1,1-2,Atlético de Madrid (26)
?,(Sat) 7 Mar 2009,Villarreal (26),1-0,0-0,Espanyol (26)
?,(Sun) 8 Mar 2009,Deportivo de La Coruña (26),5-3,0-0,Racing de Santander (26)
?,(Sun) 8 Mar 2009,Getafe (26),1-2,2-1,Málaga (26)
?,(Sun) 8 Mar 2009,Recreativo de Huelva (26),2-3,1-1,Valladolid (26)
?,(Sun) 8 Mar 2009,Mallorca (26),3-3,3-0,Betis (26)
?,(Sun) 8 Mar 2009,Numancia (26),2-1,4-0,Valencia (26)
?,(Sun) 8 Mar 2009,Osasuna (26),1-2,2-1,Sporting de Gijón (26)
?,(Sun) 8 Mar 2009,Sevilla (26),2-1,0-1,Almería (26)
?,(Sat) 14 Mar 2009,Athletic Club (27),2-5,3-2,Real Madrid (27)
?,(Sat) 14 Mar 2009,Valencia (27),1-1,1-1,Recreativo de Huelva (27)
?,(Sun) 15 Mar 2009,Atlético de Madrid (27),3-2,4-4,Villarreal (27)
?,(Sun) 15 Mar 2009,Betis (27),0-0,0-2,Osasuna (27)
?,(Sun) 15 Mar 2009,Espanyol (27),3-3,3-0,Mallorca (27)
?,(Sun) 15 Mar 2009,Sporting de Gijón (27),3-2,0-3,Deportivo de La Coruña (27)
?,(Sun) 15 Mar 2009,Málaga (27),2-2,0-1,Sevilla (27)
?,(Sun) 15 Mar 2009,Racing de Santander (27),5-0,2-1,Numancia (27)
?,(Sun) 15 Mar 2009,Almería (27),0-2,5-0,Barcelona (27)
?,(Sun) 15 Mar 2009,Valladolid (27),1-0,1-0,Getafe (27)
?,(Sat) 21 Mar 2009,Sevilla (28),4-1,3-2,Valladolid (28)
?,(Sat) 21 Mar 2009,Villarreal (28),2-0,1-4,Athletic Club (28)
?,(Sun) 22 Mar 2009,Barcelona (28),6-0,1-4,Málaga (28)
?,(Sun) 22 Mar 2009,Deportivo de La Coruña (28),1-1,0-3,Betis (28)
?,(Sun) 22 Mar 2009,Getafe (28),2-1,1-1,Recreativo de Huelva (28)
?,(Sun) 22 Mar 2009,Mallorca (28),2-0,2-0,Atlético de Madrid (28)
?,(Sun) 22 Mar 2009,Numancia (28),2-1,3-1,Sporting de Gijón (28)
?,(Sun) 22 Mar 2009,Osasuna (28),1-0,1-0,Espanyol (28)
?,(Sun) 22 Mar 2009,Racing de Santander (28),0-1,2-4,Valencia (28)
?,(Sun) 22 Mar 2009,Real Madrid (28),3-0,1-1,Almería (28)
?,(Sat) 4 Apr 2009,Athletic Club (29),2-1,3-3,Mallorca (29)
?,(Sat) 4 Apr 2009,Betis (29),3-3,2-4,Numancia (29)
?,(Sat) 4 Apr 2009,Recreativo de Huelva (29),0-1,1-0,Sevilla (29)
?,(Sat) 4 Apr 2009,Málaga (29),0-1,4-3,Real Madrid (29)
?,(Sat) 4 Apr 2009,Almería (29),3-0,2-1,Villarreal (29)
?,(Sat) 4 Apr 2009,Valladolid (29),0-1,6-0,Barcelona (29)
?,(Sun) 5 Apr 2009,Atlético de Madrid (29),2-4,0-0,Osasuna (29)
?,(Sun) 5 Apr 2009,Espanyol (29),3-1,1-0,Deportivo de La Coruña (29)
?,(Sun) 5 Apr 2009,Sporting de Gijón (29),0-2,1-0,Racing de Santander (29)
?,(Sun) 5 Apr 2009,Valencia (29),4-1,0-3,Getafe (29)
?,(Sat) 11 Apr 2009,Barcelona (30),2-0,0-2,Recreativo de Huelva (30)
?,(Sat) 11 Apr 2009,Villarreal (30),0-2,2-2,Málaga (30)
?,(Sun) 12 Apr 2009,Deportivo de La Coruña (30),1-2,4-1,Atlético de Madrid (30)
?,(Sun) 12 Apr 2009,Sporting de Gijón (30),2-3,2-3,Valencia (30)
?,(Sun) 12 Apr 2009,Mallorca (30),2-0,2-1,Almería (30)
?,(Sun) 12 Apr 2009,Numancia (30),0-0,3-4,Espanyol (30)
?,(Sun) 12 Apr 2009,Osasuna (30),2-1,2-0,Athletic Club (30)
?,(Sun) 12 Apr 2009,Racing de Santander (30),2-3,3-1,Betis (30)
?,(Sun) 12 Apr 2009,Real Madrid (30),2-0,1-0,Valladolid (30)
?,(Sun) 12 Apr 2009,Sevilla (30),0-1,0-2,Getafe (30)
?,(Sat) 18 Apr 2009,Athletic Club (31),0-1,3-1,Deportivo de La Coruña (31)
?,(Sat) 18 Apr 2009,Atlético de Madrid (31),3-0,1-1,Numancia (31)
?,(Sat) 18 Apr 2009,Getafe (31),0-1,1-1,Barcelona (31)
?,(Sat) 18 Apr 2009,Recreativo de Huelva (31),0-1,1-0,Real Madrid (31)
?,(Sat) 18 Apr 2009,Málaga (31),1-1,2-2,Mallorca (31)
?,(Sun) 19 Apr 2009,Betis (31),2-0,1-2,Sporting de Gijón (31)
?,(Sun) 19 Apr 2009,Espanyol (31),1-0,3-0,Racing de Santander (31)
?,(Sun) 19 Apr 2009,Almería (31),2-1,3-1,Osasuna (31)
?,(Sun) 19 Apr 2009,Valencia (31),3-1,0-0,Sevilla (31)
?,(Sun) 19 Apr 2009,Valladolid (31),0-0,0-3,Villarreal (31)
?,(Tue) 21 Apr 2009,Numancia (32),1-2,2-0,Athletic Club (32)
?,(Tue) 21 Apr 2009,Real Madrid (32),3-2,3-1,Getafe (32)
?,(Wed) 22 Apr 2009,Barcelona (32),4-0,0-3,Sevilla (32)
?,(Wed) 22 Apr 2009,Betis (32),1-2,3-2,Valencia (32)
?,(Wed) 22 Apr 2009,Deportivo de La Coruña (32),2-0,0-1,Almería (32)
?,(Wed) 22 Apr 2009,Osasuna (32),2-3,4-2,Málaga (32)
?,(Thu) 23 Apr 2009,Sporting de Gijón (32),0-3,0-1,Espanyol (32)
?,(Thu) 23 Apr 2009,Mallorca (32),2-0,3-0,Valladolid (32)
?,(Thu) 23 Apr 2009,Racing de Santander (32),5-1,4-1,Atlético de Madrid (32)
?,(Thu) 23 Apr 2009,Villarreal (32),2-1,1-2,Recreativo de Huelva (32)
?,(Sat) 25 Apr 2009,Málaga (33),1-1,2-0,Deportivo de La Coruña (33)
?,(Sat) 25 Apr 2009,Almería (33),2-1,2-1,Numancia (33)
?,(Sat) 25 Apr 2009,Valencia (33),2-2,4-0,Barcelona (33)
?,(Sun) 26 Apr 2009,Athletic Club (33),2-1,1-1,Racing de Santander (33)
?,(Sun) 26 Apr 2009,Atlético de Madrid (33),3-1,2-5,Sporting de Gijón (33)
?,(Sun) 26 Apr 2009,Espanyol (33),2-0,1-1,Betis (33)
?,(Sun) 26 Apr 2009,Getafe (33),1-2,3-3,Villarreal (33)
?,(Sun) 26 Apr 2009,Recreativo de Huelva (33),2-4,2-3,Mallorca (33)
?,(Sun) 26 Apr 2009,Sevilla (33),2-4,3-4,Real Madrid (33)
?,(Sun) 26 Apr 2009,Valladolid (33),0-0,3-3,Osasuna (33)
?,(Sat) 2 May 2009,Numancia (34),2-0,2-0,Málaga (34)
?,(Sat) 2 May 2009,Real Madrid (34),2-6,2-0,Barcelona (34)
?,(Sat) 2 May 2009,Villarreal (34),0-2,1-0,Sevilla (34)
?,(Sun) 3 May 2009,Betis (34),0-2,2-0,Atlético de Madrid (34)
?,(Sun) 3 May 2009,Deportivo de La Coruña (34),1-0,3-0,Valladolid (34)
?,(Sun) 3 May 2009,Espanyol (34),3-0,2-1,Valencia (34)
?,(Sun) 3 May 2009,Sporting de Gijón (34),1-1,3-0,Athletic Club (34)
?,(Sun) 3 May 2009,Mallorca (34),2-1,4-1,Getafe (34)
?,(Sun) 3 May 2009,Osasuna (34),1-2,1-0,Recreativo de Huelva (34)
?,(Sun) 3 May 2009,Racing de Santander (34),0-2,1-1,Almería (34)
?,(Sat) 9 May 2009,Athletic Club (35),1-0,0-1,Betis (35)
?,(Sat) 9 May 2009,Sevilla (35),3-1,0-0,Mallorca (35)
?,(Sat) 9 May 2009,Valencia (35),3-0,1-0,Real Madrid (35)
?,(Sun) 10 May 2009,Atlético de Madrid (35),3-2,2-3,Espanyol (35)
?,(Sun) 10 May 2009,Barcelona (35),3-3,1-2,Villarreal (35)
?,(Sun) 10 May 2009,Getafe (35),3-0,5-2,Osasuna (35)
?,(Sun) 10 May 2009,Recreativo de Huelva (35),1-2,4-1,Deportivo de La Coruña (35)
?,(Sun) 10 May 2009,Málaga (35),1-0,1-1,Racing de Santander (35)
?,(Sun) 10 May 2009,Almería (35),3-1,1-0,Sporting de Gijón (35)
?,(Sun) 10 May 2009,Valladolid (35),0-0,4-3,Numancia (35)
?,(Sat) 16 May 2009,Deportivo de La Coruña (36),1-1,1-2,Getafe (36)
?,(Sat) 16 May 2009,Osasuna (36),0-0,1-1,Sevilla (36)
?,(Sat) 16 May 2009,Villarreal (36),3-2,1-0,Real Madrid (36)
?,(Sun) 17 May 2009,Atlético de Madrid (36),1-0,3-1,Valencia (36)
?,(Sun) 17 May 2009,Betis (36),2-0,1-0,Almería (36)
?,(Sun) 17 May 2009,Espanyol (36),1-0,1-1,Athletic Club (36)
?,(Sun) 17 May 2009,Sporting de Gijón (36),2-1,1-0,Málaga (36)
?,(Sun) 17 May 2009,Mallorca (36),2-1,3-1,Barcelona (36)
?,(Sun) 17 May 2009,Numancia (36),1-0,3-1,Recreativo de Huelva (36)
?,(Sun) 17 May 2009,Racing de Santander (36),3-2,0-1,Valladolid (36)
?,(Sat) 23 May 2009,Athletic Club (37),1-4,2-3,Atlético de Madrid (37)
?,(Sat) 23 May 2009,Barcelona (37),0-1,2-3,Osasuna (37)
?,(Sat) 23 May 2009,Getafe (37),1-0,2-0,Numancia (37)
?,(Sat) 23 May 2009,Recreativo de Huelva (37),0-1,1-1,Racing de Santander (37)
?,(Sat) 23 May 2009,Málaga (37),1-1,1-2,Betis (37)
?,(Sat) 23 May 2009,Sevilla (37),1-0,1-3,Deportivo de La Coruña (37)
?,(Sat) 23 May 2009,Almería (37),0-3,2-2,Espanyol (37)
?,(Sat) 23 May 2009,Valladolid (37),1-2,2-1,Sporting de Gijón (37)
?,(Sat) 23 May 2009,Villarreal (37),3-1,3-3,Valencia (37)
?,(Sun) 24 May 2009,Real Madrid (37),1-3,0-3,Mallorca (37)
?,(Sat) 30 May 2009,Atlético de Madrid (38),3-0,1-1,Almería (38)
?,(Sat) 30 May 2009,Deportivo de La Coruña (38),1-1,5-0,Barcelona (38)
?,(Sat) 30 May 2009,Mallorca (38),2-3,2-0,Villarreal (38)
?,(Sat) 30 May 2009,Valencia (38),2-0,3-2,Athletic Club (38)
?,(Sun) 31 May 2009,Betis (38),1-1,1-3,Valladolid (38)
?,(Sun) 31 May 2009,Espanyol (38),3-0,4-0,Málaga (38)
?,(Sun) 31 May 2009,Sporting de Gijón (38),2-1,2-0,Recreativo de Huelva (38)
?,(Sun) 31 May 2009,Numancia (38),0-2,1-0,Sevilla (38)
?,(Sun) 31 May 2009,Osasuna (38),2-1,3-1,Real Madrid (38)
?,(Sun) 31 May 2009,Racing de Santander (38),1-1,0-1,Getafe (38)
